contour_details : [2140 1250],[2140 1569],[2139 1570],[1685 1570],[1685 1669],[2184 1669],[2184 1615],[2185 1614],[2239 1614],[2239 1250]
contour_details : [1475 1145],[1475 1194],[1574 1194],[1574 1145]
contour_details : [1930 1025],[1930 1164],[1984 1164],[1985 1165],[1985 1224],[2349 1224],[2349 1125],[2030 1125],[2029 1124],[2029 1025]
