contour_details : [1471 1732],[1471 1885],[1778 1885],[1778 1844],[1779 1843],[1792 1843],[1792 1734],[1744 1734],[1743 1733],[1583 1733],[1582 1732] : hall : [1564,1798]
contour_details : [682 1508],[682 1929],[1461 1929],[1461 1508] : sejour : [997,1706]
contour_details : [1475 1308],[1475 1715],[1507 1715],[1508 1716],[1617 1716],[1618 1717],[1728 1717],[1729 1718],[1838 1718],[1839 1719],[1916 1719],[1916 1308] : cuisine : [1690,1511]
contour_details : [686 1120],[686 1489],[1459 1489],[1459 1290],[1460 1289],[1581 1289],[1581 1120] : repas : [1219,1322]
