25
3
1.0
3
rectangle
109
201
35
130
58.7962583844
0.0
0.0
0.0
0.0
0.0
0.0
0.0
0.0
0.0
0.0
0.0
0.0
0.0
0.0
0.0
0.0
0.0
0.0
0.0
0.158536585366
0.262195121951
0.140243902439
0.121951219512
0.128048780488
0.185975609756
0.259379798714
0.0335365853659
0.0365853658537
0.0426829268293
0.0426829268293
0.0457317073171
0.0426829268293
0.0335365853659
0.0457317073171
0.0426829268293
0.0426829268293
0.0426829268293
0.0365853658537
0.0213414634146
0.0182926829268
0.0213414634146
0.0213414634146
0.0213414634146
0.0213414634146
0.015243902439
0.0213414634146
0.0243902439024
0.0213414634146
0.0182926829268
0.0182926829268
0.015243902439
2
rectangle
103
313
29
155
120.933866224
0.0
0.0
0.0
0.0
0.0
0.0
0.0
0.0
0.0
0.0
0.0
0.0
3.98124509922e-07
9.37519007235e-07
5.65079949566e-07
4.62338140554e-07
4.10967236048e-07
3.85281783795e-07
3.08225427036e-07
1.33564351716e-06
2.64560158206e-06
2.72265793882e-06
2.33737615502e-06
2.24747707214e-06
2.47864614241e-06
0.0
0.0
0.0
0.0
0.0
0.0
0.0
0.0
0.0
0.0
0.0
0.0
3.98124509922e-07
9.37519007235e-07
5.65079949566e-07
4.62338140554e-07
4.10967236048e-07
3.85281783795e-07
3.08225427036e-07
1.33564351716e-06
2.64560158206e-06
2.72265793882e-06
2.33737615502e-06
2.24747707214e-06
2.47864614241e-06
0.0
0.0
0.0
0.0
0.0
0.0
0.0
0.0
0.0
0.0
0.0
0.0
3.98124509922e-07
9.37519007235e-07
5.65079949566e-07
4.62338140554e-07
4.10967236048e-07
3.85281783795e-07
3.08225427036e-07
1.33564351716e-06
2.64560158206e-06
2.72265793882e-06
2.33737615502e-06
2.24747707214e-06
2.47864614241e-06
0.0377135976226
6.80664484705e-07
6.42136306325e-07
7.44878115337e-07
7.7056356759e-07
1.00173263787e-06
8.60462650476e-07
6.80664484705e-07
6.67821758578e-07
6.67821758578e-07
6.03608127946e-07
5.65079949566e-07
5.1370904506e-07
3.98124509922e-07
2.5685452253e-07
2.82539974783e-07
2.9538270091e-07
3.33910879289e-07
3.33910879289e-07
3.08225427036e-07
4.23809962175e-07
5.1370904506e-07
3.85281783795e-07
3.59596331542e-07
3.33910879289e-07
3.08225427036e-07
6.80664484705e-07
6.42136306325e-07
7.44878115337e-07
7.7056356759e-07
1.00173263787e-06
8.60462650476e-07
6.80664484705e-07
6.67821758578e-07
6.67821758578e-07
6.03608127946e-07
5.65079949566e-07
5.1370904506e-07
3.98124509922e-07
2.5685452253e-07
2.82539974783e-07
2.9538270091e-07
3.33910879289e-07
3.33910879289e-07
3.08225427036e-07
4.23809962175e-07
5.1370904506e-07
3.85281783795e-07
3.59596331542e-07
3.33910879289e-07
3.08225427036e-07
6.80664484705e-07
6.42136306325e-07
7.44878115337e-07
7.7056356759e-07
1.00173263787e-06
8.60462650476e-07
6.80664484705e-07
6.67821758578e-07
6.67821758578e-07
6.03608127946e-07
5.65079949566e-07
5.1370904506e-07
3.98124509922e-07
2.5685452253e-07
2.82539974783e-07
2.9538270091e-07
3.33910879289e-07
3.33910879289e-07
3.08225427036e-07
4.23809962175e-07
5.1370904506e-07
3.85281783795e-07
3.59596331542e-07
3.33910879289e-07
3.08225427036e-07
4
rectangle
215
307
35
130
58.7962583844
0.0
0.0
0.0
0.0
0.0
0.0
0.0
0.0
0.0
0.0
0.0
0.0
0.0
0.0
0.0
0.0
0.0
0.0
0.0
0.158054711246
0.261398176292
0.139817629179
0.121580547112
0.121580547112
0.19452887538
0.259459729416
0.0334346504559
0.0364741641337
0.0425531914894
0.0425531914894
0.048632218845
0.0395136778116
0.0334346504559
0.0455927051672
0.0425531914894
0.0425531914894
0.0425531914894
0.0364741641337
0.0212765957447
0.0182370820669
0.0212765957447
0.0212765957447
0.0212765957447
0.0212765957447
0.0182370820669
0.0212765957447
0.0243161094225
0.0212765957447
0.0182370820669
0.0182370820669
0.0151975683891
3
2
3
1
1
0.320055581288
floor
2
4
1
1
0.320074880346
floor
3
4
1
1
0.999939704552
floor
