contour_details : [900 1905],[900 2464],[1184 2464],[1184 2452],[1183 2451],[1183 2433],[1182 2432],[1182 2414],[1181 2413],[1181 2395],[1180 2394],[1180 2376],[1179 2375],[1179 2370],[1169 2370],[1168 2369],[1132 2369],[1131 2368],[1095 2368],[1094 2367],[1058 2367],[1057 2366],[1021 2366],[1020 2365],[995 2365],[994 2364],[994 2336],[995 2335],[995 2244],[996 2243],[996 2152],[997 2151],[997 2060],[998 2059],[998 1968],[999 1967],[999 1905] : dgt : [994,2419]
contour_details : [685 1730],[685 1739],[684 1740],[684 1771],[683 1772],[683 1803],[682 1804],[682 1835],[681 1836],[681 1867],[680 1868],[680 1889],[725 1889],[726 1888],[791 1888],[792 1887],[857 1887],[858 1886],[923 1886],[924 1885],[989 1885],[990 1884],[1009 1884],[1009 1730] : hall : [923,1797]
contour_details : [560 1305],[560 1330],[559 1331],[559 1411],[558 1412],[558 1492],[557 1493],[557 1573],[556 1574],[556 1654],[555 1655],[555 1709],[889 1709],[889 1305] : cuisine : [800,1509]
contour_details : [1799 1135],[1796 1138],[1795 1138],[1792 1141],[1791 1141],[1787 1145],[1786 1145],[1783 1148],[1782 1148],[1779 1151],[1778 1151],[1774 1155],[1773 1155],[1770 1158],[1769 1158],[1765 1162],[1764 1162],[1761 1165],[1760 1165],[1756 1169],[1755 1169],[1752 1172],[1751 1172],[1747 1176],[1746 1176],[1743 1179],[1742 1179],[1738 1183],[1737 1183],[1734 1186],[1733 1186],[1729 1190],[1728 1190],[1725 1193],[1724 1193],[1720 1197],[1719 1197],[1716 1200],[1715 1200],[1712 1203],[1711 1203],[1707 1207],[1706 1207],[1703 1210],[1702 1210],[1698 1214],[1697 1214],[1694 1217],[1693 1217],[1689 1221],[1688 1221],[1685 1224],[1684 1224],[1680 1228],[1679 1228],[1676 1231],[1675 1231],[1671 1235],[1670 1235],[1667 1238],[1666 1238],[1662 1242],[1661 1242],[1658 1245],[1657 1245],[1653 1249],[1652 1249],[1649 1252],[1648 1252],[1645 1255],[1644 1255],[1640 1259],[1639 1259],[1636 1262],[1635 1262],[1631 1266],[1630 1266],[1627 1269],[1626 1269],[1622 1273],[1621 1273],[1618 1276],[1617 1276],[1613 1280],[1612 1280],[1609 1283],[1608 1283],[1604 1287],[1603 1287],[1600 1290],[1599 1290],[1595 1294],[1594 1294],[1591 1297],[1590 1297],[1586 1301],[1585 1301],[1582 1304],[1581 1304],[1578 1307],[1577 1307],[1573 1311],[1572 1311],[1569 1314],[1568 1314],[1564 1318],[1563 1318],[1560 1321],[1559 1321],[1555 1325],[1554 1325],[1551 1328],[1550 1328],[1546 1332],[1545 1332],[1542 1335],[1541 1335],[1537 1339],[1536 1339],[1533 1342],[1532 1342],[1528 1346],[1527 1346],[1524 1349],[1523 1349],[1519 1353],[1518 1353],[1515 1356],[1514 1356],[1511 1359],[1510 1359],[1506 1363],[1505 1363],[1502 1366],[1501 1366],[1497 1370],[1496 1370],[1493 1373],[1492 1373],[1488 1377],[1487 1377],[1484 1380],[1483 1380],[1479 1384],[1478 1384],[1475 1387],[1474 1387],[1470 1391],[1469 1391],[1466 1394],[1465 1394],[1461 1398],[1460 1398],[1457 1401],[1456 1401],[1452 1405],[1451 1405],[1448 1408],[1447 1408],[1444 1411],[1443 1411],[1439 1415],[1438 1415],[1435 1418],[1434 1418],[1430 1422],[1429 1422],[1426 1425],[1425 1425],[1421 1429],[1420 1429],[1417 1432],[1416 1432],[1412 1436],[1411 1436],[1408 1439],[1407 1439],[1403 1443],[1402 1443],[1399 1446],[1398 1446],[1394 1450],[1393 1450],[1390 1453],[1389 1453],[1385 1457],[1384 1457],[1381 1460],[1380 1460],[1377 1463],[1376 1463],[1372 1467],[1371 1467],[1368 1470],[1367 1470],[1363 1474],[1362 1474],[1359 1477],[1358 1477],[1354 1481],[1353 1481],[1350 1484],[1349 1484],[1345 1488],[1344 1488],[1341 1491],[1340 1491],[1336 1495],[1335 1495],[1332 1498],[1331 1498],[1327 1502],[1326 1502],[1323 1505],[1322 1505],[1318 1509],[1317 1509],[1314 1512],[1313 1512],[1310 1515],[1309 1515],[1305 1519],[1304 1519],[1301 1522],[1300 1522],[1296 1526],[1295 1526],[1292 1529],[1291 1529],[1287 1533],[1286 1533],[1283 1536],[1282 1536],[1278 1540],[1277 1540],[1274 1543],[1273 1543],[1269 1547],[1268 1547],[1265 1550],[1264 1550],[1260 1554],[1259 1554],[1256 1557],[1255 1557],[1251 1561],[1250 1561],[1247 1564],[1246 1564],[1243 1567],[1242 1567],[1238 1571],[1237 1571],[1234 1574],[1233 1574],[1229 1578],[1228 1578],[1225 1581],[1224 1581],[1220 1585],[1219 1585],[1216 1588],[1215 1588],[1211 1592],[1210 1592],[1207 1595],[1206 1595],[1202 1599],[1201 1599],[1198 1602],[1197 1602],[1193 1606],[1192 1606],[1189 1609],[1188 1609],[1184 1613],[1183 1613],[1180 1616],[1179 1616],[1176 1619],[1175 1619],[1171 1623],[1170 1623],[1167 1626],[1166 1626],[1162 1630],[1161 1630],[1158 1633],[1157 1633],[1153 1637],[1152 1637],[1149 1640],[1148 1640],[1144 1644],[1143 1644],[1140 1647],[1139 1647],[1135 1651],[1134 1651],[1131 1654],[1130 1654],[1126 1658],[1125 1658],[1122 1661],[1121 1661],[1117 1665],[1116 1665],[1113 1668],[1112 1668],[1109 1671],[1108 1671],[1104 1675],[1103 1675],[1100 1678],[1099 1678],[1095 1682],[1094 1682],[1091 1685],[1090 1685],[1086 1689],[1085 1689],[1082 1692],[1081 1692],[1077 1696],[1076 1696],[1073 1699],[1072 1699],[1068 1703],[1067 1703],[1064 1706],[1063 1706],[1059 1710],[1058 1710],[1055 1713],[1054 1713],[1050 1717],[1049 1717],[1046 1720],[1045 1720],[1042 1723],[1041 1723],[1039 1725],[1038 1725],[1037 1726],[1035 1726],[1034 1727],[1032 1727],[1031 1728],[1029 1728],[1028 1729],[1026 1729],[1025 1730],[1025 1934],[1799 1934] : sejour : [1485,1706]
contour_details : [900 1115],[900 1709],[906 1709],[907 1710],[930 1710],[931 1711],[954 1711],[955 1712],[978 1712],[979 1713],[1002 1713],[1003 1714],[1020 1714],[1022 1712],[1023 1712],[1027 1708],[1028 1708],[1031 1705],[1032 1705],[1035 1702],[1036 1702],[1039 1699],[1040 1699],[1043 1696],[1044 1696],[1048 1692],[1049 1692],[1052 1689],[1053 1689],[1056 1686],[1057 1686],[1060 1683],[1061 1683],[1065 1679],[1066 1679],[1069 1676],[1070 1676],[1073 1673],[1074 1673],[1077 1670],[1078 1670],[1081 1667],[1082 1667],[1086 1663],[1087 1663],[1090 1660],[1091 1660],[1094 1657],[1095 1657],[1098 1654],[1099 1654],[1102 1651],[1103 1651],[1107 1647],[1108 1647],[1111 1644],[1112 1644],[1115 1641],[1116 1641],[1119 1638],[1120 1638],[1124 1634],[1125 1634],[1128 1631],[1129 1631],[1132 1628],[1133 1628],[1136 1625],[1137 1625],[1140 1622],[1141 1622],[1145 1618],[1146 1618],[1149 1615],[1150 1615],[1153 1612],[1154 1612],[1157 1609],[1158 1609],[1161 1606],[1162 1606],[1166 1602],[1167 1602],[1170 1599],[1171 1599],[1174 1596],[1175 1596],[1178 1593],[1179 1593],[1183 1589],[1184 1589],[1187 1586],[1188 1586],[1191 1583],[1192 1583],[1195 1580],[1196 1580],[1199 1577],[1200 1577],[1204 1573],[1205 1573],[1208 1570],[1209 1570],[1212 1567],[1213 1567],[1216 1564],[1217 1564],[1221 1560],[1222 1560],[1225 1557],[1226 1557],[1229 1554],[1230 1554],[1233 1551],[1234 1551],[1237 1548],[1238 1548],[1242 1544],[1243 1544],[1246 1541],[1247 1541],[1250 1538],[1251 1538],[1254 1535],[1255 1535],[1258 1532],[1259 1532],[1263 1528],[1264 1528],[1267 1525],[1268 1525],[1271 1522],[1272 1522],[1275 1519],[1276 1519],[1280 1515],[1281 1515],[1284 1512],[1285 1512],[1288 1509],[1289 1509],[1292 1506],[1293 1506],[1296 1503],[1297 1503],[1301 1499],[1302 1499],[1305 1496],[1306 1496],[1309 1493],[1310 1493],[1313 1490],[1314 1490],[1317 1487],[1318 1487],[1322 1483],[1323 1483],[1326 1480],[1327 1480],[1330 1477],[1331 1477],[1334 1474],[1335 1474],[1339 1470],[1340 1470],[1343 1467],[1344 1467],[1347 1464],[1348 1464],[1351 1461],[1352 1461],[1355 1458],[1356 1458],[1360 1454],[1361 1454],[1364 1451],[1365 1451],[1368 1448],[1369 1448],[1372 1445],[1373 1445],[1377 1441],[1378 1441],[1381 1438],[1382 1438],[1385 1435],[1386 1435],[1389 1432],[1390 1432],[1393 1429],[1394 1429],[1398 1425],[1399 1425],[1402 1422],[1403 1422],[1406 1419],[1407 1419],[1410 1416],[1411 1416],[1414 1413],[1415 1413],[1419 1409],[1420 1409],[1423 1406],[1424 1406],[1427 1403],[1428 1403],[1431 1400],[1432 1400],[1436 1396],[1437 1396],[1440 1393],[1441 1393],[1444 1390],[1445 1390],[1448 1387],[1449 1387],[1452 1384],[1453 1384],[1457 1380],[1458 1380],[1461 1377],[1462 1377],[1465 1374],[1466 1374],[1469 1371],[1470 1371],[1473 1368],[1474 1368],[1478 1364],[1479 1364],[1482 1361],[1483 1361],[1486 1358],[1487 1358],[1490 1355],[1491 1355],[1495 1351],[1496 1351],[1499 1348],[1500 1348],[1503 1345],[1504 1345],[1507 1342],[1508 1342],[1511 1339],[1512 1339],[1516 1335],[1517 1335],[1520 1332],[1521 1332],[1524 1329],[1525 1329],[1528 1326],[1529 1326],[1533 1322],[1534 1322],[1537 1319],[1538 1319],[1541 1316],[1542 1316],[1545 1313],[1546 1313],[1549 1310],[1550 1310],[1554 1306],[1555 1306],[1558 1303],[1559 1303],[1562 1300],[1563 1300],[1566 1297],[1567 1297],[1570 1294],[1571 1294],[1575 1290],[1576 1290],[1579 1287],[1580 1287],[1583 1284],[1584 1284],[1587 1281],[1588 1281],[1592 1277],[1593 1277],[1596 1274],[1597 1274],[1600 1271],[1601 1271],[1604 1268],[1605 1268],[1608 1265],[1609 1265],[1613 1261],[1614 1261],[1617 1258],[1618 1258],[1621 1255],[1622 1255],[1625 1252],[1626 1252],[1629 1249],[1630 1249],[1634 1245],[1635 1245],[1638 1242],[1639 1242],[1642 1239],[1643 1239],[1646 1236],[1647 1236],[1651 1232],[1652 1232],[1655 1229],[1656 1229],[1659 1226],[1660 1226],[1663 1223],[1664 1223],[1667 1220],[1668 1220],[1672 1216],[1673 1216],[1676 1213],[1677 1213],[1680 1210],[1681 1210],[1684 1207],[1685 1207],[1689 1203],[1690 1203],[1693 1200],[1694 1200],[1697 1197],[1698 1197],[1701 1194],[1702 1194],[1705 1191],[1706 1191],[1710 1187],[1711 1187],[1714 1184],[1715 1184],[1718 1181],[1719 1181],[1722 1178],[1723 1178],[1726 1175],[1727 1175],[1731 1171],[1732 1171],[1735 1168],[1736 1168],[1739 1165],[1740 1165],[1743 1162],[1744 1162],[1748 1158],[1749 1158],[1752 1155],[1753 1155],[1756 1152],[1757 1152],[1760 1149],[1761 1149],[1764 1146],[1765 1146],[1769 1142],[1770 1142],[1773 1139],[1774 1139],[1777 1136],[1778 1136],[1781 1133],[1782 1133],[1785 1130],[1786 1130],[1790 1126],[1791 1126],[1794 1123],[1795 1123],[1798 1120],[1799 1120],[1746 1120],[1745 1119],[1566 1119],[1565 1118],[1386 1118],[1385 1117],[1206 1117],[1205 1116],[1026 1116],[1025 1115] : repas : [1278,1320]
