contour_details : [1355 1460],[1355 1994],[1729 1994],[1729 1922],[1728 1921],[1728 1810],[1727 1809],[1727 1703],[1726 1702],[1726 1596],[1725 1595],[1725 1494],[1724 1493],[1724 1460] : repas : [1568,1601]
contour_details : [900 1460],[900 1999],[1334 1999],[1334 1460] : sejour : [1127,1835]
contour_details : [1360 1130],[1360 1149],[1359 1150],[1359 1212],[1358 1213],[1358 1272],[1357 1273],[1357 1335],[1356 1336],[1356 1398],[1355 1399],[1355 1444],[1724 1444],[1724 1130] : cuisine : [1636,1333]
contour_details : [1100 1130],[1100 1319],[1099 1320],[785 1320],[785 1434],[1339 1434],[1339 1130] : hall : [1197,1312]
contour_details : [790 1130],[790 1299],[874 1299],[874 1130] : wc : [825,1228]
