contour_details : [1725 1340],[1725 1411],[1944 1411],[1944 1340] : pl : [1850,1388]
contour_details : [1719 1006],[1719 1325],[1752 1325],[1753 1326],[1865 1326],[1866 1327],[1944 1327],[1944 1184],[1943 1183],[1943 1023],[1942 1022],[1942 1006] : chambre : [1841,1143]
contour_details : [1561 1006],[1560 1007],[1347 1007],[1346 1008],[1281 1008],[1281 1413],[1708 1413],[1708 1006] : chambre : [1476,1142]
