contour_details : [1255 1535],[1255 1734],[1279 1734],[1280 1735],[1280 1894],[1634 1894],[1634 1535] : cuisine : [1439,1679]
contour_details : [755 1395],[755 1739],[1234 1739],[1234 1440],[1220 1440],[1219 1439],[1219 1395] : repas : [1011,1572]
contour_details : [635 970],[635 1379],[1219 1379],[1219 1295],[1220 1294],[1294 1294],[1294 1165],[1200 1165],[1199 1164],[1199 1050],[1185 1050],[1185 1169],[1184 1170],[1080 1170],[1079 1169],[1079 970] : sejour : [813,1187]
