contour_details : [1468 1586],[1468 1812],[1567 1812],[1567 1586]
contour_details : [1740 1548],[1740 1648],[2229 1648],[2229 1548]
contour_details : [1188 1534],[1188 1634],[1333 1634],[1334 1635],[1334 1653],[1333 1654],[1188 1654],[1188 1754],[1333 1754],[1334 1755],[1334 1812],[1433 1812],[1433 1540],[1394 1540],[1393 1539],[1393 1534]
