contour_details : [989 1710],[989 1730],[988 1731],[988 1753],[987 1754],[987 1776],[986 1777],[986 1799],[985 1800],[985 1801],[1373 1801],[1373 1710] : degagement : [1127,1755]
contour_details : [1197 1614],[1197 1624],[1196 1625],[1196 1637],[1195 1638],[1195 1650],[1194 1651],[1194 1663],[1193 1664],[1193 1676],[1192 1677],[1192 1689],[1191 1690],[1191 1691],[1369 1691],[1369 1614] : pl : [1333,1671]
contour_details : [1515 1600],[1515 2167],[2214 2167],[2214 1604],[2161 1604],[2160 1603],[1986 1603],[1985 1602],[1811 1602],[1810 1601],[1637 1601],[1636 1600] : sejour : [1938,1913]
contour_details : [1465 1550],[1464 1551],[1404 1551],[1403 1552],[1385 1552],[1385 1795],[1394 1795],[1395 1796],[1424 1796],[1425 1797],[1455 1797],[1456 1798],[1485 1798],[1486 1799],[1507 1799],[1507 1550] : hall : [1455,1659]
contour_details : [1193 1488],[1193 1495],[1194 1496],[1194 1548],[1195 1549],[1195 1593],[1369 1593],[1369 1514],[1262 1514],[1261 1513],[1261 1488] : wc : [1326,1541]
contour_details : [1749 1226],[1749 1297],[1750 1298],[1750 1477],[1751 1478],[1751 1587],[2214 1587],[2214 1226] : cuisine : [2053,1415]
