contour_details : [2270 1115],[2270 1419],[2269 1420],[1695 1420],[1695 1519],[2309 1519],[2309 1465],[2310 1464],[2369 1464],[2369 1115]
contour_details : [1815 995],[1815 1109],[1864 1109],[1865 1110],[1865 1154],[2039 1154],[2039 1055],[1915 1055],[1914 1054],[1914 995]
contour_details : [1815 765],[1815 979],[1914 979],[1914 765]
