contour_details : [1945 1115],[1945 1749],[2314 1749],[2314 1115] : repas : [2114,1365]
contour_details : [1855 1115],[1855 1129],[1854 1130],[1695 1130],[1695 1169],[1694 1170],[1694 1285],[1693 1286],[1693 1408],[1692 1409],[1692 1531],[1691 1532],[1691 1654],[1690 1655],[1690 1744],[1924 1744],[1924 1115] : sejour : [1829,1549]
contour_details : [2325 1110],[2325 1464],[2544 1464],[2544 1110] : cuisine : [2398,1261]
contour_details : [1385 900],[1385 940],[1386 941],[1386 996],[1387 997],[1387 1053],[1388 1054],[1388 1104],[1864 1104],[1864 995],[1469 995],[1468 994],[1468 900] : degagement : [1543,1058]
contour_details : [1875 765],[1875 1104],[2039 1104],[2039 895],[2040 894],[2149 894],[2149 765] : hall : [1945,894]
contour_details : [1790 765],[1790 979],[1859 979],[1859 765] : pl : [1831,897]
