contour_details : [1240 1356],[1239 1357],[1239 1456],[1339 1456],[1339 1356]
contour_details : [1236 1252],[1235 1253],[1235 1347],[1335 1347],[1335 1252]
contour_details : [1104 1204],[1104 1303],[1202 1303],[1202 1204]
contour_details : [324 921],[323 922],[323 923],[321 925],[321 926],[319 928],[319 929],[317 931],[317 932],[315 934],[315 935],[314 936],[314 937],[312 939],[312 940],[310 942],[310 943],[308 945],[308 946],[306 948],[306 949],[304 951],[304 952],[303 953],[303 954],[301 956],[301 957],[299 959],[299 960],[297 962],[297 963],[295 965],[295 966],[293 968],[293 969],[292 970],[292 971],[290 973],[290 974],[288 976],[288 977],[286 979],[286 980],[284 982],[284 983],[282 985],[282 986],[281 987],[281 988],[279 990],[279 991],[277 993],[277 994],[275 996],[275 997],[273 999],[273 1000],[271 1002],[271 1003],[270 1004],[272 1006],[273 1006],[275 1008],[276 1008],[278 1010],[279 1010],[281 1012],[282 1012],[283 1013],[284 1013],[286 1015],[287 1015],[289 1017],[290 1017],[292 1019],[293 1019],[295 1021],[296 1021],[298 1023],[299 1023],[300 1024],[301 1024],[303 1026],[304 1026],[306 1028],[307 1028],[309 1030],[310 1030],[312 1032],[313 1032],[315 1034],[316 1034],[317 1035],[318 1035],[320 1037],[321 1037],[323 1039],[324 1039],[326 1041],[327 1041],[329 1043],[330 1043],[332 1045],[333 1045],[334 1046],[335 1046],[337 1048],[338 1048],[340 1050],[341 1050],[343 1052],[344 1052],[346 1054],[347 1054],[349 1056],[350 1056],[351 1057],[352 1057],[354 1059],[355 1059],[357 1061],[358 1061],[360 1063],[361 1063],[363 1065],[364 1065],[365 1066],[366 1066],[368 1068],[369 1068],[371 1070],[372 1070],[374 1072],[375 1072],[377 1074],[378 1074],[380 1076],[381 1076],[382 1077],[383 1077],[385 1079],[386 1079],[388 1081],[389 1081],[391 1083],[392 1083],[394 1085],[395 1085],[397 1087],[398 1087],[399 1088],[400 1088],[402 1090],[403 1090],[405 1092],[406 1092],[408 1094],[409 1094],[411 1096],[412 1096],[414 1098],[415 1098],[416 1099],[417 1099],[419 1101],[420 1101],[422 1103],[423 1103],[425 1105],[426 1105],[428 1107],[429 1107],[431 1109],[432 1109],[433 1110],[434 1110],[436 1112],[437 1112],[439 1114],[440 1114],[442 1116],[443 1116],[445 1118],[446 1118],[448 1120],[449 1120],[450 1121],[451 1121],[453 1123],[454 1123],[456 1125],[457 1125],[459 1127],[460 1127],[462 1129],[463 1129],[465 1131],[466 1131],[467 1132],[468 1132],[470 1134],[471 1134],[473 1136],[474 1136],[476 1138],[477 1138],[479 1140],[480 1140],[481 1141],[482 1141],[484 1143],[485 1143],[487 1145],[488 1145],[490 1147],[491 1147],[493 1149],[494 1149],[496 1151],[497 1151],[498 1152],[499 1152],[501 1154],[502 1154],[504 1156],[505 1156],[507 1158],[508 1158],[510 1160],[511 1160],[513 1162],[514 1162],[515 1163],[516 1163],[518 1165],[519 1165],[521 1167],[522 1167],[524 1169],[525 1169],[527 1171],[528 1171],[530 1173],[531 1173],[532 1174],[533 1174],[535 1176],[536 1176],[538 1178],[539 1178],[541 1180],[542 1180],[544 1182],[545 1182],[547 1184],[548 1184],[549 1185],[550 1185],[552 1187],[553 1187],[555 1189],[556 1189],[558 1191],[559 1191],[561 1193],[562 1193],[564 1195],[565 1195],[566 1196],[567 1196],[569 1198],[570 1198],[572 1200],[573 1200],[575 1202],[576 1202],[578 1204],[579 1204],[581 1206],[582 1206],[583 1207],[584 1207],[586 1209],[587 1209],[589 1211],[590 1211],[592 1213],[593 1213],[595 1215],[596 1215],[597 1216],[598 1216],[600 1218],[601 1218],[603 1220],[604 1220],[606 1222],[607 1222],[609 1224],[610 1224],[612 1226],[613 1226],[614 1227],[615 1227],[617 1229],[618 1229],[620 1231],[621 1231],[623 1233],[624 1233],[626 1235],[627 1235],[629 1237],[630 1237],[631 1238],[632 1238],[634 1240],[635 1240],[637 1242],[638 1242],[640 1244],[641 1244],[643 1246],[644 1246],[646 1248],[647 1248],[648 1249],[649 1249],[651 1251],[652 1251],[654 1253],[655 1253],[657 1255],[658 1255],[660 1257],[661 1257],[663 1259],[664 1259],[665 1260],[666 1260],[668 1262],[669 1262],[671 1264],[672 1264],[674 1266],[675 1266],[677 1268],[678 1268],[680 1270],[681 1270],[682 1271],[683 1271],[685 1273],[686 1273],[688 1275],[689 1275],[691 1277],[692 1277],[694 1279],[695 1279],[697 1281],[697 1404],[797 1404],[797 1255],[747 1255],[746 1254],[747 1253],[747 1252],[749 1250],[749 1249],[751 1247],[751 1246],[753 1244],[753 1243],[754 1242],[754 1241],[756 1239],[756 1238],[758 1236],[758 1235],[760 1233],[760 1232],[762 1230],[762 1229],[764 1227],[764 1226],[765 1225],[765 1224],[767 1222],[767 1221],[769 1219],[769 1218],[771 1216],[771 1215],[773 1213],[773 1211],[772 1210],[771 1210],[769 1208],[768 1208],[766 1206],[765 1206],[764 1205],[763 1205],[761 1203],[760 1203],[758 1201],[757 1201],[755 1199],[754 1199],[752 1197],[751 1197],[749 1195],[748 1195],[747 1194],[746 1194],[744 1192],[743 1192],[741 1190],[740 1190],[738 1188],[737 1188],[735 1186],[734 1186],[732 1184],[731 1184],[730 1183],[729 1183],[727 1181],[726 1181],[724 1179],[723 1179],[721 1177],[720 1177],[718 1175],[717 1175],[715 1173],[714 1173],[713 1172],[712 1172],[710 1170],[709 1170],[707 1168],[706 1168],[704 1166],[703 1166],[701 1164],[700 1164],[698 1162],[697 1162],[696 1161],[695 1161],[693 1159],[692 1159],[690 1157],[689 1157],[687 1155],[686 1155],[684 1153],[683 1153],[681 1151],[680 1151],[679 1150],[678 1150],[676 1148],[675 1148],[673 1146],[672 1146],[670 1144],[669 1144],[667 1142],[666 1142],[664 1140],[663 1140],[662 1139],[661 1139],[659 1137],[658 1137],[656 1135],[655 1135],[653 1133],[652 1133],[650 1131],[649 1131],[647 1129],[646 1129],[645 1128],[644 1128],[642 1126],[641 1126],[639 1124],[638 1124],[636 1122],[635 1122],[633 1120],[632 1120],[631 1119],[630 1119],[628 1117],[627 1117],[625 1115],[624 1115],[622 1113],[621 1113],[619 1111],[618 1111],[616 1109],[615 1109],[614 1108],[613 1108],[611 1106],[610 1106],[608 1104],[607 1104],[605 1102],[604 1102],[602 1100],[601 1100],[599 1098],[598 1098],[597 1097],[596 1097],[594 1095],[593 1095],[591 1093],[590 1093],[588 1091],[587 1091],[585 1089],[584 1089],[582 1087],[581 1087],[580 1086],[579 1086],[577 1084],[576 1084],[574 1082],[573 1082],[571 1080],[570 1080],[568 1078],[567 1078],[565 1076],[564 1076],[563 1075],[562 1075],[560 1073],[559 1073],[557 1071],[556 1071],[554 1069],[553 1069],[551 1067],[550 1067],[548 1065],[547 1065],[546 1064],[545 1064],[543 1062],[542 1062],[540 1060],[539 1060],[537 1058],[536 1058],[534 1056],[533 1056],[531 1054],[530 1054],[529 1053],[528 1053],[526 1051],[525 1051],[523 1049],[522 1049],[520 1047],[519 1047],[517 1045],[516 1045],[514 1043],[513 1043],[512 1042],[511 1042],[509 1040],[508 1040],[506 1038],[505 1038],[503 1036],[502 1036],[500 1034],[499 1034],[498 1033],[497 1033],[495 1031],[494 1031],[492 1029],[491 1029],[489 1027],[488 1027],[486 1025],[485 1025],[483 1023],[482 1023],[481 1022],[480 1022],[478 1020],[477 1020],[475 1018],[474 1018],[472 1016],[471 1016],[469 1014],[468 1014],[466 1012],[465 1012],[464 1011],[463 1011],[461 1009],[460 1009],[458 1007],[457 1007],[455 1005],[454 1005],[452 1003],[451 1003],[449 1001],[448 1001],[447 1000],[446 1000],[444 998],[443 998],[441 996],[440 996],[438 994],[437 994],[435 992],[434 992],[432 990],[431 990],[430 989],[429 989],[427 987],[426 987],[424 985],[423 985],[421 983],[420 983],[418 981],[417 981],[415 979],[414 979],[413 978],[412 978],[410 976],[409 976],[407 974],[406 974],[404 972],[403 972],[401 970],[400 970],[398 968],[397 968],[396 967],[395 967],[393 965],[392 965],[390 963],[389 963],[387 961],[386 961],[384 959],[383 959],[382 958],[381 958],[379 956],[378 956],[376 954],[375 954],[373 952],[372 952],[370 950],[369 950],[367 948],[366 948],[365 947],[364 947],[362 945],[361 945],[359 943],[358 943],[356 941],[355 941],[353 939],[352 939],[350 937],[349 937],[348 936],[347 936],[345 934],[344 934],[342 932],[341 932],[339 930],[338 930],[336 928],[335 928],[333 926],[332 926],[331 925],[330 925],[328 923],[327 923],[325 921]
