contour_details : [1297 1359],[1297 1517],[1311 1517],[1312 1518],[1360 1518],[1361 1519],[1394 1519],[1394 1359] : wc : [1345,1397]
contour_details : [755 1260],[755 1638],[1087 1638],[1087 1523],[1088 1522],[1096 1522],[1096 1260] : cuisine : [911,1419]
contour_details : [1649 1252],[1648 1253],[1380 1253],[1379 1254],[1297 1254],[1297 1345],[1736 1345],[1737 1346],[1737 1884],[1835 1884],[1835 1252] : degagement : [1505,1303]
contour_details : [1113 1124],[1112 1125],[1112 1516],[1121 1516],[1122 1517],[1178 1517],[1179 1518],[1235 1518],[1236 1519],[1283 1519],[1283 1250],[1206 1250],[1205 1249],[1205 1125],[1204 1124] : hall : [1192,1318]
contour_details : [318 849],[318 1399],[737 1399],[737 1253],[721 1237],[720 1237],[694 1211],[693 1211],[666 1184],[665 1184],[638 1157],[637 1157],[610 1130],[609 1130],[582 1103],[581 1103],[554 1076],[553 1076],[526 1049],[525 1049],[499 1023],[498 1023],[471 996],[470 996],[443 969],[442 969],[415 942],[414 942],[387 915],[386 915],[359 888],[358 888],[331 861],[330 861] : repas : [519,1282]
contour_details : [339 845],[354 860],[355 860],[374 879],[375 879],[394 898],[395 898],[414 917],[415 917],[434 936],[435 936],[454 955],[455 955],[474 974],[475 974],[494 993],[495 993],[514 1012],[515 1012],[534 1031],[535 1031],[554 1050],[555 1050],[574 1069],[575 1069],[594 1088],[595 1088],[614 1107],[615 1107],[633 1125],[634 1125],[653 1144],[654 1144],[673 1163],[674 1163],[693 1182],[694 1182],[713 1201],[714 1201],[733 1220],[734 1220],[753 1239],[754 1239],[758 1243],[1103 1243],[1103 1124],[1011 1124],[1010 1123],[1010 849],[1009 848],[824 848],[823 847],[600 847],[599 846],[376 846],[375 845] : sejour : [817,964]
