contour_details : [989 1145],[989 1419],[972 1436],[971 1436],[939 1468],[938 1468],[906 1500],[905 1500],[873 1532],[872 1532],[865 1539],[865 1540],[872 1547],[873 1547],[905 1579],[906 1579],[938 1611],[939 1611],[971 1643],[972 1643],[1004 1675],[1005 1675],[1038 1708],[1039 1708],[1071 1740],[1072 1740],[1104 1772],[1105 1772],[1117 1784],[1117 1919],[1529 1919],[1529 1145] : sejour : [1180,1406]
contour_details : [1555 1140],[1555 1749],[1689 1749],[1711 1727],[1711 1726],[1736 1701],[1736 1700],[1762 1674],[1762 1673],[1787 1648],[1787 1647],[1800 1634],[2059 1634],[2059 1140] : repas : [1852,1306]
contour_details : [1670 1030],[1670 1124],[2919 1124],[2919 1030] : degagement : [1947,1079]
contour_details : [1400 775],[1400 825],[1401 826],[1401 895],[1402 896],[1402 965],[1403 966],[1403 1035],[1404 1036],[1404 1102],[1405 1103],[1405 1124],[1649 1124],[1649 775] : hall : [1514,931]
