contour_details : [1620 1140],[1620 1142],[1619 1143],[1619 1150],[1618 1151],[1618 1159],[1617 1160],[1617 1168],[1616 1169],[1616 1177],[1615 1178],[1615 1185],[1614 1186],[1614 1194],[1613 1195],[1613 1203],[1612 1204],[1612 1211],[1611 1212],[1611 1220],[1610 1221],[1610 1229],[1609 1230],[1609 1238],[1608 1239],[1608 1246],[1607 1247],[1607 1255],[1606 1256],[1606 1264],[1605 1265],[1605 1272],[1604 1273],[1604 1281],[1603 1282],[1603 1290],[1602 1291],[1602 1299],[1601 1300],[1601 1307],[1600 1308],[1600 1316],[1599 1317],[1599 1325],[1598 1326],[1598 1333],[1597 1334],[1597 1342],[1596 1343],[1596 1351],[1595 1352],[1595 1360],[1594 1361],[1594 1368],[1593 1369],[1593 1377],[1592 1378],[1592 1386],[1591 1387],[1591 1394],[1590 1395],[1590 1403],[1589 1404],[1589 1412],[1588 1413],[1588 1421],[1587 1422],[1587 1429],[1586 1430],[1586 1438],[1585 1439],[1585 1447],[1584 1448],[1584 1455],[1583 1456],[1583 1464],[1582 1465],[1582 1473],[1581 1474],[1581 1482],[1580 1483],[1580 1490],[1579 1491],[1579 1499],[1578 1500],[1578 1508],[1577 1509],[1577 1516],[1576 1517],[1576 1525],[1575 1526],[1575 1534],[1574 1535],[1574 1543],[1573 1544],[1573 1551],[1572 1552],[1572 1560],[1571 1561],[1571 1569],[1570 1570],[1570 1577],[1569 1578],[1569 1586],[1568 1587],[1568 1595],[1567 1596],[1567 1604],[1566 1605],[1566 1612],[1565 1613],[1565 1621],[1564 1622],[1564 1630],[1563 1631],[1563 1638],[1562 1639],[1562 1647],[1561 1648],[1561 1656],[1560 1657],[1560 1665],[1559 1666],[1559 1673],[1558 1674],[1558 1682],[1557 1683],[1557 1691],[1556 1692],[1556 1699],[1555 1700],[1555 1708],[1554 1709],[1554 1717],[1553 1718],[1553 1725],[1552 1726],[1552 1734],[1551 1735],[1551 1743],[1550 1744],[1550 1749],[1675 1749],[1680 1744],[1680 1743],[1702 1721],[1702 1720],[1725 1697],[1725 1696],[1748 1673],[1748 1672],[1771 1649],[1771 1648],[1790 1629],[1805 1629],[1806 1630],[1858 1630],[1859 1631],[1911 1631],[1912 1632],[1964 1632],[1965 1633],[2017 1633],[2018 1634],[2054 1634],[2054 1140] : repas : [1852,1306]
contour_details : [980 1140],[980 1419],[860 1539],[860 1540],[1110 1790],[1110 1924],[1534 1924],[1534 1747],[1535 1746],[1535 1737],[1536 1736],[1536 1727],[1537 1726],[1537 1716],[1538 1715],[1538 1706],[1539 1705],[1539 1696],[1540 1695],[1540 1686],[1541 1685],[1541 1676],[1542 1675],[1542 1666],[1543 1665],[1543 1655],[1544 1654],[1544 1645],[1545 1644],[1545 1635],[1546 1634],[1546 1625],[1547 1624],[1547 1615],[1548 1614],[1548 1605],[1549 1604],[1549 1594],[1550 1593],[1550 1584],[1551 1583],[1551 1574],[1552 1573],[1552 1564],[1553 1563],[1553 1554],[1554 1553],[1554 1544],[1555 1543],[1555 1533],[1556 1532],[1556 1523],[1557 1522],[1557 1513],[1558 1512],[1558 1503],[1559 1502],[1559 1493],[1560 1492],[1560 1483],[1561 1482],[1561 1472],[1562 1471],[1562 1462],[1563 1461],[1563 1452],[1564 1451],[1564 1442],[1565 1441],[1565 1432],[1566 1431],[1566 1422],[1567 1421],[1567 1411],[1568 1410],[1568 1401],[1569 1400],[1569 1391],[1570 1390],[1570 1381],[1571 1380],[1571 1371],[1572 1370],[1572 1361],[1573 1360],[1573 1350],[1574 1349],[1574 1340],[1575 1339],[1575 1330],[1576 1329],[1576 1320],[1577 1319],[1577 1310],[1578 1309],[1578 1300],[1579 1299],[1579 1289],[1580 1288],[1580 1279],[1581 1278],[1581 1269],[1582 1268],[1582 1259],[1583 1258],[1583 1249],[1584 1248],[1584 1239],[1585 1238],[1585 1228],[1586 1227],[1586 1218],[1587 1217],[1587 1208],[1588 1207],[1588 1198],[1589 1197],[1589 1188],[1590 1187],[1590 1178],[1591 1177],[1591 1167],[1592 1166],[1592 1157],[1593 1156],[1593 1147],[1594 1146],[1594 1140] : sejour : [1180,1406]
contour_details : [1670 1030],[1670 1124],[2919 1124],[2919 1030] : degagement : [1947,1079]
contour_details : [1400 775],[1400 825],[1401 826],[1401 895],[1402 896],[1402 965],[1403 966],[1403 1035],[1404 1036],[1404 1102],[1405 1103],[1405 1124],[1649 1124],[1649 775] : hall : [1514,931]
