25
4
2.17172471292
3
unknown
52
108
18
61
31.0483493925
0.0
0.0
0.0
0.0
0.0
0.0
0.0
0.0
0.0
0.0
0.0
0.0484581497797
0.211453744493
0.0264317180617
0.0352422907489
0.0176211453744
0.229074889868
0.132158590308
0.0660792951542
0.0440528634361
0.0837004405286
0.0264317180617
0.0220264317181
0.0308370044053
0.0176211453744
0.060484003823
0.0
0.0176211453744
0.0925110132159
0.0484581497797
0.0528634361233
0.0484581497797
0.0484581497797
0.0352422907489
0.0484581497797
0.0396475770925
0.0352422907489
0.0440528634361
0.0220264317181
0.0176211453744
0.0220264317181
0.0176211453744
0.0220264317181
0.0132158590308
0.0132158590308
0.0176211453744
0.0176211453744
0.0176211453744
0.0176211453744
0.0264317180617
0.0176211453744
4
unknown
65
104
27
52
22.0227155455
0.0
0.0
0.0
0.0
0.0
0.0
0.0
0.0
0.0
0.0
0.0
0.000858123569794
0.00257437070938
0.00171624713959
0.00343249427918
0.00228832951945
0.00257437070938
0.00486270022883
0.00400457665904
0.000858123569794
0.00286041189931
0.00343249427918
0.000572082379863
0.00314645308924
0.00314645308924
0.0
0.0
0.0
0.0
0.0
0.0
0.0
0.0
0.0
0.0
0.0
0.000858123569794
0.00257437070938
0.00171624713959
0.00343249427918
0.00228832951945
0.00257437070938
0.00486270022883
0.00400457665904
0.000858123569794
0.00286041189931
0.00343249427918
0.000572082379863
0.00314645308924
0.00314645308924
0.112495774296
0.00171624713959
0.00343249427918
0.00200228832952
0.00171624713959
0.00171624713959
0.00114416475973
0.000858123569794
0.00171624713959
0.00114416475973
0.00143020594966
0.00114416475973
0.00114416475973
0.000572082379863
0.000572082379863
0.000572082379863
0.000858123569794
0.000572082379863
0.000858123569794
0.000572082379863
0.000572082379863
0.000286041189931
0.000858123569794
0.000858123569794
0.000572082379863
0.000572082379863
0.00171624713959
0.00343249427918
0.00200228832952
0.00171624713959
0.00171624713959
0.00114416475973
0.000858123569794
0.00171624713959
0.00114416475973
0.00143020594966
0.00114416475973
0.00114416475973
0.000572082379863
0.000572082379863
0.000572082379863
0.000858123569794
0.000572082379863
0.000858123569794
0.000572082379863
0.000572082379863
0.000286041189931
0.000858123569794
0.000858123569794
0.000572082379863
0.000572082379863
5
rectangle
73
81
36
43
4.472135955
0.0
0.0
0.0
0.0
0.0
0.0
0.0
0.0
0.0
0.0
0.0
0.0
0.0
0.0
0.0
0.0
0.130434782609
0.260869565217
0.0
0.0
0.304347826087
0.0
0.0434782608696
0.173913043478
0.0
0.369811242433
0.0434782608696
0.0869565217391
0.0
0.0869565217391
0.0434782608696
0.0
0.0434782608696
0.0869565217391
0.0
0.0869565217391
0.0
0.0
0.0434782608696
0.0
0.0
0.0434782608696
0.0
0.0434782608696
0.0434782608696
0.0
0.0434782608696
0.0
0.0434782608696
0.0
0.0
2
rectangle
24
49
9
70
31.9530906173
0.0
0.0
0.0
0.0
0.0
0.0
0.0
0.0
0.0434782608696
0.0372670807453
0.0931677018634
0.0621118012422
0.0496894409938
0.0496894409938
0.0372670807453
0.0372670807453
0.0372670807453
0.0372670807453
0.0496894409938
0.0496894409938
0.0248447204969
0.0372670807453
0.0372670807453
0.186335403727
0.124223602484
0.176598164179
0.0186335403727
0.0248447204969
0.0248447204969
0.0248447204969
0.0248447204969
0.0372670807453
0.0372670807453
0.0496894409938
0.0372670807453
0.0993788819876
0.0496894409938
0.0496894409938
0.0248447204969
0.0248447204969
0.0248447204969
0.0434782608696
0.0372670807453
0.0248447204969
0.0186335403727
0.0186335403727
0.00621118012422
0.0124223602484
0.0124223602484
0.00621118012422
0.00621118012422
3
3
4
1
1
0.949030868629
touch
2
3
1
1
0.501620453727
floor
4
5
1
1
0.0597579425113
touch
