contour_details : [1105 1970],[1105 2019],[1189 2019],[1189 1970] : pl : [1153,2008]
contour_details : [1405 1905],[1405 2214],[1404 2215],[1365 2215],[1365 2379],[1484 2379],[1485 2380],[1485 2389],[1664 2389],[1664 2380],[1665 2379],[1784 2379],[1784 1905] : cuisine : [1551,2193]
contour_details : [1200 1905],[1200 2034],[1199 2035],[1110 2035],[1110 2199],[1389 2199],[1389 2181],[1390 2180],[1390 2122],[1391 2121],[1391 2063],[1392 2062],[1392 2004],[1393 2003],[1393 1945],[1394 1944],[1394 1905] : hall : [1313,1965]
contour_details : [1800 1725],[1800 2149],[2199 2149],[2199 2092],[2198 2091],[2198 2007],[2197 2006],[2197 1922],[2196 1921],[2196 1837],[2195 1836],[2195 1752],[2194 1751],[2194 1725] : repas : [1938,1999]
contour_details : [1205 1495],[1205 1894],[1784 1894],[1784 1725],[1760 1725],[1759 1724],[1759 1495] : sejour : [1455,1697]
