contour_details : [1105 1980],[1105 2079],[1194 2079],[1194 1980]
contour_details : [1200 1845],[1200 1944],[1394 1944],[1394 1845]
contour_details : [1740 1725],[1740 1849],[1739 1850],[1400 1850],[1400 1949],[1739 1949],[1740 1950],[1740 2144],[1839 2144],[1839 1725]
