contour_details : [960 1905],[960 2295],[967 2302],[967 2303],[976 2312],[976 2313],[985 2322],[985 2323],[994 2332],[994 2333],[1003 2342],[1003 2343],[1004 2344],[1025 2344],[1026 2345],[1095 2345],[1096 2346],[1165 2346],[1166 2347],[1235 2347],[1236 2348],[1305 2348],[1306 2349],[1354 2349],[1354 2345],[1355 2344],[1374 2344],[1374 1905] : repas : [1192,2122]
contour_details : [960 1530],[960 1889],[1374 1889],[1374 1545],[1255 1545],[1254 1544],[1254 1530] : cuisine : [1176,1679]
contour_details : [525 1530],[525 2169],[849 2169],[855 2175],[855 2176],[862 2183],[862 2184],[868 2190],[868 2191],[875 2198],[875 2199],[882 2206],[882 2207],[888 2213],[888 2214],[895 2221],[895 2222],[902 2229],[902 2230],[908 2236],[908 2237],[915 2244],[915 2245],[922 2252],[922 2253],[928 2259],[928 2260],[935 2267],[935 2268],[942 2275],[942 2276],[948 2282],[948 2283],[949 2284],[949 1530] : sejour : [732,1712]
