contour_details : [625 1695],[625 1804],[724 1804],[724 1695]
contour_details : [1126 1651],[1125 1652],[1114 1652],[1113 1653],[1103 1653],[1102 1654],[1091 1654],[1090 1655],[1080 1655],[1079 1656],[1068 1656],[1067 1657],[1057 1657],[1056 1658],[1045 1658],[1044 1659],[1035 1659],[1035 1668],[1036 1669],[1036 1679],[1037 1680],[1037 1691],[1038 1692],[1038 1702],[1039 1703],[1039 1714],[1040 1715],[1040 1725],[1041 1726],[1041 1737],[1042 1738],[1042 1748],[1043 1749],[1043 1760],[1044 1761],[1044 1771],[1045 1772],[1045 1783],[1046 1784],[1046 1794],[1047 1795],[1047 1806],[1048 1807],[1048 1817],[1049 1818],[1049 1829],[1050 1830],[1050 1840],[1051 1841],[1051 1852],[1052 1853],[1052 1863],[1053 1864],[1053 1875],[1054 1876],[1054 1886],[1055 1887],[1055 1898],[1056 1899],[1056 1909],[1057 1910],[1057 1920],[1058 1921],[1058 1932],[1059 1933],[1059 1943],[1060 1944],[1060 1955],[1061 1956],[1061 1966],[1062 1967],[1062 1978],[1063 1979],[1063 1989],[1064 1990],[1064 2001],[1065 2002],[1065 2012],[1066 2013],[1066 2024],[1067 2025],[1067 2035],[1068 2036],[1068 2047],[1069 2048],[1069 2058],[1070 2059],[1070 2070],[1071 2071],[1071 2081],[1072 2082],[1072 2093],[1073 2094],[1073 2104],[1074 2105],[1074 2116],[1075 2117],[1075 2119],[1083 2119],[1084 2118],[1095 2118],[1096 2117],[1106 2117],[1107 2116],[1118 2116],[1119 2115],[1129 2115],[1130 2114],[1141 2114],[1142 2113],[1152 2113],[1153 2112],[1164 2112],[1165 2111],[1174 2111],[1174 2102],[1173 2101],[1173 2091],[1172 2090],[1172 2079],[1171 2078],[1171 2068],[1170 2067],[1170 2056],[1169 2055],[1169 2045],[1168 2044],[1168 2033],[1167 2032],[1167 2022],[1166 2021],[1166 2010],[1165 2009],[1165 1999],[1164 1998],[1164 1987],[1163 1986],[1163 1976],[1162 1975],[1162 1964],[1161 1963],[1161 1953],[1160 1952],[1160 1941],[1159 1940],[1159 1930],[1158 1929],[1158 1918],[1157 1917],[1157 1907],[1156 1906],[1156 1895],[1155 1894],[1155 1884],[1154 1883],[1154 1872],[1153 1871],[1153 1861],[1152 1860],[1152 1850],[1151 1849],[1151 1838],[1150 1837],[1150 1827],[1149 1826],[1149 1815],[1148 1814],[1148 1804],[1147 1803],[1147 1792],[1146 1791],[1146 1781],[1145 1780],[1145 1769],[1144 1768],[1144 1758],[1143 1757],[1143 1746],[1142 1745],[1142 1735],[1141 1734],[1141 1723],[1140 1722],[1140 1712],[1139 1711],[1139 1700],[1138 1699],[1138 1689],[1137 1688],[1137 1677],[1136 1676],[1136 1666],[1135 1665],[1135 1654],[1134 1653],[1134 1651]
contour_details : [435 1590],[435 1799],[534 1799],[534 1590]
contour_details : [1315 1530],[1315 1629],[1739 1629],[1739 1530]
