contour_details : [1078 1680],[1077 1681],[1076 1681],[1075 1682],[1073 1682],[1072 1683],[1070 1683],[1069 1684],[1067 1684],[1066 1685],[1065 1685],[1064 1686],[1062 1686],[1061 1687],[1059 1687],[1058 1688],[1056 1688],[1055 1689],[1054 1689],[1053 1690],[1051 1690],[1050 1691],[1048 1691],[1047 1692],[1045 1692],[1044 1693],[1043 1693],[1042 1694],[1040 1694],[1039 1695],[1037 1695],[1036 1696],[1034 1696],[1033 1697],[1032 1697],[1031 1698],[1029 1698],[1028 1699],[1026 1699],[1025 1700],[1016 1700],[1015 1701],[1002 1701],[1001 1702],[988 1702],[987 1703],[974 1703],[973 1704],[960 1704],[959 1705],[946 1705],[945 1706],[931 1706],[930 1707],[917 1707],[916 1708],[903 1708],[902 1709],[889 1709],[888 1710],[885 1710],[884 1709],[884 1708],[883 1707],[883 1706],[882 1705],[882 1704],[881 1703],[881 1702],[880 1701],[880 1700],[690 1700],[690 2309],[1125 2309],[1125 2281],[1124 2280],[1124 2261],[1123 2260],[1123 2243],[1122 2242],[1122 2227],[1121 2226],[1121 2211],[1120 2210],[1120 2196],[1119 2195],[1119 2181],[1118 2180],[1118 2166],[1117 2165],[1117 2151],[1116 2150],[1116 2137],[1115 2136],[1115 2123],[1114 2122],[1114 2109],[1113 2108],[1113 2095],[1112 2094],[1112 2081],[1111 2080],[1111 2067],[1110 2066],[1110 2054],[1109 2053],[1109 2040],[1108 2039],[1108 2026],[1107 2025],[1107 2013],[1106 2012],[1106 2000],[1105 1999],[1105 1986],[1104 1985],[1104 1973],[1103 1972],[1103 1960],[1102 1959],[1102 1947],[1101 1946],[1101 1934],[1100 1933],[1100 1921],[1099 1920],[1099 1908],[1098 1907],[1098 1895],[1097 1894],[1097 1882],[1096 1881],[1096 1869],[1095 1868],[1095 1857],[1094 1856],[1094 1844],[1093 1843],[1093 1832],[1092 1831],[1092 1819],[1091 1818],[1091 1807],[1090 1806],[1090 1794],[1089 1793],[1089 1782],[1088 1781],[1088 1769],[1087 1768],[1087 1757],[1086 1756],[1086 1745],[1085 1744],[1085 1733],[1084 1732],[1084 1721],[1083 1720],[1083 1709],[1082 1708],[1082 1698],[1081 1697],[1081 1687],[1080 1686],[1080 1680] : sejour : [871,2120]
contour_details : [1030 1590],[1030 1614],[1109 1614],[1110 1615],[1109 1616],[1109 1618],[1108 1619],[1108 1622],[1107 1623],[1107 1625],[1106 1626],[1106 1628],[1105 1629],[1105 1632],[1104 1633],[1104 1635],[1103 1636],[1103 1638],[1102 1639],[1102 1642],[1101 1643],[1101 1645],[1100 1646],[1100 1648],[1099 1649],[1099 1652],[1098 1653],[1098 1655],[1097 1656],[1097 1658],[1096 1659],[1096 1662],[1095 1663],[1095 1673],[1096 1674],[1096 1686],[1097 1687],[1097 1699],[1098 1700],[1098 1712],[1099 1713],[1099 1724],[1100 1725],[1100 1737],[1101 1738],[1101 1750],[1102 1751],[1102 1763],[1103 1764],[1103 1776],[1104 1777],[1104 1789],[1105 1790],[1105 1802],[1106 1803],[1106 1814],[1107 1815],[1107 1827],[1108 1828],[1108 1840],[1109 1841],[1109 1853],[1110 1854],[1110 1866],[1111 1867],[1111 1879],[1112 1880],[1112 1892],[1113 1893],[1113 1904],[1114 1905],[1114 1917],[1115 1918],[1115 1930],[1116 1931],[1116 1943],[1117 1944],[1117 1956],[1118 1957],[1118 1969],[1119 1970],[1119 1982],[1120 1983],[1120 1994],[1121 1995],[1121 2007],[1122 2008],[1122 2020],[1123 2021],[1123 2033],[1124 2034],[1124 2046],[1125 2047],[1125 2059],[1126 2060],[1126 2072],[1127 2073],[1127 2084],[1128 2085],[1128 2097],[1129 2098],[1129 2110],[1130 2111],[1130 2114],[1215 2114],[1216 2113],[1338 2113],[1339 2112],[1461 2112],[1462 2111],[1584 2111],[1585 2110],[1707 2110],[1708 2109],[1744 2109],[1744 1590] : repas : [1485,1778]
contour_details : [500 1590],[500 1804],[669 1804],[669 1700],[635 1700],[634 1699],[634 1610],[610 1610],[609 1609],[609 1590] : hall : [579,1654]
contour_details : [430 1590],[430 1804],[479 1804],[479 1595],[435 1595] : pl : [464,1722]
contour_details : [1320 1260],[1320 1279],[1319 1280],[1319 1342],[1318 1343],[1318 1405],[1317 1406],[1317 1468],[1316 1469],[1316 1531],[1315 1532],[1315 1574],[1744 1574],[1744 1260] : cuisine : [1518,1413]
