contour_details : [1460 1680],[1460 2189],[1754 2189],[1754 2158],[1755 2157],[1755 2057],[1756 2056],[1756 1956],[1757 1955],[1757 1855],[1758 1854],[1758 1754],[1759 1753],[1759 1685],[1742 1685],[1741 1684],[1682 1684],[1681 1683],[1622 1683],[1621 1682],[1562 1682],[1561 1681],[1502 1681],[1501 1680] : repas : [1631,2045]
contour_details : [860 1680],[860 1683],[861 1684],[861 1688],[862 1689],[862 1693],[863 1694],[863 1698],[864 1699],[864 1703],[865 1704],[874 1704],[880 1710],[880 1719],[865 1734],[865 1735],[864 1736],[864 1739],[863 1740],[863 1743],[862 1744],[862 1747],[861 1748],[861 1751],[860 1752],[860 1754],[885 1754],[886 1753],[922 1753],[923 1752],[959 1752],[960 1751],[996 1751],[997 1750],[1033 1750],[1034 1749],[1044 1749],[1044 1680] : placard : [970,1734]
contour_details : [1425 1605],[1425 1688],[1424 1689],[1423 1689],[1421 1687],[1420 1687],[1418 1685],[1417 1685],[1415 1683],[1414 1683],[1412 1681],[1411 1681],[1410 1680],[1055 1680],[1055 1764],[1054 1765],[860 1765],[860 2194],[1449 2194],[1449 1605] : sejour : [1193,2034]
contour_details : [865 1540],[865 1547],[864 1548],[864 1573],[863 1574],[863 1599],[862 1600],[862 1625],[861 1626],[861 1651],[860 1652],[860 1669],[1399 1669],[1335 1605],[1310 1605],[1309 1604],[1309 1596],[1308 1595],[1308 1583],[1307 1582],[1307 1570],[1306 1569],[1306 1557],[1305 1556],[1305 1544],[1304 1543],[1304 1540] : hall : [1068,1604]
contour_details : [1460 1425],[1460 1669],[1477 1669],[1478 1670],[1537 1670],[1538 1671],[1597 1671],[1598 1672],[1657 1672],[1658 1673],[1717 1673],[1718 1674],[1759 1674],[1759 1425] : cuisine : [1619,1573]
contour_details : [865 1095],[865 1519],[1189 1519],[1189 1095] : chambre : [1022,1273]
contour_details : [1200 1090],[1200 1529],[1309 1529],[1309 1200],[1310 1199],[1564 1199],[1564 1090] : degt : [1255,1448]
