contour_details : [1460 1620],[1460 1634],[1459 1635],[1450 1635],[1450 1674],[1449 1675],[1400 1675],[1400 2189],[1499 2189],[1499 1735],[1500 1734],[1759 1734],[1759 1635],[1755 1635],[1754 1634],[1754 1620]
contour_details : [1260 1600],[1260 1619],[1259 1620],[865 1620],[865 1629],[864 1630],[860 1630],[860 1729],[1044 1729],[1044 1720],[1045 1719],[1319 1719],[1319 1705],[1320 1704],[1359 1704],[1359 1600]
contour_details : [1200 1480],[1200 1579],[1304 1579],[1304 1480]
contour_details : [1145 1090],[1145 1194],[1244 1194],[1244 1090]
