contour_details : [1120 1805],[1120 2134],[1589 2134],[1589 1805] : cuisine : [1264,1933]
contour_details : [1120 1735],[1120 1794],[1319 1794],[1319 1735] : placard : [1240,1769]
contour_details : [1590 1615],[1590 1794],[1599 1794],[1600 1795],[1600 2394],[2159 2394],[2159 1774],[2140 1755],[2140 1754],[2115 1729],[2115 1728],[2090 1703],[2090 1702],[2065 1677],[2065 1676],[2040 1651],[2040 1650],[2034 1644],[2035 1643],[2035 1642],[2036 1641],[2036 1639],[2037 1638],[2037 1637],[2038 1636],[2038 1634],[2039 1633],[2039 1632],[2040 1631],[2040 1629],[2041 1628],[2041 1627],[2042 1626],[2042 1624],[2043 1623],[2043 1622],[2044 1621],[2044 1620],[1994 1620],[1993 1621],[1921 1621],[1920 1622],[1848 1622],[1847 1623],[1775 1623],[1774 1624],[1702 1624],[1701 1625],[1680 1625],[1679 1624],[1679 1615] : sejour : [1861,2023]
contour_details : [1120 1615],[1120 1724],[1334 1724],[1335 1725],[1335 1794],[1584 1794],[1584 1650],[1430 1650],[1395 1615] : hall : [1338,1659]
