contour_details : [910 1840],[910 1939],[1109 1939],[1109 1840]
contour_details : [1180 1785],[1180 1839],[1179 1840],[1115 1840],[1115 1939],[1214 1939],[1214 1880],[1215 1879],[1279 1879],[1279 1785]
contour_details : [1040 1730],[1040 1829],[1094 1829],[1094 1730]
contour_details : [935 1730],[935 1829],[1024 1829],[1024 1730]
contour_details : [790 1665],[790 1774],[889 1774],[889 1665]
contour_details : [1400 1145],[1400 1489],[1399 1490],[1250 1490],[1250 1589],[1479 1589],[1480 1590],[1480 2034],[1579 2034],[1579 1590],[1580 1589],[1849 1589],[1849 1490],[1500 1490],[1499 1489],[1499 1145]
