Wall : [707,2105],[750,2105],[750,2395],[707,2395]
Wall : [1657,2181],[1783,2181],[1783,2224],[1657,2224]
Wall : [1244,2352],[1429,2352],[1429,2395],[1244,2395]
Wall : [1298,1214],[1340,1214],[1340,1539],[1298,1539]
Wall : [1397,1497],[1488,1497],[1488,1539],[1397,1539]
Wall : [707,1521],[751,1521],[751,1964],[707,1964]
Wall : [706,2352],[850,2352],[850,2395],[706,2395]
Wall : [1386,2182],[1518,2182],[1518,2225],[1386,2225]
Wall : [990,2353],[1152,2353],[1152,2395],[990,2395]
Wall : [1580,1497],[1783,1497],[1783,1540],[1580,1540]
Wall : [707,1214],[749,1214],[749,1379],[707,1379]
Wall : [1741,2011],[1782,2011],[1782,2224],[1741,2224]
Wall : [1226,1214],[1341,1214],[1341,1256],[1226,1256]
Wall : [1741,1651],[1782,1651],[1782,1869],[1741,1869]
Wall : [1741,1497],[1780,1497],[1780,1580],[1741,1580]
Wall : [1297,1496],[1352,1496],[1352,1539],[1297,1539]
Wall : [1387,2182],[1428,2182],[1428,2236],[1387,2236]
Wall : [1387,2342],[1428,2342],[1428,2395],[1387,2395]
Wall : [706,1214],[1157,1214],[1157,1267],[706,1267]
Wall : [1404,1497],[1410,1497],[1410,1940],[1404,1940]
Wall : [706,1774],[803,1774],[803,1782],[706,1782]
Wall : [706,1722],[1087,1722],[1087,1728],[706,1728]
Wall : [1298,1214],[1304,1214],[1304,1621],[1298,1621]
Wall : [1586,1721],[1783,1721],[1783,1729],[1586,1729]
Wall : [1185,1722],[1488,1722],[1488,1728],[1185,1728]
Wall : [796,1722],[803,1722],[803,1781],[796,1781]
Wall : [1078,1615],[1199,1615],[1199,1621],[1078,1621]
Wall : [1079,1214],[1086,1214],[1086,1621],[1079,1621]
Wall : [1303,1935],[1402,1935],[1402,1931],[1303,1931]
Wall : [1301,1933],[1305,1933],[1305,1828],[1301,1828]
Wall : [1301,1826],[1304,1829],[1315,1820],[1312,1817]
Wall : [1312,1817],[1315,1820],[1403,1758],[1400,1755]
