Total No of Rooms: 11
single : room 1 : closet : [704,1549] : contour_details : [662 1511],[662 1549],[663 1550],[663 1588],[734 1588],[734 1511]

single : room 2 : closet : [1538,1401] : contour_details : [1380 1369],[1380 1440],[1668 1440],[1668 1369]

single : room 3 : closet : [664,1218] : contour_details : [557 1192],[557 1240],[758 1240],[758 1192]

single : room 4 : closet : [1157,1256] : contour_details : [1117 1156],[1117 1260],[1118 1261],[1118 1364],[1189 1364],[1189 1156]

single : room 5 : 0 : 0 : contour_details : [886 1155],[886 1246],[885 1247],[885 1339],[886 1340],[886 1366],[994 1366],[995 1365],[1075 1365],[1076 1366],[1108 1366],[1108 1155]

single : room 6 : 0 : 0 : contour_details : [1193 1037],[1193 1147],[1194 1148],[1194 1154],[1193 1155],[1193 1366],[1373 1366],[1374 1365],[1670 1365],[1670 1346],[1669 1345],[1669 1133],[1670 1132],[1670 1038],[1540 1038],[1539 1037]

single : room 7 : 0 : 0 : contour_details : [1098 2133],[1096 2135],[1096 2174],[1097 2175],[1097 2223],[1098 2224],[1148 2224],[1149 2223],[1149 2176],[1150 2175],[1152 2175],[1153 2174],[1153 2135],[1152 2134],[1149 2134],[1148 2133]

single : room 8 : office : [605,935] : contour_details : [527 800],[527 801],[526 802],[432 802],[432 1188],[760 1188],[760 1157],[759 1156],[759 1062],[760 1061],[760 1037],[759 1036],[759 1030],[760 1029],[760 801],[666 801],[665 800]

single : room 9 : bedroom 2 : [1347,793] : contour_details : [1075 701],[1075 1029],[1082 1029],[1083 1028],[1539 1028],[1539 994],[1540 993],[1540 915],[1539 914],[1539 773],[1540 772],[1540 701]

single : room 10 : bathroom : [989,852] : contour_details : [881 700],[881 701],[880 702],[769 702],[769 800],[768 801],[768 1029],[858 1029],[859 1028],[951 1028],[952 1029],[1067 1029],[1067 701],[949 701],[948 700]

open : plan 1-room 11 : dining : [750, 2328] : contour_details : [ 468 2292],[ 469 2291],[ 729 2291],[ 730 2292],[ 992 2292],[ 993 2293],[1254 2293],[1255 2294],[1255 2934],[1254 2935],[ 469 2935],[ 468 2934],[ 468 2586],[ 469 2585],[ 781 2585],[ 782 2584],[ 782 2541],[ 781 2540],[ 469 2540],[ 468 2539]

open : plan 1-room 12 : living : [1132, 1880] : contour_details : [ 558 1742],[ 559 1741],[1071 1741],[1072 1742],[1367 1742],[1368 1743],[1368 1750],[1367 1751],[1369 1753],[1370 1753],[1372 1755],[1373 1755],[1374 1756],[1375 1756],[1377 1758],[1378 1758],[1380 1760],[1381 1760],[1383 1762],[1384 1762],[1386 1764],[1387 1764],[1389 1766],[1390 1766],[1392 1768],[1393 1768],[1395 1770],[1396 1770],[1398 1772],[1399 1772],[1401 1774],[1402 1774],[1404 1776],[1405 1776],[1407 1778],[1408 1778],[1410 1780],[1411 1780],[1413 1782],[1414 1782],[1416 1784],[1417 1784],[1419 1786],[1420 1786],[1422 1788],[1423 1788],[1425 1790],[1426 1790],[1428 1792],[1429 1792],[1430 1793],[1431 1793],[1433 1795],[1434 1795],[1436 1797],[1437 1797],[1439 1799],[1440 1799],[1442 1801],[1443 1801],[1445 1803],[1446 1803],[1448 1805],[1449 1805],[1451 1807],[1452 1807],[1454 1809],[1455 1809],[1457 1811],[1458 1811],[1460 1813],[1461 1813],[1463 1815],[1464 1815],[1466 1817],[1467 1817],[1469 1819],[1470 1819],[1472 1821],[1473 1821],[1475 1823],[1476 1823],[1478 1825],[1479 1825],[1481 1827],[1482 1827],[1483 1828],[1484 1828],[1486 1830],[1487 1830],[1489 1832],[1490 1832],[1492 1834],[1493 1834],[1495 1836],[1496 1836],[1498 1838],[1499 1838],[1501 1840],[1502 1840],[1504 1842],[1505 1842],[1507 1844],[1508 1844],[1510 1846],[1511 1846],[1513 1848],[1514 1848],[1516 1850],[1517 1850],[1519 1852],[1520 1852],[1522 1854],[1523 1854],[1525 1856],[1526 1856],[1528 1858],[1529 1858],[1531 1860],[1532 1860],[1534 1862],[1535 1862],[1537 1864],[1538 1864],[1539 1865],[1540 1865],[1542 1867],[1543 1867],[1545 1869],[1546 1869],[1548 1871],[1549 1871],[1551 1873],[1552 1873],[1554 1875],[1555 1875],[1557 1877],[1558 1877],[1560 1879],[1561 1879],[1563 1881],[1564 1881],[1566 1883],[1567 1883],[1569 1885],[1570 1885],[1572 1887],[1573 1887],[1575 1889],[1576 1889],[1578 1891],[1579 1891],[1581 1893],[1582 1893],[1584 1895],[1585 1895],[1590 1900],[1591 1900],[1593 1902],[1594 1902],[1596 1904],[1597 1904],[1599 1906],[1600 1906],[1602 1908],[1603 1908],[1605 1910],[1606 1910],[1608 1912],[1609 1912],[1611 1914],[1612 1914],[1614 1916],[1615 1916],[1617 1918],[1618 1918],[1620 1920],[1621 1920],[1623 1922],[1624 1922],[1626 1924],[1627 1924],[1629 1926],[1630 1926],[1632 1928],[1633 1928],[1635 1930],[1636 1930],[1638 1932],[1639 1932],[1641 1934],[1642 1934],[1644 1936],[1645 1936],[1647 1938],[1648 1938],[1650 1940],[1651 1940],[1653 1942],[1654 1942],[1656 1944],[1657 1944],[1659 1946],[1660 1946],[1662 1948],[1663 1948],[1665 1950],[1666 1950],[1668 1952],[1669 1952],[1671 1954],[1672 1954],[1674 1956],[1675 1956],[1677 1958],[1678 1958],[1680 1960],[1681 1960],[1683 1962],[1684 1962],[1686 1964],[1687 1964],[1689 1966],[1690 1966],[1692 1968],[1693 1968],[1695 1970],[1696 1970],[1698 1972],[1699 1972],[1701 1974],[1702 1974],[1704 1976],[1705 1976],[1707 1978],[1708 1978],[1710 1980],[1711 1980],[1713 1982],[1714 1982],[1716 1984],[1717 1984],[1719 1986],[1720 1986],[1722 1988],[1723 1988],[1725 1990],[1726 1990],[1728 1992],[1729 1992],[1731 1994],[1732 1994],[1734 1996],[1735 1996],[1737 1998],[1738 1998],[1740 2000],[1741 2000],[1743 2002],[1744 2002],[1746 2004],[1747 2004],[1749 2006],[1750 2006],[1752 2008],[1753 2008],[1755 2010],[1756 2010],[1758 2012],[1759 2012],[1761 2014],[1762 2014],[1764 2016],[1765 2016],[1767 2018],[1768 2018],[1770 2020],[1771 2020],[1773 2022],[1774 2022],[1776 2024],[1777 2024],[1779 2026],[1780 2026],[1782 2028],[1783 2028],[1785 2030],[1786 2030],[1788 2032],[1789 2032],[1791 2034],[1792 2034],[1794 2036],[1795 2036],[1797 2038],[1798 2038],[1800 2040],[1801 2040],[1804 2043],[1804 2291],[1803 2292],[ 994 2292],[ 993 2291],[ 731 2291],[ 730 2290],[ 469 2290],[ 468 2289],[ 468 2198],[ 469 2197],[ 557 2197],[ 558 2196]

open : plan 1-room 13 : kitchen : [1127, 1496] : contour_details : [ 887 1376],[ 888 1375],[1366 1375],[1367 1376],[1367 1504],[1368 1505],[1380 1505],[1381 1504],[1381 1500],[1382 1499],[1386 1499],[1387 1500],[1387 1510],[1386 1511],[1386 1523],[1385 1524],[1385 1535],[1384 1536],[1384 1548],[1383 1549],[1383 1561],[1382 1562],[1382 1573],[1381 1574],[1381 1586],[1380 1587],[1380 1599],[1379 1600],[1379 1611],[1378 1612],[1378 1624],[1377 1625],[1377 1637],[1376 1638],[1376 1649],[1375 1650],[1375 1662],[1374 1663],[1374 1675],[1373 1676],[1373 1687],[1372 1688],[1372 1700],[1371 1701],[1371 1713],[1370 1714],[1370 1725],[1369 1726],[1369 1738],[1368 1739],[1368 1740],[1367 1741],[1072 1741],[1071 1740],[ 888 1740],[ 887 1739]

open : plan 1-room 14 : toilet : [691, 1283] : contour_details : [ 557 1252],[ 558 1251],[ 758 1251],[ 759 1252],[ 759 1259],[ 760 1260],[ 766 1260],[ 767 1261],[ 767 1358],[ 766 1359],[ 558 1359],[ 557 1358]

open : plan 1-room 15 : corridor : [862, 1099] : contour_details : [ 769 1039],[ 770 1038],[1182 1038],[1183 1039],[1183 1145],[1182 1146],[ 878 1146],[ 877 1147],[ 877 1630],[ 876 1631],[ 864 1631],[ 863 1630],[ 849 1630],[ 848 1629],[ 834 1629],[ 833 1628],[ 819 1628],[ 818 1627],[ 805 1627],[ 804 1626],[ 792 1626],[ 791 1625],[ 779 1625],[ 778 1624],[ 767 1624],[ 766 1623],[ 754 1623],[ 753 1622],[ 742 1622],[ 741 1621],[ 729 1621],[ 728 1620],[ 717 1620],[ 716 1619],[ 704 1619],[ 703 1618],[ 704 1617],[ 775 1617],[ 776 1616],[ 776 1590],[ 775 1589],[ 740 1589],[ 739 1588],[ 739 1513],[ 740 1512],[ 768 1512],[ 769 1511],[ 769 1478],[ 770 1477],[ 851 1477],[ 852 1476],[ 849 1473],[ 849 1472],[ 840 1463],[ 840 1462],[ 831 1453],[ 831 1452],[ 822 1443],[ 822 1442],[ 812 1432],[ 812 1431],[ 803 1422],[ 803 1421],[ 794 1412],[ 794 1411],[ 785 1402],[ 785 1401],[ 776 1392],[ 776 1391],[ 770 1385],[ 770 1360],[ 769 1359]

