Window : [1825,1325],[1850,1325],[1850,1397],[1825,1397]
Window : [1825,859],[1850,859],[1850,931],[1825,931]
Window : [827,1969],[870,1969],[870,2112],[827,2112]
Window : [970,2311],[1146,2311],[1146,2354],[970,2354]
Window : [827,1420],[870,1420],[870,1562],[827,1562]
Window : [1046,794],[1071,794],[1071,1078],[1046,1078]
Window : [1660,1987],[1703,1987],[1703,2129],[1660,2129]
Window : [1230,658],[1300,658],[1300,683],[1230,683]
