Wall : [827,2311],[971,2311],[971,2354],[827,2354]
Wall : [828,2112],[870,2112],[870,2354],[828,2354]
Wall : [1471,2312],[1704,2312],[1704,2354],[1471,2354]
Wall : [1661,1787],[1703,1787],[1703,1988],[1661,1988]
Wall : [827,1273],[1562,1273],[1562,1315],[827,1315]
Wall : [828,1562],[870,1562],[870,1970],[828,1970]
Wall : [1661,2129],[1703,2129],[1703,2354],[1661,2354]
Wall : [1146,2312],[1379,2312],[1379,2354],[1146,2354]
Wall : [1661,1509],[1704,1509],[1704,1563],[1661,1563]
Wall : [828,1273],[870,1273],[870,1421],[828,1421]
Wall : [1661,1669],[1703,1669],[1703,1716],[1661,1716]
Wall : [1022,659],[1231,659],[1231,683],[1022,683]
Wall : [1660,1509],[1851,1509],[1851,1534],[1660,1534]
Wall : [1047,1078],[1071,1078],[1071,1315],[1047,1315]
Wall : [1826,931],[1851,931],[1851,1326],[1826,1326]
Wall : [1301,1692],[1325,1692],[1325,2354],[1301,2354]
Wall : [1300,659],[1851,659],[1851,683],[1300,683]
Wall : [1826,1397],[1850,1397],[1850,1533],[1826,1533]
Wall : [1537,1273],[1561,1273],[1561,1533],[1537,1533]
Wall : [1047,659],[1071,659],[1071,795],[1047,795]
Wall : [1826,659],[1850,659],[1850,860],[1826,860]
Wall : [1609,1798],[1704,1798],[1704,1806],[1609,1806]
Wall : [1195,1238],[1201,1238],[1201,1315],[1195,1315]
Wall : [1159,1238],[1165,1238],[1165,1315],[1159,1315]
Wall : [1224,1238],[1230,1238],[1230,1315],[1224,1315]
Wall : [1607,1691],[1704,1691],[1704,1699],[1607,1699]
Wall : [1158,1238],[1231,1238],[1231,1246],[1158,1246]
Wall : [1424,1799],[1482,1799],[1482,1805],[1424,1805]
Wall : [1538,1658],[1539,1655],[1524,1648],[1523,1651]
Wall : [1587,1687],[1590,1684],[1540,1655],[1537,1658]
Wall : [1587,1734],[1591,1734],[1591,1686],[1587,1686]
Wall : [1577,1752],[1580,1753],[1590,1734],[1587,1733]
Wall : [1577,1753],[1581,1753],[1581,1746],[1577,1746]
Wall : [1577,1746],[1581,1746],[1581,1741],[1577,1741]
Wall : [1578,1739],[1579,1742],[1589,1737],[1588,1734]
Wall : [1587,1801],[1591,1801],[1591,1736],[1587,1736]
Wall : [1588,1802],[1589,1799],[1424,1795],[1423,1798]
Wall : [1422,1797],[1426,1797],[1426,1697],[1422,1697]
Wall : [1424,1699],[1501,1699],[1501,1695],[1424,1695]
Wall : [1499,1753],[1503,1753],[1503,1697],[1499,1697]
Wall : [1501,1755],[1507,1755],[1507,1751],[1501,1751]
Wall : [1505,1753],[1509,1753],[1509,1697],[1505,1697]
Wall : [1507,1699],[1514,1699],[1514,1695],[1507,1695]
Wall : [1512,1696],[1515,1697],[1525,1650],[1522,1649]
