Window : [2172,1355],[2215,1355],[2215,1568],[2172,1568]
Window : [1488,794],[1558,794],[1558,818],[1488,818]
Window : [265,1036],[307,1036],[307,1367],[265,1367]
Window : [1818,853],[1843,853],[1843,1137],[1818,1137]
Window : [1357,1609],[1400,1609],[1400,1704],[1357,1704]
Window : [2172,1650],[2215,1650],[2215,1722],[2172,1722]
Window : [354,1413],[684,1413],[684,1456],[354,1456]
Window : [1919,2222],[2060,2222],[2060,2265],[1919,2265]
Window : [2172,1573],[2215,1573],[2215,1722],[2172,1722]
Window : [1034,794],[1103,794],[1103,836],[1034,836]
Window : [2172,1355],[2215,1355],[2215,1497],[2172,1497]
Window : [856,1649],[997,1649],[997,1692],[856,1692]
Window : [1512,2222],[1652,2222],[1652,2265],[1512,2265]
