Wall : [279,2303],[535,2303],[535,2345],[279,2345]
Wall : [1619,2043],[1846,2043],[1846,2085],[1619,2085]
Wall : [674,2303],[931,2303],[931,2345],[674,2345]
Wall : [888,2043],[930,2043],[930,2345],[888,2345]
Wall : [923,957],[966,957],[966,1146],[923,1146]
Wall : [923,1217],[965,1217],[965,1308],[923,1308]
Wall : [1790,1240],[2105,1240],[2105,1282],[1790,1282]
Wall : [442,1482],[801,1482],[801,1524],[442,1524]
Wall : [1265,2043],[1480,2043],[1480,2085],[1265,2085]
Wall : [1040,2043],[1173,2043],[1173,2085],[1040,2085]
Wall : [869,1481],[968,1481],[968,1524],[869,1524]
Wall : [1985,2042],[2105,2042],[2105,2085],[1985,2085]
Wall : [1643,1239],[1722,1239],[1722,1282],[1643,1282]
Wall : [280,1645],[321,1645],[321,1778],[280,1778]
Wall : [2063,1240],[2104,1240],[2104,1412],[2063,1412]
Wall : [280,1919],[321,1919],[321,2345],[280,2345]
Wall : [1643,803],[1685,803],[1685,1111],[1643,1111]
Wall : [1023,1347],[1060,1347],[1060,1418],[1023,1418]
Wall : [1652,1205],[1685,1205],[1685,1282],[1652,1282]
Wall : [493,1512],[463,1482],[280,1665],[310,1695]
Wall : [1053,1418],[1083,1388],[952,1257],[922,1287]
Wall : [922,567],[1686,567],[1686,591],[922,591]
Wall : [1182,1004],[1686,1004],[1686,1028],[1182,1028]
Wall : [923,567],[947,567],[947,674],[923,674]
Wall : [922,1004],[1083,1004],[1083,1029],[922,1029]
Wall : [1662,567],[1685,567],[1685,733],[1662,733]
Wall : [1045,1422],[1081,1390],[1055,1361],[1019,1393]
Wall : [2057,1482],[2104,1482],[2104,2085],[2057,2085]
Wall : [887,2043],[948,2043],[948,2086],[887,2086]
Wall : [1703,1488],[1709,1488],[1709,2085],[1703,2085]
Wall : [1809,1240],[1815,1240],[1815,1388],[1809,1388]
Wall : [1366,1488],[1372,1488],[1372,2085],[1366,2085]
Wall : [941,1471],[947,1471],[947,1524],[941,1524]
Wall : [1644,1205],[1650,1205],[1650,1388],[1644,1388]
Wall : [1182,1004],[1189,1004],[1189,1388],[1182,1388]
Wall : [1808,1565],[2105,1565],[2105,1571],[1808,1571]
Wall : [1749,1382],[1816,1382],[1816,1388],[1749,1388]
Wall : [1365,1488],[1604,1488],[1604,1494],[1365,1494]
Wall : [1153,1707],[1373,1707],[1373,1713],[1153,1713]
Wall : [1466,1382],[1651,1382],[1651,1388],[1466,1388]
Wall : [1182,1382],[1368,1382],[1368,1388],[1182,1388]
Wall : [1808,1488],[1815,1488],[1815,1571],[1808,1571]
Wall : [1154,1630],[1160,1630],[1160,1713],[1154,1713]
Wall : [887,1707],[1055,1707],[1055,1713],[887,1713]
Wall : [1159,1632],[1365,1632],[1365,1628],[1159,1628]
