Wall : [1821,2252],[1971,2252],[1971,2295],[1821,2295]
Wall : [1928,1899],[1970,1899],[1970,2295],[1928,2295]
Wall : [781,2253],[825,2253],[825,2531],[781,2531]
Wall : [782,1485],[824,1485],[824,1923],[782,1923]
Wall : [1549,2488],[1734,2488],[1734,2531],[1549,2531]
Wall : [315,1485],[807,1485],[807,1527],[315,1527]
Wall : [1928,1603],[1970,1603],[1970,1804],[1928,1804]
Wall : [781,2488],[902,2488],[902,2531],[781,2531]
Wall : [716,2253],[825,2253],[825,2296],[716,2296]
Wall : [1163,1603],[1206,1603],[1206,1704],[1163,1704]
Wall : [764,1661],[955,1661],[955,1705],[764,1705]
Wall : [1183,2489],[1410,2489],[1410,2531],[1183,2531]
Wall : [315,2252],[435,2252],[435,2295],[315,2295]
Wall : [1691,2252],[1752,2252],[1752,2296],[1691,2296]
Wall : [1692,2407],[1733,2407],[1733,2531],[1692,2531]
Wall : [316,1485],[357,1485],[357,1604],[316,1604]
Wall : [1165,1491],[1451,1491],[1451,1527],[1165,1527]
Wall : [1549,1491],[1971,1491],[1971,1527],[1549,1527]
Wall : [1549,1615],[1575,1615],[1575,1704],[1549,1704]
Wall : [1308,1804],[1333,1804],[1333,2041],[1308,2041]
Wall : [1165,877],[1971,877],[1971,901],[1165,901]
Wall : [1231,2141],[1255,2141],[1255,2531],[1231,2531]
Wall : [1946,877],[1970,877],[1970,1179],[1946,1179]
Wall : [1166,1444],[1190,1444],[1190,1533],[1166,1533]
Wall : [1230,2016],[1333,2016],[1333,2041],[1230,2041]
Wall : [1946,1409],[1970,1409],[1970,1533],[1946,1533]
Wall : [1166,877],[1190,877],[1190,972],[1166,972]
Wall : [1307,1680],[1333,1680],[1333,1704],[1307,1704]
Wall : [1024,1661],[1048,1661],[1048,1705],[1024,1705]
Wall : [1709,2251],[1733,2251],[1733,2312],[1709,2312]
Wall : [316,1887],[365,1887],[365,2295],[316,2295]
Wall : [1153,1665],[1209,1665],[1209,1684],[1153,1684]
Wall : [1791,1957],[1971,1957],[1971,1965],[1791,1965]
Wall : [1833,2152],[1971,2152],[1971,2160],[1833,2160]
Wall : [781,1916],[1038,1916],[1038,1924],[781,1924]
Wall : [765,1485],[781,1485],[781,1704],[765,1704]
Wall : [1307,1698],[1971,1698],[1971,1704],[1307,1704]
Wall : [1153,1688],[1209,1688],[1209,1704],[1153,1704]
Wall : [818,1662],[824,1662],[824,1976],[818,1976]
Wall : [1691,2251],[1699,2251],[1699,2312],[1691,2312]
Wall : [1700,2251],[1708,2251],[1708,2306],[1700,2306]
Wall : [1230,1804],[1410,1804],[1410,1810],[1230,1810]
Wall : [1230,2034],[1721,2034],[1721,2041],[1230,2041]
Wall : [1567,2251],[1752,2251],[1752,2260],[1567,2260]
Wall : [871,1916],[877,1916],[877,1976],[871,1976]
Wall : [817,1969],[878,1969],[878,1976],[817,1976]
Wall : [1567,2035],[1576,2035],[1576,2259],[1567,2259]
Wall : [1229,2016],[1232,2015],[1231,1809],[1228,1810]
Wall : [1405,2027],[1409,2027],[1409,1810],[1405,1810]
Wall : [1332,2029],[1407,2029],[1407,2025],[1332,2025]
