Wall : [1477,593],[1537,593],[1537,954],[1477,954]
Wall : [992,1178],[1425,1178],[1425,1220],[992,1220]
Wall : [2705,1680],[2747,1680],[2747,2229],[2705,2229]
Wall : [827,593],[1520,593],[1520,635],[827,635]
Wall : [3024,1054],[3066,1054],[3066,1178],[3024,1178]
Wall : [3024,753],[3066,753],[3066,877],[3024,877]
Wall : [2704,1679],[2907,1679],[2907,1723],[2704,1723]
Wall : [1494,1679],[1567,1679],[1567,1722],[1494,1722]
Wall : [827,840],[1035,840],[1035,884],[827,884]
Wall : [2521,753],[3067,753],[3067,794],[2521,794]
Wall : [1476,753],[1921,753],[1921,794],[1476,794]
Wall : [2297,2188],[2588,2188],[2588,2229],[2297,2229]
Wall : [1495,1289],[1536,1289],[1536,1580],[1495,1580]
Wall : [2864,1137],[2906,1137],[2906,1361],[2864,1361]
Wall : [2013,752],[2122,752],[2122,794],[2013,794]
Wall : [828,717],[869,717],[869,883],[828,883]
Wall : [2865,1538],[2906,1538],[2906,1722],[2865,1722]
Wall : [1996,2187],[2063,2187],[2063,2229],[1996,2229]
Wall : [2651,1137],[3067,1137],[3067,1178],[2651,1178]
Wall : [993,841],[1034,841],[1034,930],[993,930]
Wall : [1695,2210],[2063,2210],[2063,2235],[1695,2235]
Wall : [1990,1154],[2210,1154],[2210,1178],[1990,1178]
Wall : [1371,1721],[1396,1721],[1396,1910],[1371,1910]
Wall : [1991,1078],[2015,1078],[2015,1178],[1991,1178]
Wall : [2527,1153],[2553,1153],[2553,1178],[2527,1178]
Wall : [1635,1078],[1886,1078],[1886,1101],[1635,1101]
Wall : [1483,1078],[1537,1078],[1537,1102],[1483,1102]
Wall : [2374,1698],[2398,1698],[2398,1727],[2374,1727]
Wall : [2681,2206],[2748,2206],[2748,2229],[2681,2229]
Wall : [2192,753],[2216,753],[2216,1178],[2192,1178]
Wall : [2050,729],[2072,729],[2072,794],[2050,794]
Wall : [1706,2234],[1723,2217],[1387,1881],[1370,1898]
Wall : [1514,1096],[1497,1078],[1364,1202],[1381,1220]
Wall : [2687,2187],[2748,2187],[2748,2205],[2687,2205]
Wall : [1403,1236],[1426,1211],[1391,1177],[1368,1202]
Wall : [1972,1698],[2039,1698],[2039,1723],[1972,1723]
Wall : [1996,2170],[2038,2170],[2038,2229],[1996,2229]
Wall : [1497,1674],[1517,1674],[1517,1722],[1497,1722]
Wall : [993,1143],[1032,1143],[1032,1220],[993,1220]
Wall : [828,593],[851,593],[851,647],[828,647]
Wall : [1983,1680],[2038,1680],[2038,1840],[1983,1840]
Wall : [1399,840],[1537,840],[1537,849],[1399,849]
Wall : [1143,1178],[1149,1178],[1149,1258],[1143,1258]
Wall : [1393,1176],[1398,1176],[1398,1228],[1393,1228]
Wall : [1400,1169],[1408,1169],[1408,1232],[1400,1232]
Wall : [862,593],[869,593],[869,647],[862,647]
Wall : [1211,593],[1217,593],[1217,848],[1211,848]
Wall : [2528,753],[2534,753],[2534,1178],[2528,1178]
Wall : [1636,753],[1643,753],[1643,1178],[1636,1178]
Wall : [1484,1313],[1537,1313],[1537,1320],[1484,1320]
Wall : [1494,1343],[1886,1343],[1886,1350],[1494,1350]
Wall : [1480,1302],[1535,1302],[1535,1312],[1480,1312]
Wall : [2097,753],[2103,753],[2103,977],[2097,977]
Wall : [827,728],[1035,728],[1035,736],[827,736]
Wall : [1878,971],[1886,971],[1886,1252],[1878,1252]
Wall : [2179,1721],[2399,1721],[2399,1727],[2179,1727]
Wall : [1996,1720],[2122,1720],[2122,1728],[1996,1728]
Wall : [1133,841],[1301,841],[1301,848],[1133,848]
Wall : [1503,1280],[1511,1280],[1511,1580],[1503,1580]
Wall : [1984,971],[2104,971],[2104,977],[1984,977]
Wall : [1643,1179],[1878,1179],[1878,1175],[1643,1175]
