Door : [1026,1101],[1138,1101],[1138,1108],[1026,1108]
Door : [1263,1692],[1374,1692],[1374,1699],[1263,1699]
Door : [1180,1589],[1187,1589],[1187,1693],[1180,1693]
Door : [1180,1589],[1187,1589],[1187,1693],[1180,1693]
Door : [819,1741],[862,1741],[862,1852],[819,1852]
Door : [1020,1107],[1027,1107],[1027,1220],[1020,1220]
Door : [1067,1580],[1074,1580],[1074,1693],[1067,1693]
Door : [1565,2113],[1658,2112],[1658,2070],[1565,2088]
