bedroom 1 : [1115,1067] : [1024,1055,1206,1080] : confidence,dict,original_word,difference : [87,DM,None,0]
dining : [918,1427] : [853,1415,983,1440] : confidence,dict,original_word,difference : [91,DM,None,0]
entry : [1419,1451] : [1380,1439,1458,1463] : confidence,dict,original_word,difference : [78,DM,None,0]
closet : [1407,1581] : [1332,1569,1483,1594] : confidence,dict,original_word,difference : [94,DM,None,0]
toilet : [1552,1581] : [1525,1569,1580,1594] : confidence,dict,original_word,difference : [93,DM,None,0]
living : [1397,1758] : [1343,1746,1451,1771] : confidence,dict,original_word,difference : [89,DM,None,0]
terrace : [923,1946] : [834,1914,1012,1978] : confidence,dict,original_word,difference : [89,DM,None,0]
kitchen : [1442,1994] : [1378,1982,1506,2007] : confidence,dict,original_word,difference : [91,DM,None,0]
No Text Detected
