Wall : [687,2421],[919,2421],[919,2463],[687,2463]
Wall : [1420,703],[1462,703],[1462,886],[1420,886]
Wall : [628,1506],[854,1506],[854,1548],[628,1548]
Wall : [469,1506],[511,1506],[511,1689],[469,1689]
Wall : [469,1831],[512,1831],[512,2138],[469,2138]
Wall : [1656,2280],[1698,2280],[1698,2463],[1656,2463]
Wall : [1183,703],[1463,703],[1463,745],[1183,745]
Wall : [1656,1831],[1698,1831],[1698,2138],[1656,2138]
Wall : [1656,1506],[1698,1506],[1698,1689],[1656,1689]
Wall : [705,703],[984,703],[984,745],[705,745]
Wall : [1420,1028],[1462,1028],[1462,1312],[1420,1312]
Wall : [1419,1382],[1462,1382],[1462,1548],[1419,1548]
Wall : [469,2280],[511,2280],[511,2463],[469,2463]
Wall : [1248,2421],[1480,2421],[1480,2463],[1248,2463]
Wall : [953,1506],[1539,1506],[1539,1548],[953,1548]
Wall : [1573,2420],[1699,2420],[1699,2463],[1573,2463]
Wall : [1063,703],[1107,703],[1107,1193],[1063,1193]
Wall : [468,2420],[595,2420],[595,2463],[468,2463]
Wall : [706,1028],[748,1028],[748,1548],[706,1548]
Wall : [706,703],[747,703],[747,886],[706,886]
Wall : [468,1919],[854,1919],[854,1943],[468,1943]
Wall : [953,1919],[1179,1919],[1179,1943],[953,1943]
Wall : [1632,1508],[1699,1508],[1699,1530],[1632,1530]
Wall : [468,1506],[536,1506],[536,1528],[468,1528]
Wall : [468,1531],[530,1531],[530,1549],[468,1549]
Wall : [1638,1531],[1699,1531],[1699,1549],[1638,1549]
Wall : [1053,703],[1114,703],[1114,727],[1053,727]
Wall : [847,1506],[854,1506],[854,1742],[847,1742]
Wall : [1632,1543],[1699,1543],[1699,1549],[1632,1549]
Wall : [953,1294],[1463,1294],[1463,1300],[953,1300]
Wall : [954,1549],[960,1549],[960,1742],[954,1742]
Wall : [1172,1506],[1178,1506],[1178,1742],[1172,1742]
Wall : [1053,739],[1114,739],[1114,745],[1053,745]
Wall : [953,1187],[1091,1187],[1091,1193],[953,1193]
Wall : [705,1186],[854,1186],[854,1194],[705,1194]
Wall : [847,1843],[854,1843],[854,1943],[847,1943]
Wall : [1172,1843],[1179,1843],[1179,1943],[1172,1943]
Wall : [954,1843],[960,1843],[960,1943],[954,1943]
Wall : [1172,1294],[1178,1294],[1178,1406],[1172,1406]
Wall : [953,1400],[1179,1400],[1179,1406],[953,1406]
Wall : [959,1845],[1171,1845],[1171,1841],[959,1841]
