Door : [1196,1050],[1296,1050],[1296,1075],[1196,1075]
Door : [1319,1039],[1419,1039],[1419,1064],[1319,1064]
Door : [1425,1090],[1543,1090],[1543,1099],[1425,1099]
Door : [1047,1647],[1090,1647],[1090,1754],[1047,1754]
Door : [1418,1098],[1426,1098],[1426,1199],[1418,1199]
Door : [1295,1405],[1302,1405],[1302,1506],[1295,1506]
