bedroom 2 : [918,937] : [826,925,1011,950] : confidence,dict,original_word,difference : [92,DM,None,0]
bedroom 1 : [1259,985] : [1168,973,1350,997] : confidence,dict,original_word,difference : [96,DM,None,0]
corridor : [890,1256] : [844,1244,937,1269] : confidence,dict,original_word,difference : [94,DM,None,0]
toilet : [999,1327] : [972,1315,1027,1340] : confidence,dict,original_word,difference : [94,DM,None,0]
office : [667,1711] : [602,1699,733,1724] : confidence,dict,original_word,difference : [80,DM,None,0]
kitchen : [1403,1687] : [1339,1675,1467,1700] : confidence,dict,original_word,difference : [92,DM,None,0]
corridor : [932,1788] : [886,1776,978,1801] : confidence,dict,original_word,difference : [79,DM,None,0]
closet : [1055,1876] : [980,1864,1130,1889] : confidence,dict,original_word,difference : [93,DM,None,0]
dining : [707,2177] : [642,2165,773,2190] : confidence,dict,original_word,difference : [91,DM,None,0]
living : [1411,2177] : [1358,2165,1464,2190] : confidence,dict,original_word,difference : [89,DM,None,0]
terrace : [1080,2536] : [993,2505,1168,2568] : confidence,dict,original_word,difference : [91,DM,None,0]
No Text Detected
