Door : [1224,1194],[1331,1194],[1331,1236],[1224,1236]
Door : [576,1631],[675,1631],[675,1657],[576,1657]
Door : [752,2286],[782,2286],[782,2422],[752,2422]
Door : [1496,1596],[1503,1596],[1503,1697],[1496,1697]
Door : [458,1768],[499,1768],[500,1697],[458,1697]
Door : [806,2311],[822,2327],[907,2269],[879,2240]
