Total No of Rooms: 4
single : room 1 : entry : [1180,1703] : contour_details : [1042 1569],[1041 1570],[1036 1570],[1036 1776],[1035 1777],[1035 1875],[1036 1875],[1037 1876],[1037 1882],[1036 1883],[1036 1927],[1089 1927],[1090 1928],[1090 1935],[1089 1936],[1089 1979],[1090 1980],[1090 1987],[1089 1988],[1036 1988],[1036 2401],[1152 2401],[1153 2400],[1317 2400],[1318 2401],[1519 2401],[1520 2400],[1784 2400],[1784 2294],[1783 2293],[1783 2019],[1684 2019],[1683 2018],[1683 1977],[1684 1976],[1684 1843],[1683 1842],[1683 1742],[1272 1742],[1271 1741],[1271 1637],[1270 1637],[1269 1636],[1269 1630],[1270 1629],[1270 1570],[1146 1570],[1145 1569]

single : room 2 : kitchen : [1952,1673] : contour_details : [1709 1529],[1709 1627],[1710 1628],[1710 1629],[1711 1630],[1711 1636],[1710 1637],[1710 1743],[1709 1744],[1709 1842],[1710 1843],[1710 1976],[1926 1976],[1927 1975],[2174 1975],[2174 1833],[2173 1832],[2173 1667],[2174 1666],[2174 1529]

single : room 3 : cellar : [1475,1540] : contour_details : [1587 1447],[1586 1448],[1278 1448],[1278 1515],[1279 1516],[1279 1629],[1683 1629],[1683 1470],[1684 1469],[1684 1447]

single : room 4 : garage : [1744,1031] : contour_details : [1261 649],[1261 840],[1260 841],[1260 1312],[1261 1312],[1262 1313],[1262 1423],[1584 1423],[1585 1422],[1684 1422],[1685 1423],[1726 1423],[1727 1424],[1727 1469],[2174 1469],[2174 1237],[2175 1236],[2191 1236],[2191 1165],[2192 1164],[2192 1077],[2191 1076],[2191 1006],[2192 1005],[2192 649]

