Wall : [734,1820],[1267,1820],[1267,1861],[734,1861]
Wall : [2033,1732],[2430,1732],[2430,1773],[2033,1773]
Wall : [1696,1732],[1893,1732],[1893,1774],[1696,1774]
Wall : [1613,1821],[1739,1821],[1739,1861],[1613,1861]
Wall : [923,1170],[1131,1170],[1131,1212],[923,1212]
Wall : [1714,592],[2430,592],[2430,633],[1714,633]
Wall : [734,1460],[776,1460],[776,1861],[734,1861]
Wall : [1336,1820],[1474,1820],[1474,1861],[1336,1861]
Wall : [735,1171],[777,1171],[777,1318],[735,1318]
Wall : [2387,1461],[2429,1461],[2429,1531],[2387,1531]
Wall : [1697,1732],[1738,1732],[1738,1861],[1697,1861]
Wall : [2387,834],[2429,834],[2429,904],[2387,904]
Wall : [734,1171],[830,1171],[830,1213],[734,1213]
Wall : [999,1029],[1739,1029],[1739,1058],[999,1058]
Wall : [1000,503],[1024,503],[1024,636],[1000,636]
Wall : [999,503],[1739,503],[1739,527],[999,527]
Wall : [1000,920],[1024,920],[1024,1052],[1000,1052]
Wall : [1715,834],[1739,834],[1739,1052],[1715,1052]
Wall : [1715,503],[1738,503],[1738,722],[1715,722]
Wall : [2406,592],[2429,592],[2429,657],[2406,657]
Wall : [2406,1708],[2429,1708],[2429,1773],[2406,1773]
Wall : [2388,592],[2405,592],[2405,651],[2388,651]
Wall : [1089,1165],[1130,1165],[1130,1212],[1089,1212]
Wall : [1124,1324],[1130,1324],[1130,1861],[1124,1861]
Wall : [2388,1714],[2404,1714],[2404,1773],[2388,1773]
Wall : [1697,1247],[1703,1247],[1703,1861],[1697,1861]
Wall : [1945,592],[1951,592],[1951,722],[1945,722]
Wall : [1361,1442],[1366,1442],[1366,1861],[1361,1861]
Wall : [2416,1531],[2421,1527],[2385,1483],[2380,1487]
Wall : [2387,1478],[2669,1478],[2669,1484],[2387,1484]
Wall : [2416,838],[2412,834],[2379,881],[2383,885]
Wall : [2387,881],[2668,881],[2668,887],[2387,887]
Wall : [1714,834],[1952,834],[1952,840],[1714,840]
Wall : [1123,1324],[1249,1324],[1249,1330],[1123,1330]
Wall : [1123,1519],[1249,1519],[1249,1525],[1123,1525]
Wall : [1360,1324],[1704,1324],[1704,1330],[1360,1330]
Wall : [2728,1423],[2723,1419],[2660,1480],[2665,1484]
Wall : [2844,1069],[2848,1064],[2664,880],[2660,885]
Wall : [1241,1442],[1249,1442],[1249,1525],[1241,1525]
Wall : [1361,1247],[1367,1247],[1367,1339],[1361,1339]
Wall : [2843,1063],[2849,1063],[2849,1302],[2843,1302]
Wall : [1844,1165],[2070,1165],[2070,1171],[1844,1171]
Wall : [1844,940],[1851,940],[1851,1052],[1844,1052]
Wall : [1365,1249],[1696,1249],[1696,1245],[1365,1245]
