Window : [855,1110],[900,1110],[900,1264],[855,1264]
Window : [1720,1440],[1789,1440],[1789,1483],[1720,1483]
Window : [1342,708],[1411,708],[1411,733],[1342,733]
Window : [716,2420],[998,2420],[998,2463],[716,2463]
Window : [1807,1211],[1850,1211],[1850,1353],[1807,1353]
Window : [1624,1786],[1667,1786],[1667,1929],[1624,1929]
Window : [1966,768],[1991,768],[1991,1052],[1966,1052]
Window : [1100,708],[1169,708],[1169,733],[1100,733]
Window : [592,1748],[642,1748],[633,1607],[592,1607]
Window : [1513,2410],[1514,2463],[1667,2103],[1623,2102]
