Wall : [2037,1789],[2583,1789],[2583,1831],[2037,1831]
Wall : [1543,602],[1586,602],[1586,762],[1543,762]
Wall : [863,1216],[905,1216],[905,1341],[863,1341]
Wall : [2540,1642],[2583,1642],[2583,1831],[2540,1831]
Wall : [1913,602],[2583,602],[2583,644],[1913,644]
Wall : [1689,602],[1844,602],[1844,644],[1689,644]
Wall : [1689,1788],[1897,1788],[1897,1831],[1689,1831]
Wall : [2540,889],[2583,889],[2583,1101],[2540,1101]
Wall : [2539,1243],[2583,1243],[2583,1500],[2539,1500]
Wall : [862,1450],[1336,1450],[1336,1492],[862,1492]
Wall : [2540,602],[2583,602],[2583,747],[2540,747]
Wall : [1688,1453],[1731,1453],[1731,1831],[1688,1831]
Wall : [509,201],[550,201],[550,910],[509,910]
Wall : [1476,1453],[1602,1453],[1602,1494],[1476,1494]
Wall : [1587,602],[1614,602],[1614,868],[1587,868]
Wall : [508,201],[912,201],[912,225],[508,225]
Wall : [980,201],[1384,201],[1384,226],[980,226]
Wall : [1359,201],[1383,201],[1383,260],[1359,260]
Wall : [508,579],[1242,579],[1242,602],[508,602]
Wall : [1671,1470],[1732,1470],[1732,1495],[1671,1495]
Wall : [1559,602],[1620,602],[1620,627],[1559,627]
Wall : [863,1435],[886,1435],[886,1494],[863,1494]
Wall : [832,1216],[906,1216],[906,1259],[832,1259]
Wall : [1523,719],[1602,719],[1602,762],[1523,762]
Wall : [2203,1453],[2209,1453],[2209,1831],[2203,1831]
Wall : [1559,635],[1620,635],[1620,640],[1559,640]
Wall : [2062,602],[2068,602],[2068,901],[2062,901]
Wall : [1701,602],[1708,602],[1708,868],[1701,868]
Wall : [2061,992],[2583,992],[2583,998],[2061,998]
Wall : [2061,1346],[2583,1346],[2583,1352],[2061,1352]
Wall : [1223,1252],[1229,1252],[1229,1494],[1223,1494]
Wall : [888,1441],[896,1441],[896,1494],[888,1494]
Wall : [897,1435],[905,1435],[905,1494],[897,1494]
Wall : [1677,1462],[1732,1462],[1732,1474],[1677,1474]
Wall : [1671,1453],[2027,1453],[2027,1461],[1671,1461]
Wall : [1583,974],[1589,974],[1589,1494],[1583,1494]
Wall : [1075,579],[1082,579],[1082,868],[1075,868]
Wall : [2126,1453],[2210,1453],[2210,1459],[2126,1459]
Wall : [1937,862],[2069,862],[2069,868],[1937,868]
Wall : [1700,862],[1838,862],[1838,868],[1700,868]
Wall : [2062,992],[2068,992],[2068,1084],[2062,1084]
Wall : [2062,1175],[2069,1175],[2069,1352],[2062,1352]
Wall : [1954,1376],[1962,1376],[1962,1459],[1954,1459]
Wall : [1222,974],[1962,974],[1962,980],[1222,980]
Wall : [1074,862],[1348,862],[1348,868],[1074,868]
Wall : [1223,974],[1229,974],[1229,1152],[1223,1152]
Wall : [1955,974],[1962,974],[1962,1276],[1955,1276]
