bathroom : [1372,1148] : [1314,1133,1430,1163] : confidence,dict,original_word,difference : [92,DM,None,0]
bedroom : [714,1289] : [669,1274,759,1305] : confidence,dict,original_word,difference : [87,DM,None,0]
bedroom : [1104,1284] : [1059,1269,1149,1299] : confidence,dict,original_word,difference : [94,DM,None,0]
bedroom : [1656,1284] : [1614,1269,1698,1300] : confidence,dict,original_word,difference : [93,DM,None,0]
toilet : [1332,1319] : [1294,1304,1371,1335] : confidence,dict,original_word,difference : [82,DM,None,0]
corridor : [1366,1472] : [1309,1457,1424,1488] : confidence,dict,original_word,difference : [93,DM,None,0]
entry : [1588,1661] : [1539,1647,1637,1676] : confidence,dict,original_word,difference : [96,DM,None,0]
dining : [956,1762] : [875,1747,1038,1777] : confidence,dict,original_word,difference : [88,DM,None,0]
kitchen : [1546,1921] : [1466,1906,1626,1937] : confidence,dict,original_word,difference : [88,DM,None,0]
No Text Detected
