Wall : [565,2297],[821,2297],[821,2339],[565,2339]
Wall : [1877,1606],[1919,1606],[1919,2103],[1877,2103]
Wall : [961,2296],[1152,2296],[1152,2339],[961,2339]
Wall : [1339,2061],[1471,2061],[1471,2103],[1339,2103]
Wall : [235,2296],[426,2296],[426,2339],[235,2339]
Wall : [1876,1040],[1919,1040],[1919,1276],[1876,1276]
Wall : [1114,2061],[1157,2061],[1157,2339],[1114,2339]
Wall : [1800,2060],[1920,2060],[1920,2103],[1800,2103]
Wall : [235,1406],[845,1406],[845,1449],[235,1449]
Wall : [937,1404],[1028,1404],[1028,1447],[937,1447]
Wall : [236,1406],[277,1406],[277,1548],[236,1548]
Wall : [236,1689],[277,1689],[277,2339],[236,2339]
Wall : [993,1370],[1025,1370],[1025,1447],[993,1447]
Wall : [985,1099],[1235,1099],[1235,1129],[985,1129]
Wall : [1895,544],[1919,544],[1919,969],[1895,969]
Wall : [1333,1099],[1920,1099],[1920,1123],[1333,1123]
Wall : [985,544],[1920,544],[1920,568],[985,568]
Wall : [986,874],[1009,874],[1009,999],[986,999]
Wall : [986,544],[1009,544],[1009,591],[986,591]
Wall : [1215,1884],[1235,1884],[1235,2103],[1215,2103]
Wall : [1025,1133],[1042,1122],[1026,1098],[1009,1109]
Wall : [1352,2315],[1376,2315],[1376,2339],[1352,2339]
Wall : [986,1364],[1010,1364],[1010,1447],[986,1447]
Wall : [986,1093],[1009,1093],[1009,1134],[986,1134]
Wall : [1109,2079],[1170,2079],[1170,2104],[1109,2104]
Wall : [631,1961],[637,1961],[637,2339],[631,2339]
Wall : [1110,1932],[1116,1932],[1116,2339],[1110,2339]
Wall : [1109,2061],[1170,2061],[1170,2068],[1109,2068]
Wall : [767,1406],[773,1406],[773,1784],[767,1784]
Wall : [235,1778],[461,1778],[461,1785],[235,1785]
Wall : [937,1440],[1105,1440],[1105,1447],[937,1447]
Wall : [902,1961],[1117,1961],[1117,1967],[902,1967]
Wall : [766,1660],[845,1660],[845,1666],[766,1666]
Wall : [766,1778],[898,1778],[898,1784],[766,1784]
Wall : [454,1778],[460,1778],[460,1861],[454,1861]
Wall : [1098,1441],[1104,1441],[1104,1548],[1098,1548]
Wall : [902,1884],[909,1884],[909,1967],[902,1967]
Wall : [453,1854],[638,1854],[638,1861],[453,1861]
Wall : [996,1541],[1223,1541],[1223,1548],[996,1548]
Wall : [737,1884],[910,1884],[910,1890],[737,1890]
Wall : [631,1778],[637,1778],[637,1861],[631,1861]
Wall : [1214,1541],[1223,1541],[1223,1784],[1214,1784]
Wall : [997,1541],[1004,1541],[1004,1784],[997,1784]
Wall : [738,1884],[744,1884],[744,1967],[738,1967]
Wall : [1103,1778],[1223,1778],[1223,1784],[1103,1784]
Wall : [277,1861],[453,1861],[453,1857],[277,1857]
Wall : [459,1780],[606,1780],[606,1776],[459,1776]
Wall : [628,1802],[631,1799],[607,1776],[604,1779]
Wall : [744,1968],[902,1968],[902,1964],[744,1964]
