Wall : [2908,1084],[2950,1084],[2950,1568],[2908,1568]
Wall : [1461,1119],[1811,1119],[1811,1161],[1461,1161]
Wall : [1942,1119],[1985,1119],[1985,1568],[1942,1568]
Wall : [1059,765],[1103,765],[1103,883],[1059,883]
Wall : [2801,1525],[2951,1525],[2951,1568],[2801,1568]
Wall : [1839,369],[2290,369],[2290,411],[1839,411]
Wall : [2358,369],[2951,369],[2951,411],[2358,411]
Wall : [2908,369],[2950,369],[2950,546],[2908,546]
Wall : [1059,1119],[1321,1119],[1321,1161],[1059,1161]
Wall : [2908,688],[2950,688],[2950,942],[2908,942]
Wall : [2216,1526],[2662,1526],[2662,1568],[2216,1568]
Wall : [1939,1525],[2077,1525],[2077,1568],[1939,1568]
Wall : [1060,1024],[1102,1024],[1102,1161],[1060,1161]
Wall : [1537,369],[1699,369],[1699,411],[1537,411]
Wall : [1627,369],[1651,369],[1651,788],[1627,788]
Wall : [616,369],[1020,369],[1020,393],[616,393]
Wall : [1089,369],[1469,369],[1469,393],[1089,393]
Wall : [617,723],[641,723],[641,788],[617,788]
Wall : [617,369],[641,369],[641,440],[617,440]
Wall : [616,765],[819,765],[819,788],[616,788]
Wall : [888,765],[1439,765],[1439,788],[888,788]
Wall : [1537,764],[1652,764],[1652,788],[1537,788]
Wall : [1915,1119],[1983,1119],[1983,1159],[1915,1159]
Wall : [1721,889],[1728,889],[1728,1161],[1721,1161]
Wall : [2088,369],[2094,369],[2094,788],[2088,788]
Wall : [2460,369],[2466,369],[2466,682],[2460,682]
Wall : [2311,782],[2951,782],[2951,788],[2311,788]
Wall : [2365,1473],[2371,1473],[2371,1568],[2365,1568]
Wall : [2312,1001],[2318,1001],[2318,1568],[2312,1568]
Wall : [1975,1001],[1982,1001],[1982,1568],[1975,1568]
Wall : [1537,781],[1988,781],[1988,788],[1537,788]
Wall : [1420,369],[1426,369],[1426,664],[1420,664]
Wall : [823,763],[885,763],[885,768],[823,768]
Wall : [1720,889],[1805,889],[1805,895],[1720,895]
Wall : [2087,782],[2207,782],[2207,788],[2087,788]
Wall : [2311,676],[2467,676],[2467,682],[2311,682]
Wall : [2311,1473],[2372,1473],[2372,1480],[2311,1480]
Wall : [2081,1001],[2319,1001],[2319,1007],[2081,1007]
Wall : [2199,676],[2206,676],[2206,788],[2199,788]
