bedroom : [924,436] : [891,424,957,449] : confidence,dict,original_word,difference : [91,DM,None,0]
bathroom : [1450,815] : [1404,802,1497,828] : confidence,dict,original_word,difference : [67,DM,None,0]
porch : [1861,804] : [1794,792,1928,817] : confidence,dict,original_word,difference : [92,DM,None,0]
dressing room : [1155,876] : [1097,861,1213,891] : confidence,dict,original_word,difference : [86,DM,None,0]
toilet : [1656,863] : [1626,851,1687,876] : confidence,dict,original_word,difference : [91,DM,None,0]
garage : [2227,916] : [2160,904,2294,929] : confidence,dict,original_word,difference : [85,DM,None,0]
cellar : [2474,1187] : [2408,1175,2540,1200] : confidence,dict,original_word,difference : [84,DM,None,0]
closet : [1829,1199] : [1811,1188,1847,1211] : confidence,dict,original_word,difference : [93,DM,None,0]
bedroom : [1362,1210] : [1327,1198,1397,1223] : confidence,dict,original_word,difference : [76,DM,None,0]
office : [1652,1223] : [1587,1211,1717,1236] : confidence,dict,original_word,difference : [87,DM,None,0]
kitchen : [2743,1218] : [2679,1206,2807,1231] : confidence,dict,original_word,difference : [86,DM,None,0]
bedroom : [913,1263] : [878,1251,948,1276] : confidence,dict,original_word,difference : [94,DM,None,0]
living : [2519,1590] : [2466,1577,2572,1603] : confidence,dict,original_word,difference : [83,DM,None,0]
salon : [2047,1801] : [1994,1789,2100,1814] : confidence,dict,original_word,difference : [85,DM,None,0]
bedroom : [2845,2254] : [2825,2276,2865,2232] : confidence,dict,original_word,difference : [64,SG,ci,1]
No Text Detected
