garage : [2136,1103] : [2051,1088,2221,1119] : confidence,dict,original_word,difference : [85,DM,None,0]
closet : [1420,1384] : [1380,1369,1460,1400] : confidence,dict,original_word,difference : [78,SG,pr,1]
cellar : [1650,1382] : [1567,1367,1734,1398] : confidence,dict,original_word,difference : [89,DM,None,0]
kitchen : [2060,1412] : [1980,1396,2141,1428] : confidence,dict,original_word,difference : [82,DM,None,0]
bathroom : [1119,1535] : [1061,1520,1177,1551] : confidence,dict,original_word,difference : [82,DM,None,0]
toilet : [1327,1538] : [1294,1523,1360,1554] : confidence,dict,original_word,difference : [93,DM,None,0]
bedroom 1 : [836,1586] : [723,1571,950,1601] : confidence,dict,original_word,difference : [92,DM,None,0]
entry : [1458,1659] : [1409,1644,1507,1674] : confidence,dict,original_word,difference : [77,DM,None,0]
corridor : [1141,1752] : [998,1737,1284,1768] : confidence,dict,original_word,difference : [90,DM,None,0]
dining : [1949,1910] : [1868,1894,2031,1926] : confidence,dict,original_word,difference : [87,DM,None,0]
bedroom 2 : [851,2023] : [735,2008,968,2038] : confidence,dict,original_word,difference : [88,DM,None,0]
bedroom 3 : [1330,2023] : [1213,2008,1447,2039] : confidence,dict,original_word,difference : [84,DM,None,0]
No Text Detected
