Total No of Rooms: 8
single : room 1 : bedroom 2 : [851,2023] : contour_details : [988 1810],[987 1811],[650 1811],[650 2186],[936 2186],[937 2187],[1085 2187],[1085 1811],[1084 1810]

single : room 2 : 0 : 0 : contour_details : [1192 1375],[1192 1483],[1280 1483],[1280 1375]

single : room 3 : bedroom 1 : [836,1586] : contour_details : [650 1374],[650 1509],[649 1510],[649 1650],[650 1651],[650 1803],[977 1803],[977 1710],[978 1709],[978 1374]

single : room 4 : bathroom : [1119,1535] : contour_details : [1118 1373],[1117 1374],[987 1374],[987 1697],[1085 1697],[1086 1696],[1185 1696],[1185 1492],[1184 1491],[1184 1373]

single : room 5 : closet : [1420,1384] : contour_details : [1447 1262],[1447 1367],[1445 1369],[1443 1367],[1443 1263],[1008 1263],[1008 1296],[1009 1297],[1009 1329],[1321 1329],[1324 1332],[1324 1374],[1323 1375],[1323 1447],[1443 1447],[1443 1403],[1445 1401],[1447 1403],[1447 1447],[1514 1447],[1514 1262]

single : room 6 : cellar : [1650,1382] : contour_details : [1560 1226],[1560 1285],[1559 1286],[1559 1354],[1560 1355],[1560 1448],[1561 1449],[1561 1489],[1560 1490],[1560 1491],[1559 1492],[1559 1591],[1740 1591],[1740 1227],[1658 1227],[1657 1226]

single : room 7 : garage : [2136,1103] : contour_details : [1542 707],[1542 854],[1541 855],[1541 1136],[1559 1136],[1560 1137],[1560 1200],[1657 1200],[1658 1201],[2235 1201],[2235 1114],[2236 1113],[2253 1113],[2253 1042],[2254 1041],[2254 707]

open : plan 1-room 8 : bedroom 3 : [1330, 2023] : contour_details : [1094 1812],[1095 1811],[1517 1811],[1518 1812],[1518 1864],[1517 1865],[1517 1916],[1516 1917],[1510 1917],[1509 1918],[1509 2185],[1508 2186],[1095 2186],[1094 2185]

open : plan 1-room 9 : dining : [1949, 1910] : contour_details : [1521 1706],[1522 1705],[1714 1705],[1715 1706],[2234 1706],[2235 1707],[2235 2185],[2234 2186],[1519 2186],[1518 2185],[1518 1865],[1519 1864],[1519 1812],[1520 1811],[1520 1758],[1521 1757]

open : plan 1-room 10 : corridor : [1141, 1752] : contour_details : [ 988 1706],[ 989 1705],[1519 1705],[1520 1706],[1520 1757],[1519 1758],[1519 1800],[1518 1801],[ 989 1801],[ 988 1800]

open : plan 1-room 11 : entry : [1458, 1659] : contour_details : [1194 1600],[1195 1599],[1748 1599],[1749 1600],[1749 1651],[1750 1652],[1750 1704],[1749 1705],[1715 1705],[1714 1704],[1522 1704],[1521 1703],[1520 1704],[1195 1704],[1194 1703]

open : plan 1-room 12 : toilet : [1327, 1538] : contour_details : [1194 1492],[1195 1491],[1514 1491],[1515 1492],[1515 1596],[1514 1597],[1195 1597],[1194 1596]

open : plan 1-room 13 : kitchen : [2060, 1412] : contour_details : [1750 1229],[1751 1228],[2234 1228],[2235 1229],[2235 1704],[2234 1705],[1752 1705],[1751 1704],[1751 1652],[1750 1651]

