Door : [1013,1901],[1113,1901],[1113,1908],[1013,1908]
Door : [1013,1546],[1112,1546],[1112,1553],[1013,1553]
Door : [877,2237],[970,2237],[970,2280],[877,2280]
Door : [1367,1050],[1466,1050],[1466,1059],[1367,1059]
Door : [1367,1262],[1466,1262],[1466,1288],[1367,1288]
Door : [1013,1546],[1112,1546],[1112,1553],[1013,1553]
Door : [1005,1694],[1014,1694],[1014,1795],[1005,1795]
Door : [1537,1812],[1580,1812],[1580,1920],[1537,1920]
Door : [1020,2297],[1031,2297],[1031,2392],[1020,2392]
Door : [1006,1588],[1014,1588],[1014,1689],[1006,1689]
Door : [883,1187],[906,1187],[907,1093],[882,1093]
Door : [988,2392],[1031,2392],[1012,2298],[989,2298]
