Total No of Rooms: 10
single : room 1 : 0 : 0 : contour_details : [655 2726],[657 2726],[658 2727],[660 2727],[661 2728],[664 2728],[665 2729],[667 2729],[668 2730],[670 2730],[671 2731],[674 2731],[675 2732],[677 2732],[678 2733],[680 2733],[681 2734],[683 2734],[684 2735],[687 2735],[688 2736],[690 2736],[691 2737],[693 2737],[694 2738],[697 2738],[698 2739],[700 2739],[701 2740],[703 2740],[704 2741],[706 2741],[707 2742],[710 2742],[711 2743],[713 2743],[714 2744],[716 2744],[717 2745],[720 2745],[721 2746],[723 2746],[724 2747],[726 2747],[727 2748],[729 2748],[730 2749],[733 2749],[734 2750],[736 2750],[737 2751],[739 2751],[740 2752],[743 2752],[744 2753],[746 2753],[747 2754],[749 2754],[750 2755],[752 2755],[753 2756],[756 2756],[757 2757],[759 2757],[760 2758],[762 2758],[763 2759],[766 2759],[767 2760],[769 2760],[770 2761],[772 2761],[773 2762],[775 2762],[776 2763],[779 2763],[780 2764],[782 2764],[783 2765],[785 2765],[786 2766],[789 2766],[790 2767],[792 2767],[793 2768],[795 2768],[796 2769],[798 2769],[799 2770],[802 2770],[803 2771],[805 2771],[806 2772],[808 2772],[809 2773],[812 2773],[813 2774],[815 2774],[816 2775],[818 2775],[819 2776],[821 2776],[822 2777],[825 2777],[826 2778],[828 2778],[829 2779],[831 2779],[832 2780],[835 2780],[836 2781],[838 2781],[839 2782],[841 2782],[842 2783],[844 2783],[845 2784],[848 2784],[849 2785],[851 2785],[852 2786],[854 2786],[855 2787],[858 2787],[859 2788],[861 2788],[862 2789],[864 2789],[865 2790],[867 2790],[868 2791],[871 2791],[872 2792],[874 2792],[875 2793],[877 2793],[878 2794],[881 2794],[882 2795],[884 2795],[885 2796],[887 2796],[888 2797],[890 2797],[891 2798],[894 2798],[894 2726]

single : room 2 : douche : [951,2646] : contour_details : [904 2543],[904 2613],[903 2614],[903 2712],[904 2713],[904 2801],[1020 2801],[1020 2713],[1019 2712],[1019 2612],[1020 2611],[1020 2543]

single : room 3 : closet : [961,2499] : contour_details : [904 2471],[904 2503],[905 2504],[905 2539],[1018 2539],[1018 2471]

single : room 4 : office : [730,2162] : contour_details : [687 2006],[686 2007],[568 2007],[568 2093],[567 2094],[567 2186],[568 2187],[568 2299],[895 2299],[895 2080],[896 2079],[896 2006]

single : room 5 : bedroom 1 : [1280,2121] : contour_details : [1012 1947],[1012 2358],[1085 2358],[1086 2357],[1185 2357],[1185 2283],[1184 2282],[1184 2276],[1185 2275],[1522 2275],[1522 1983],[1521 1982],[1521 1947]

single : room 6 : cellar : [725,1229] : contour_details : [793 1119],[792 1120],[568 1120],[568 1208],[567 1209],[567 1277],[568 1278],[568 1301],[790 1301],[791 1300],[896 1300],[896 1120],[890 1120],[889 1119],[888 1119],[888 1130],[887 1131],[887 1146],[886 1147],[886 1162],[885 1163],[885 1178],[884 1179],[884 1194],[883 1195],[883 1203],[882 1204],[881 1203],[880 1203],[879 1202],[878 1202],[877 1201],[876 1201],[875 1200],[874 1200],[873 1199],[872 1199],[871 1198],[870 1198],[869 1197],[868 1197],[867 1196],[866 1196],[865 1195],[864 1195],[863 1194],[862 1194],[861 1193],[860 1193],[859 1192],[858 1192],[857 1191],[856 1191],[855 1190],[854 1190],[853 1189],[852 1189],[851 1188],[850 1188],[849 1187],[848 1187],[847 1186],[846 1186],[845 1185],[844 1185],[843 1184],[842 1184],[841 1183],[840 1183],[839 1182],[838 1182],[837 1181],[836 1181],[835 1180],[834 1180],[833 1179],[832 1179],[831 1178],[830 1178],[829 1177],[828 1177],[827 1176],[826 1176],[825 1175],[824 1175],[823 1174],[822 1174],[821 1173],[820 1173],[819 1172],[818 1172],[817 1171],[816 1171],[814 1169],[814 1166],[813 1165],[813 1160],[812 1159],[812 1154],[811 1153],[811 1148],[810 1147],[810 1141],[809 1140],[809 1135],[808 1134],[808 1129],[807 1128],[807 1123],[806 1122],[806 1119]

single : room 7 : garage : [1266,863] : contour_details : [1194 441],[1193 442],[1186 442],[1185 443],[1179 443],[1178 444],[1171 444],[1170 445],[1164 445],[1163 446],[1156 446],[1155 447],[1148 447],[1147 448],[1141 448],[1140 449],[1133 449],[1132 450],[786 450],[786 477],[785 478],[785 504],[784 505],[784 531],[783 532],[783 557],[782 558],[782 584],[781 585],[781 611],[780 612],[780 638],[779 639],[779 665],[778 666],[778 691],[777 692],[777 718],[776 719],[776 745],[775 746],[775 772],[774 773],[774 799],[773 800],[773 826],[772 827],[772 852],[771 853],[771 879],[770 880],[770 906],[769 907],[769 933],[768 934],[768 960],[767 961],[767 986],[766 987],[766 1013],[765 1014],[765 1040],[764 1041],[764 1053],[785 1053],[786 1054],[786 1076],[790 1076],[791 1075],[799 1075],[799 1073],[798 1072],[798 1066],[797 1065],[797 1060],[796 1059],[796 1054],[795 1053],[795 1048],[794 1047],[794 1041],[793 1040],[793 1035],[792 1034],[792 1029],[791 1028],[791 1023],[790 1022],[790 1019],[791 1018],[1539 1018],[1540 1019],[1540 1075],[1539 1076],[891 1076],[1540 1076],[1540 953],[1539 952],[1539 858],[1540 857],[1540 812],[1539 811],[1539 740],[1540 739],[1540 441]

open : plan 1-room 8 : closet : [737, 2765] : contour_details : [ 614 2729],[ 615 2728],[ 650 2728],[ 651 2729],[ 654 2729],[ 655 2730],[ 657 2730],[ 658 2731],[ 659 2731],[ 660 2732],[ 660 2734],[ 661 2735],[ 673 2735],[ 674 2736],[ 677 2736],[ 678 2737],[ 680 2737],[ 681 2738],[ 682 2738],[ 683 2739],[ 683 2741],[ 684 2742],[ 696 2742],[ 697 2743],[ 700 2743],[ 701 2744],[ 703 2744],[ 704 2745],[ 705 2745],[ 706 2746],[ 706 2748],[ 707 2749],[ 719 2749],[ 720 2750],[ 723 2750],[ 724 2751],[ 726 2751],[ 727 2752],[ 728 2752],[ 729 2753],[ 729 2755],[ 730 2756],[ 742 2756],[ 743 2757],[ 746 2757],[ 747 2758],[ 749 2758],[ 750 2759],[ 751 2759],[ 752 2760],[ 752 2762],[ 753 2763],[ 765 2763],[ 766 2764],[ 769 2764],[ 770 2765],[ 772 2765],[ 773 2766],[ 774 2766],[ 775 2767],[ 775 2768],[ 774 2769],[ 742 2769],[ 741 2770],[ 699 2770],[ 698 2771],[ 643 2771],[ 642 2772],[ 570 2772],[ 569 2771],[ 569 2730],[ 570 2729]

open : plan 1-room 9 : bedroom 3 : [697, 2487] : contour_details : [ 569 2309],[ 570 2308],[ 894 2308],[ 895 2309],[ 895 2720],[ 894 2721],[ 643 2721],[ 642 2722],[ 642 2726],[ 641 2727],[ 615 2727],[ 614 2728],[ 570 2728],[ 569 2727]

open : plan 2-room 10 : bathroom : [1364, 2410] : contour_details : [1195 2285],[1196 2284],[1520 2284],[1521 2285],[1521 2462],[1520 2463],[1196 2463],[1195 2462]

open : plan 2-room 11 : bedroom 2 : [1187, 2587] : contour_details : [ 905 1998],[ 906 1997],[ 999 1997],[1000 1998],[1000 2366],[1001 2367],[1192 2367],[1193 2368],[1193 2462],[1192 2463],[1184 2463],[1183 2464],[1183 2472],[1184 2473],[1520 2473],[1521 2474],[1521 2799],[1520 2800],[1031 2800],[1030 2799],[1030 2473],[1031 2472],[1087 2472],[1088 2471],[1088 2463],[1087 2462],[ 906 2462],[ 905 2461]

open : plan 2-room 12 : toilet : [833, 1938] : contour_details : [ 687 1906],[ 688 1905],[ 999 1905],[1000 1906],[1000 1994],[ 999 1995],[ 688 1995],[ 687 1994]

open : plan 3-room 13 : entry : [917, 1796] : contour_details : [1012 1721],[1013 1720],[1791 1720],[1792 1721],[1779 1734],[1779 1735],[1751 1763],[1751 1764],[1723 1792],[1723 1793],[1696 1820],[1696 1821],[1668 1849],[1668 1850],[1640 1878],[1640 1879],[1612 1907],[1612 1908],[1585 1935],[1585 1936],[1579 1942],[1578 1941],[1578 1938],[1577 1937],[1013 1937],[1012 1936],[1012 1890],[1011 1889],[ 906 1889],[ 905 1888],[ 905 1885],[ 904 1884],[ 689 1884],[ 688 1883],[ 688 1730],[ 689 1729],[1011 1729],[1012 1728]

open : plan 3-room 14 : dining : [1483, 1702] : contour_details : [1785 1407],[1786 1406],[1797 1406],[1798 1407],[1798 1715],[1795 1718],[ 906 1718],[ 905 1717],[ 905 1474],[ 906 1473],[ 917 1473],[ 918 1472],[ 930 1472],[ 931 1471],[ 943 1471],[ 944 1470],[ 956 1470],[ 957 1469],[ 969 1469],[ 970 1468],[ 983 1468],[ 984 1467],[ 996 1467],[ 997 1466],[1009 1466],[1010 1465],[1022 1465],[1023 1464],[1035 1464],[1036 1463],[1048 1463],[1049 1462],[1062 1462],[1063 1461],[1075 1461],[1076 1460],[1088 1460],[1089 1459],[1101 1459],[1102 1458],[1114 1458],[1115 1457],[1127 1457],[1128 1456],[1140 1456],[1141 1455],[1154 1455],[1155 1454],[1167 1454],[1168 1453],[1180 1453],[1181 1452],[1193 1452],[1194 1451],[1206 1451],[1207 1450],[1219 1450],[1220 1449],[1233 1449],[1234 1448],[1246 1448],[1247 1447],[1259 1447],[1260 1446],[1272 1446],[1273 1445],[1285 1445],[1286 1444],[1298 1444],[1299 1443],[1312 1443],[1313 1442],[1325 1442],[1326 1441],[1338 1441],[1339 1440],[1351 1440],[1352 1439],[1364 1439],[1365 1438],[1377 1438],[1378 1437],[1391 1437],[1392 1436],[1404 1436],[1405 1435],[1417 1435],[1418 1434],[1430 1434],[1431 1433],[1443 1433],[1444 1432],[1456 1432],[1457 1431],[1470 1431],[1471 1430],[1483 1430],[1484 1429],[1496 1429],[1497 1428],[1509 1428],[1510 1427],[1522 1427],[1523 1426],[1535 1426],[1536 1425],[1549 1425],[1550 1424],[1562 1424],[1563 1423],[1575 1423],[1576 1422],[1588 1422],[1589 1421],[1601 1421],[1602 1420],[1614 1420],[1615 1419],[1627 1419],[1628 1418],[1641 1418],[1642 1417],[1654 1417],[1655 1416],[1667 1416],[1668 1415],[1680 1415],[1681 1414],[1693 1414],[1694 1413],[1706 1413],[1707 1412],[1720 1412],[1721 1411],[1733 1411],[1734 1410],[1746 1410],[1747 1409],[1759 1409],[1760 1408],[1772 1408],[1773 1407]

open : plan 3-room 15 : kitchen : [792, 1507] : contour_details : [ 569 1310],[ 570 1309],[ 902 1309],[ 903 1310],[ 903 1717],[ 902 1718],[ 570 1718],[ 569 1717]

open : plan 3-room 16 : living : [1275, 1318] : contour_details : [ 905 1122],[ 906 1121],[1797 1121],[1798 1122],[1798 1404],[1797 1405],[1786 1405],[1785 1406],[1773 1406],[1772 1407],[1760 1407],[1759 1408],[1747 1408],[1746 1409],[1734 1409],[1733 1410],[1720 1410],[1719 1411],[1707 1411],[1706 1412],[1694 1412],[1693 1413],[1681 1413],[1680 1414],[1668 1414],[1667 1415],[1655 1415],[1654 1416],[1641 1416],[1640 1417],[1628 1417],[1627 1418],[1615 1418],[1614 1419],[1602 1419],[1601 1420],[1589 1420],[1588 1421],[1576 1421],[1575 1422],[1563 1422],[1562 1423],[1549 1423],[1548 1424],[1536 1424],[1535 1425],[1523 1425],[1522 1426],[1510 1426],[1509 1427],[1497 1427],[1496 1428],[1484 1428],[1483 1429],[1470 1429],[1469 1430],[1457 1430],[1456 1431],[1444 1431],[1443 1432],[1431 1432],[1430 1433],[1418 1433],[1417 1434],[1405 1434],[1404 1435],[1391 1435],[1390 1436],[1378 1436],[1377 1437],[1365 1437],[1364 1438],[1352 1438],[1351 1439],[1339 1439],[1338 1440],[1326 1440],[1325 1441],[1312 1441],[1311 1442],[1299 1442],[1298 1443],[1286 1443],[1285 1444],[1273 1444],[1272 1445],[1260 1445],[1259 1446],[1247 1446],[1246 1447],[1233 1447],[1232 1448],[1220 1448],[1219 1449],[1207 1449],[1206 1450],[1194 1450],[1193 1451],[1181 1451],[1180 1452],[1168 1452],[1167 1453],[1154 1453],[1153 1454],[1141 1454],[1140 1455],[1128 1455],[1127 1456],[1115 1456],[1114 1457],[1102 1457],[1101 1458],[1089 1458],[1088 1459],[1076 1459],[1075 1460],[1062 1460],[1061 1461],[1049 1461],[1048 1462],[1036 1462],[1035 1463],[1023 1463],[1022 1464],[1010 1464],[1009 1465],[ 997 1465],[ 996 1466],[ 983 1466],[ 982 1467],[ 970 1467],[ 969 1468],[ 957 1468],[ 956 1469],[ 944 1469],[ 943 1470],[ 931 1470],[ 930 1471],[ 918 1471],[ 917 1472],[ 906 1472],[ 905 1471]

