Door : [1019,1050],[1118,1050],[1118,1059],[1019,1059]
Door : [1019,1262],[1118,1262],[1118,1288],[1019,1288]
Door : [1372,1901],[1472,1901],[1472,1908],[1372,1908]
Door : [1515,2237],[1608,2237],[1608,2245],[1515,2245]
Door : [1472,1694],[1480,1694],[1480,1795],[1472,1795]
Door : [905,1812],[948,1812],[948,1920],[905,1920]
Door : [1455,2297],[1498,2297],[1498,2392],[1455,2392]
Door : [1471,1588],[1479,1588],[1479,1689],[1471,1689]
Door : [1516,2259],[1608,2280],[1608,2238],[1500,2257]
