Total No of Rooms: 7
single : room 1 : bedroom 2 : [2082,2231] : contour_details : [1877 2027],[1876 2028],[1876 2480],[2027 2480],[2028 2479],[2323 2479],[2323 2028],[1974 2028],[1973 2027]

single : room 2 : kitchen : [1143,2196] : contour_details : [1239 2027],[1238 2028],[990 2028],[990 2286],[989 2287],[989 2386],[990 2387],[990 2479],[1207 2479],[1208 2480],[1235 2480],[1236 2479],[1335 2479],[1336 2480],[1425 2480],[1425 2028],[1336 2028],[1335 2027]

single : room 3 : closet : [1450,1877] : contour_details : [1363 1845],[1363 1917],[1529 1917],[1529 1845]

single : room 4 : bedroom 3 : [2124,1772] : contour_details : [1905 1620],[1905 1819],[1906 1820],[1906 1826],[1905 1827],[1905 1913],[1982 1913],[1983 1914],[1983 1920],[1982 1921],[1982 2020],[2323 2020],[2323 1903],[2322 1902],[2322 1736],[2323 1735],[2323 1620]

single : room 5 : bathroom : [1712,1729] : contour_details : [1700 1619],[1699 1620],[1640 1620],[1640 1666],[1639 1667],[1633 1667],[1632 1666],[1632 1620],[1539 1620],[1539 1718],[1610 1718],[1611 1719],[1611 1725],[1610 1726],[1539 1726],[1539 1837],[1540 1838],[1540 1843],[1539 1844],[1539 1913],[1649 1913],[1650 1912],[1749 1912],[1750 1913],[1897 1913],[1897 1827],[1815 1827],[1814 1826],[1814 1820],[1815 1819],[1897 1819],[1897 1620],[1768 1620],[1767 1619]

single : room 6 : garage : [563,1151] : contour_details : [353 893],[353 894],[352 895],[293 895],[293 1223],[292 1224],[292 1293],[293 1294],[293 1395],[292 1396],[292 1488],[293 1489],[293 1529],[1071 1529],[1072 1528],[1170 1528],[1170 895],[1118 895],[1117 894],[1117 893],[837 893],[836 894],[634 894],[633 893]

open : plan 1-room 7 : bedroom 1 : [1666, 2237] : contour_details : [1434 2029],[1435 2028],[1708 2028],[1709 2029],[1866 2029],[1867 2030],[1867 2478],[1866 2479],[1435 2479],[1434 2478]

open : plan 1-room 8 : living : [661, 2225] : contour_details : [ 311 2000],[ 312 1999],[ 980 1999],[ 981 2000],[ 981 2478],[ 980 2479],[ 312 2479],[ 311 2478]

open : plan 1-room 9 : corridor : [1537, 1972] : contour_details : [1355 1923],[1356 1922],[1971 1922],[1972 1923],[1972 2019],[1971 2020],[1709 2020],[1708 2021],[1708 2026],[1707 2027],[1612 2027],[1611 2026],[1611 2021],[1610 2020],[1354 2020],[1353 2019],[1353 1988],[1354 1987],[1354 1955],[1355 1954]

open : plan 1-room 10 : entry : [1243, 1895] : contour_details : [1347 1738],[1432 1738],[1433 1739],[1433 1836],[1432 1837],[1355 1837],[1354 1838],[1354 1954],[1353 1955],[1353 1987],[1352 1988],[1352 2019],[1351 2020],[ 984 2020],[ 983 2019],[ 983 1845],[ 984 1844],[1179 1844],[1180 1843],[1180 1838],[1183 1835],[1184 1835],[1185 1834],[1186 1834],[1188 1832],[1189 1832],[1190 1831],[1191 1831],[1192 1830],[1193 1830],[1195 1828],[1196 1828],[1197 1827],[1198 1827],[1200 1825],[1201 1825],[1202 1824],[1203 1824],[1205 1822],[1206 1822],[1207 1821],[1208 1821],[1210 1819],[1211 1819],[1212 1818],[1213 1818],[1214 1817],[1215 1817],[1217 1815],[1218 1815],[1219 1814],[1220 1814],[1222 1812],[1223 1812],[1224 1811],[1225 1811],[1227 1809],[1228 1809],[1229 1808],[1230 1808],[1232 1806],[1233 1806],[1234 1805],[1235 1805],[1237 1803],[1238 1803],[1239 1802],[1240 1802],[1241 1801],[1242 1801],[1244 1799],[1245 1799],[1246 1798],[1247 1798],[1249 1796],[1250 1796],[1251 1795],[1252 1795],[1254 1793],[1255 1793],[1256 1792],[1257 1792],[1259 1790],[1260 1790],[1261 1789],[1262 1789],[1263 1788],[1264 1788],[1266 1786],[1267 1786],[1268 1785],[1269 1785],[1271 1783],[1272 1783],[1273 1782],[1274 1782],[1276 1780],[1277 1780],[1278 1779],[1279 1779],[1281 1777],[1282 1777],[1283 1776],[1284 1776],[1286 1774],[1287 1774],[1288 1773],[1289 1773],[1290 1772],[1291 1772],[1293 1770],[1294 1770],[1295 1769],[1296 1769],[1298 1767],[1299 1767],[1300 1766],[1301 1766],[1303 1764],[1304 1764],[1305 1763],[1306 1763],[1308 1761],[1309 1761],[1310 1760],[1311 1760],[1312 1759],[1313 1759],[1315 1757],[1316 1757],[1317 1756],[1318 1756],[1320 1754],[1321 1754],[1322 1753],[1323 1753],[1325 1751],[1326 1751],[1327 1750],[1328 1750],[1330 1748],[1331 1748],[1332 1747],[1333 1747],[1335 1745],[1336 1745],[1337 1744],[1338 1744],[1339 1743],[1340 1743],[1342 1741],[1343 1741],[1344 1740],[1345 1740]

open : plan 1-room 11 : toilet : [1476, 1747] : contour_details : [1434 1622],[1435 1621],[1529 1621],[1530 1622],[1530 1836],[1529 1837],[1435 1837],[1434 1836]

open : plan 1-room 12 : salon : [660, 1771] : contour_details : [ 311 1562],[ 312 1561],[ 768 1561],[ 769 1562],[ 769 1595],[ 770 1596],[ 842 1596],[ 843 1595],[ 843 1562],[ 844 1561],[ 980 1561],[ 981 1562],[ 981 1996],[ 980 1997],[ 312 1997],[ 311 1996]

open : plan 1-room 13 : cellar : [1081, 1664] : contour_details : [ 991 1561],[ 992 1560],[1168 1560],[1169 1561],[1169 1613],[1170 1614],[1171 1614],[1172 1615],[1173 1615],[1174 1616],[1176 1616],[1177 1617],[1178 1617],[1179 1618],[1180 1618],[1181 1619],[1182 1619],[1183 1620],[1184 1620],[1185 1621],[1186 1621],[1187 1622],[1188 1622],[1189 1623],[1191 1623],[1192 1624],[1193 1624],[1194 1625],[1195 1625],[1196 1626],[1197 1626],[1198 1627],[1199 1627],[1200 1628],[1201 1628],[1202 1629],[1203 1629],[1204 1630],[1206 1630],[1207 1631],[1208 1631],[1209 1632],[1210 1632],[1211 1633],[1212 1633],[1213 1634],[1214 1634],[1215 1635],[1216 1635],[1217 1636],[1218 1636],[1219 1637],[1221 1637],[1222 1638],[1223 1638],[1224 1639],[1225 1639],[1226 1640],[1227 1640],[1228 1641],[1229 1641],[1230 1642],[1231 1642],[1232 1643],[1233 1643],[1234 1644],[1236 1644],[1237 1645],[1238 1645],[1239 1646],[1240 1646],[1241 1647],[1242 1647],[1243 1648],[1244 1648],[1245 1649],[1246 1649],[1247 1650],[1248 1650],[1249 1651],[1251 1651],[1252 1652],[1253 1652],[1254 1653],[1255 1653],[1256 1654],[1257 1654],[1258 1655],[1259 1655],[1260 1656],[1261 1656],[1262 1657],[1263 1657],[1264 1658],[1266 1658],[1267 1659],[1268 1659],[1269 1660],[1270 1660],[1271 1661],[1272 1661],[1273 1662],[1274 1662],[1275 1663],[1276 1663],[1277 1664],[1278 1664],[1279 1665],[1281 1665],[1282 1666],[1283 1666],[1284 1667],[1285 1667],[1286 1668],[1287 1668],[1288 1669],[1289 1669],[1290 1670],[1291 1670],[1292 1671],[1293 1671],[1294 1672],[1296 1672],[1297 1673],[1298 1673],[1299 1674],[1300 1674],[1301 1675],[1302 1675],[1303 1676],[1304 1676],[1305 1677],[1306 1677],[1307 1678],[1308 1678],[1309 1679],[1311 1679],[1312 1680],[1313 1680],[1314 1681],[1315 1681],[1316 1682],[1317 1682],[1318 1683],[1319 1683],[1320 1684],[1321 1684],[1322 1685],[1323 1685],[1324 1686],[1326 1686],[1327 1687],[1328 1687],[1329 1688],[1330 1688],[1331 1689],[1332 1689],[1333 1690],[1334 1690],[1335 1691],[1336 1691],[1337 1692],[1338 1692],[1339 1693],[1341 1693],[1342 1694],[1343 1694],[1344 1695],[1345 1695],[1347 1697],[1347 1736],[1344 1739],[1343 1739],[1342 1740],[1341 1740],[1339 1742],[1338 1742],[1337 1743],[1336 1743],[1335 1744],[1334 1744],[1332 1746],[1331 1746],[1330 1747],[1329 1747],[1327 1749],[1326 1749],[1325 1750],[1324 1750],[1322 1752],[1321 1752],[1320 1753],[1319 1753],[1317 1755],[1316 1755],[1315 1756],[1314 1756],[1312 1758],[1311 1758],[1310 1759],[1309 1759],[1308 1760],[1307 1760],[1305 1762],[1304 1762],[1303 1763],[1302 1763],[1300 1765],[1299 1765],[1298 1766],[1297 1766],[1295 1768],[1294 1768],[1293 1769],[1292 1769],[1290 1771],[1289 1771],[1288 1772],[1287 1772],[1286 1773],[1285 1773],[1283 1775],[1282 1775],[1281 1776],[1280 1776],[1278 1778],[1277 1778],[1276 1779],[1275 1779],[1273 1781],[1272 1781],[1271 1782],[1270 1782],[1268 1784],[1267 1784],[1266 1785],[1265 1785],[1264 1786],[1263 1786],[1261 1788],[1260 1788],[1259 1789],[1258 1789],[1256 1791],[1255 1791],[1254 1792],[1253 1792],[1251 1794],[1250 1794],[1249 1795],[1248 1795],[1246 1797],[1245 1797],[1244 1798],[1243 1798],[1241 1800],[1240 1800],[1239 1801],[1238 1801],[1237 1802],[1236 1802],[1234 1804],[1233 1804],[1232 1805],[1231 1805],[1229 1807],[1228 1807],[1227 1808],[1226 1808],[1224 1810],[1223 1810],[1222 1811],[1221 1811],[1219 1813],[1218 1813],[1217 1814],[1216 1814],[1215 1815],[1214 1815],[1212 1817],[1211 1817],[1210 1818],[1209 1818],[1207 1820],[1206 1820],[1205 1821],[1204 1821],[1202 1823],[1201 1823],[1200 1824],[1199 1824],[1197 1826],[1196 1826],[1195 1827],[1194 1827],[1192 1829],[1191 1829],[1190 1830],[1189 1830],[1188 1831],[1187 1831],[1185 1833],[1184 1833],[1183 1834],[1182 1834],[1180 1836],[ 992 1836],[ 991 1835]

