Wall : [1693,1077],[1961,1077],[1961,1119],[1693,1119]
Wall : [642,1077],[1595,1077],[1595,1119],[642,1119]
Wall : [920,2459],[962,2459],[962,2843],[920,2843]
Wall : [1918,1278],[1960,1278],[1960,1432],[1918,1432]
Wall : [1918,2187],[1960,2187],[1960,2453],[1918,2453]
Wall : [1918,1573],[1960,1573],[1960,1763],[1918,1763]
Wall : [920,2193],[962,2193],[962,2389],[920,2389]
Wall : [919,1939],[962,1939],[962,2052],[919,2052]
Wall : [1799,1720],[1961,1720],[1961,1764],[1799,1764]
Wall : [1918,2595],[1960,2595],[1960,2843],[1918,2843]
Wall : [1918,1077],[1960,1077],[1960,1208],[1918,1208]
Wall : [1918,1963],[1960,1963],[1960,2093],[1918,2093]
Wall : [1309,2802],[1961,2802],[1961,2843],[1309,2843]
Wall : [919,2802],[1170,2802],[1170,2843],[919,2843]
Wall : [642,1343],[685,1343],[685,1715],[642,1715]
Wall : [919,416],[1288,416],[1288,440],[919,440]
Wall : [920,416],[944,416],[944,741],[920,741]
Wall : [1356,416],[1725,416],[1725,440],[1356,440]
Wall : [920,953],[944,953],[944,1119],[920,1119]
Wall : [1700,1054],[1724,1054],[1724,1119],[1700,1119]
Wall : [1700,416],[1724,416],[1724,464],[1700,464]
Wall : [1581,1886],[1843,1886],[1843,1904],[1581,1904]
Wall : [643,1077],[684,1077],[684,1131],[643,1131]
Wall : [907,1952],[963,1952],[963,1979],[907,1979]
Wall : [1800,1951],[1842,1951],[1842,2005],[1800,2005]
Wall : [1799,1962],[1961,1962],[1961,2014],[1799,2014]
Wall : [1800,1721],[1842,1721],[1842,1780],[1800,1780]
Wall : [1582,1077],[1588,1077],[1588,1308],[1582,1308]
Wall : [919,2465],[1300,2465],[1300,2471],[919,2471]
Wall : [1693,1302],[1961,1302],[1961,1308],[1693,1308]
Wall : [1581,2300],[1961,2300],[1961,2306],[1581,2306]
Wall : [1474,1721],[1961,1721],[1961,1728],[1474,1728]
Wall : [919,2276],[1300,2276],[1300,2282],[919,2282]
Wall : [907,1939],[1483,1939],[1483,1950],[907,1950]
Wall : [1581,1997],[1961,1997],[1961,2005],[1581,2005]
Wall : [1458,2713],[1464,2713],[1464,2843],[1458,2843]
Wall : [1582,2713],[1588,2713],[1588,2843],[1582,2843]
Wall : [1582,2182],[1589,2182],[1589,2365],[1582,2365]
Wall : [1292,2276],[1299,2276],[1299,2365],[1292,2365]
Wall : [1474,1892],[1482,1892],[1482,2365],[1474,2365]
Wall : [1582,1998],[1588,1998],[1588,2081],[1582,2081]
Wall : [1398,2359],[1483,2359],[1483,2365],[1398,2365]
Wall : [1398,2465],[1465,2465],[1465,2471],[1398,2471]
Wall : [1582,2465],[1589,2465],[1589,2613],[1582,2613]
Wall : [1457,2465],[1464,2465],[1464,2613],[1457,2613]
Wall : [1457,2542],[1589,2542],[1589,2548],[1457,2548]
Wall : [1464,2543],[1581,2543],[1581,2539],[1464,2539]
Wall : [1587,2727],[1840,2727],[1840,2723],[1587,2723]
Wall : [1913,2802],[1916,2799],[1841,2723],[1838,2726]
