porch : [1713,519] : [1646,507,1780,532] : confidence,dict,original_word,difference : [92,DM,None,0]
bedroom 1 : [1101,741] : [1011,729,1192,753] : confidence,dict,original_word,difference : [93,DM,None,0]
toilet : [1662,735] : [1636,723,1688,748] : confidence,dict,original_word,difference : [90,DM,None,0]
entry : [1805,766] : [1767,755,1844,778] : confidence,dict,original_word,difference : [88,DM,None,0]
corridor : [1376,947] : [1333,935,1420,960] : confidence,dict,original_word,difference : [91,DM,None,0]
kitchen : [2250,1049] : [2187,1037,2314,1062] : confidence,dict,original_word,difference : [86,DM,None,0]
car port : [2654,1069] : [2600,1039,2708,1100] : confidence,dict,original_word,difference : [88,DM,None,0]
bedroom 2 : [1068,1143] : [975,1131,1161,1155] : confidence,dict,original_word,difference : [90,DM,None,0]
bedroom 3 : [1422,1154] : [1330,1142,1515,1167] : confidence,dict,original_word,difference : [75,DM,None,0]
living : [1872,1131] : [1820,1119,1925,1144] : confidence,dict,original_word,difference : [79,DM,None,0]
dining : [1848,1408] : [1783,1396,1913,1421] : confidence,dict,original_word,difference : [91,DM,None,0]
No Text Detected
