Wall : [1601,1615],[1643,1615],[1643,2023],[1601,2023]
Wall : [2321,1615],[2553,1615],[2553,1657],[2321,1657]
Wall : [657,1137],[699,1137],[699,1669],[657,1669]
Wall : [2392,929],[2553,929],[2553,973],[2392,973]
Wall : [656,523],[1059,523],[1059,564],[656,564]
Wall : [2186,1615],[2228,1615],[2228,2023],[2186,2023]
Wall : [2061,523],[2553,523],[2553,564],[2061,564]
Wall : [2511,1480],[2552,1480],[2552,1657],[2511,1657]
Wall : [2511,795],[2552,795],[2552,972],[2511,972]
Wall : [2511,523],[2552,523],[2552,700],[2511,700]
Wall : [657,523],[698,523],[698,842],[657,842]
Wall : [2392,1201],[2553,1201],[2553,1242],[2392,1242]
Wall : [657,936],[699,936],[699,1043],[657,1043]
Wall : [2511,1208],[2552,1208],[2552,1385],[2511,1385]
Wall : [1884,523],[1992,523],[1992,564],[1884,564]
Wall : [2393,930],[2434,930],[2434,1037],[2393,1037]
Wall : [2393,1143],[2434,1143],[2434,1249],[2393,1249]
Wall : [1133,328],[1170,328],[1170,1025],[1133,1025]
Wall : [1772,328],[1807,328],[1807,818],[1772,818]
Wall : [1146,1001],[1797,1001],[1797,1025],[1146,1025]
Wall : [1707,328],[1797,328],[1797,353],[1707,353]
Wall : [1146,328],[1236,328],[1236,353],[1146,353]
Wall : [1773,930],[1797,930],[1797,1025],[1773,1025]
Wall : [1597,1617],[1644,1617],[1644,1657],[1597,1657]
Wall : [1128,522],[1171,522],[1171,546],[1128,546]
Wall : [1772,522],[1815,522],[1815,546],[1772,546]
Wall : [2511,1658],[2518,1658],[2518,2023],[2511,2023]
Wall : [2462,1658],[2468,1658],[2468,2023],[2462,2023]
Wall : [656,1232],[1035,1232],[1035,1237],[656,1237]
Wall : [1028,523],[1034,523],[1034,839],[1028,839]
Wall : [2174,523],[2180,523],[2180,818],[2174,818]
Wall : [1978,1242],[2553,1242],[2553,1249],[1978,1249]
Wall : [656,1019],[1035,1019],[1035,1025],[656,1025]
Wall : [1979,523],[1985,523],[1985,818],[1979,818]
Wall : [2096,1007],[2435,1007],[2435,1013],[2096,1013]
Wall : [1146,1018],[1986,1018],[1986,1025],[1146,1025]
Wall : [1601,1415],[1607,1415],[1607,2023],[1601,2023]
Wall : [1028,1137],[1035,1137],[1035,1237],[1028,1237]
Wall : [2096,812],[2181,812],[2181,818],[2096,818]
Wall : [1979,1167],[1985,1167],[1985,1249],[1979,1249]
Wall : [1028,942],[1034,942],[1034,1034],[1028,1034]
Wall : [2097,930],[2103,930],[2103,1013],[2097,1013]
Wall : [1978,930],[1985,930],[1985,1025],[1978,1025]
Wall : [1524,1415],[1608,1415],[1608,1421],[1524,1421]
Wall : [1525,1197],[1532,1197],[1532,1421],[1525,1421]
Wall : [1146,1137],[1154,1137],[1154,1615],[1146,1615]
Wall : [1264,1137],[1526,1137],[1526,1143],[1264,1143]
Wall : [697,944],[1028,944],[1028,940],[697,940]
Wall : [2102,932],[2392,932],[2392,928],[2102,928]
Wall : [1984,1169],[2392,1169],[2392,1165],[1984,1165]
