bedroom : [2252,925] : [2223,913,2281,938] : confidence,dict,original_word,difference : [78,SG,ce,1]
bathroom : [1065,1073] : [1019,1061,1112,1086] : confidence,dict,original_word,difference : [88,DM,None,0]
office : [1411,1080] : [1346,1068,1477,1092] : confidence,dict,original_word,difference : [90,DM,None,0]
porch : [1684,1279] : [1617,1267,1752,1292] : confidence,dict,original_word,difference : [92,DM,None,0]
douche : [488,1339] : [420,1327,557,1352] : confidence,dict,original_word,difference : [89,DM,None,0]
corridor : [650,1392] : [615,1380,686,1405] : confidence,dict,original_word,difference : [93,DM,None,0]
dressing room : [935,1395] : [853,1383,1017,1408] : confidence,dict,original_word,difference : [90,DM,None,0]
closet : [1344,1433] : [1269,1421,1419,1446] : confidence,dict,original_word,difference : [86,DM,None,0]
toilet : [1510,1439] : [1483,1427,1538,1452] : confidence,dict,original_word,difference : [77,DM,None,0]
garage : [2189,1481] : [2122,1469,2257,1494] : confidence,dict,original_word,difference : [88,DM,None,0]
corridor : [1018,1581] : [905,1569,1131,1594] : confidence,dict,original_word,difference : [91,DM,None,0]
entry : [1499,1570] : [1460,1558,1538,1582] : confidence,dict,original_word,difference : [79,DM,None,0]
cellar : [1424,1734] : [1358,1722,1491,1747] : confidence,dict,original_word,difference : [84,DM,None,0]
kitchen : [1467,2006] : [1404,1994,1531,2019] : confidence,dict,original_word,difference : [86,DM,None,0]
salon : [2115,2213] : [2062,2201,2168,2226] : confidence,dict,original_word,difference : [66,DM,None,0]
living : [1549,2555] : [1496,2543,1602,2568] : confidence,dict,original_word,difference : [89,DM,None,0]
No Text Detected
