douche : [1241,1315] : [1173,1303,1310,1328] : confidence,dict,original_word,difference : [90,DM,None,0]
corridor : [1051,1457] : [1008,1445,1094,1470] : confidence,dict,original_word,difference : [94,DM,None,0]
cellar : [701,1510] : [635,1498,768,1523] : confidence,dict,original_word,difference : [88,DM,None,0]
toilet : [932,1557] : [905,1545,960,1570] : confidence,dict,original_word,difference : [93,DM,None,0]
bedroom 1 : [1287,1599] : [1196,1587,1378,1611] : confidence,dict,original_word,difference : [89,DM,None,0]
kitchen : [680,1776] : [616,1764,744,1789] : confidence,dict,original_word,difference : [86,DM,None,0]
entry : [1218,2007] : [1178,1995,1258,2019] : confidence,dict,original_word,difference : [94,DM,None,0]
living : [747,2278] : [694,2266,801,2291] : confidence,dict,original_word,difference : [85,DM,None,0]
dining : [1218,2461] : [1153,2449,1284,2474] : confidence,dict,original_word,difference : [91,DM,None,0]
No Text Detected
