Window : [1461,1437],[1562,1437],[1562,1479],[1461,1479]
Window : [799,823],[823,823],[823,895],[799,895]
Window : [865,2134],[1005,2134],[1005,2177],[865,2177]
Window : [1219,2134],[1312,2134],[1312,2177],[1219,2177]
Window : [1810,2394],[1950,2394],[1950,2436],[1810,2436]
Window : [799,1201],[841,1201],[841,1297],[799,1297]
Window : [1519,1237],[1562,1237],[1562,1308],[1519,1308]
Window : [1615,1573],[1684,1573],[1684,1615],[1615,1615]
Window : [2162,1868],[2205,1868],[2205,2011],[2162,2011]
Window : [1537,764],[1562,764],[1562,1049],[1537,1049]
Window : [1118,1579],[1517,1579],[1517,1615],[1118,1615]
Window : [499,2134],[639,2134],[639,2177],[499,2177]
Window : [379,1502],[422,1502],[422,1574],[379,1574]
Window : [694,1373],[763,1373],[763,1331],[694,1332]
Window : [1448,1578],[1477,1578],[1464,1480],[1462,1508]
Window : [1562,1399],[6174,-3232],[6117,-3175],[1542,1400]
Window : [2044,1595],[8170,7721],[8229,7780],[2043,1574]
