Window : [938,2048],[1079,2048],[1079,2090],[938,2090]
Window : [801,1038],[844,1038],[844,1181],[801,1181]
Window : [1970,1103],[2013,1103],[2013,1246],[1970,1246]
Window : [800,1316],[845,1316],[845,1399],[800,1399]
Window : [1458,2048],[1740,2048],[1740,2090],[1458,2090]
Window : [1970,1611],[2013,1611],[2013,1753],[1970,1753]
Window : [1376,987],[1516,980],[1516,939],[1376,939]
