Door : [1645,654],[1756,654],[1756,662],[1645,662]
Door : [1864,1428],[1963,1428],[1963,1436],[1864,1436]
Door : [825,1446],[918,1446],[918,1471],[825,1471]
Door : [1699,1428],[1810,1428],[1810,1435],[1699,1435]
Door : [2047,772],[2158,772],[2158,780],[2047,780]
Door : [2254,654],[2365,654],[2365,662],[2254,662]
Door : [2047,772],[2158,772],[2158,780],[2047,780]
Door : [1320,860],[1426,860],[1426,904],[1320,904]
Door : [2364,661],[2373,661],[2373,773],[2364,773]
Door : [1756,779],[1764,779],[1764,892],[1756,892]
Door : [1283,914],[1310,914],[1310,1016],[1283,1016]
Door : [1206,1021],[1236,1021],[1236,1135],[1206,1135]
Door : [1532,1021],[1539,1021],[1539,1134],[1532,1134]
Door : [977,1570],[1020,1570],[1020,1665],[977,1665]
Door : [977,1924],[1020,1924],[1020,2020],[977,2020]
Door : [1077,914],[1084,914],[1084,1016],[1077,1016]
Door : [1564,234],[1656,248],[1656,207],[1564,207]
Door : [1811,1724],[1852,1724],[1856,1630],[1811,1630]
Door : [2261,1239],[2353,1234],[2353,1193],[2261,1193]
