Total No of Rooms: 4
single : room 1 : closet : [1703,1224] : contour_details : [1661 1168],[1661 1218],[1662 1219],[1662 1269],[1734 1269],[1734 1168]

single : room 2 : bedroom 1 : [2108,952] : contour_details : [1892 831],[1892 1053],[1893 1054],[1893 1060],[1892 1061],[1789 1061],[1789 1159],[2285 1159],[2285 1131],[2284 1130],[2284 1036],[2285 1035],[2285 831]

single : room 3 : garage : [1205,786] : contour_details : [817 606],[817 679],[816 680],[816 961],[817 962],[817 1035],[1559 1035],[1560 1034],[1658 1034],[1658 606]

open : plan 1-room 4 : dining : [1545, 1601] : contour_details : [1349 1511],[1350 1510],[1352 1510],[1353 1511],[1358 1511],[1359 1512],[1363 1512],[1364 1513],[1368 1513],[1369 1514],[1373 1514],[1374 1515],[1378 1515],[1379 1516],[1384 1516],[1385 1517],[1389 1517],[1390 1518],[1394 1518],[1395 1519],[1399 1519],[1400 1520],[1404 1520],[1405 1521],[1410 1521],[1411 1522],[1415 1522],[1416 1523],[1420 1523],[1421 1524],[1425 1524],[1426 1525],[1430 1525],[1431 1526],[1435 1526],[1436 1527],[1441 1527],[1442 1528],[1446 1528],[1447 1529],[1451 1529],[1452 1530],[1456 1530],[1457 1531],[1461 1531],[1462 1532],[1467 1532],[1468 1533],[1472 1533],[1473 1534],[1477 1534],[1478 1535],[1482 1535],[1483 1536],[1487 1536],[1488 1537],[1492 1537],[1493 1538],[1498 1538],[1499 1539],[1503 1539],[1504 1540],[1508 1540],[1509 1541],[1513 1541],[1514 1542],[1518 1542],[1519 1543],[1524 1543],[1525 1544],[1529 1544],[1530 1545],[1534 1545],[1535 1546],[1539 1546],[1540 1547],[1544 1547],[1545 1548],[1550 1548],[1551 1549],[1555 1549],[1556 1550],[1560 1550],[1561 1551],[1565 1551],[1566 1552],[1570 1552],[1571 1553],[1575 1553],[1576 1554],[1581 1554],[1582 1555],[1586 1555],[1587 1556],[1591 1556],[1592 1557],[1596 1557],[1597 1558],[1601 1558],[1602 1559],[1607 1559],[1608 1560],[1612 1560],[1613 1561],[1617 1561],[1618 1562],[1622 1562],[1623 1563],[1627 1563],[1628 1564],[1632 1564],[1633 1565],[1638 1565],[1639 1566],[1643 1566],[1644 1567],[1648 1567],[1649 1568],[1653 1568],[1654 1569],[1658 1569],[1659 1570],[1664 1570],[1665 1571],[1669 1571],[1670 1572],[1674 1572],[1675 1573],[1679 1573],[1680 1574],[1684 1574],[1685 1575],[1690 1575],[1691 1576],[1695 1576],[1696 1577],[1700 1577],[1701 1578],[1705 1578],[1706 1579],[1710 1579],[1711 1580],[1715 1580],[1716 1581],[1721 1581],[1722 1582],[1726 1582],[1727 1583],[1731 1583],[1732 1584],[1736 1584],[1737 1585],[1741 1585],[1742 1586],[1747 1586],[1748 1587],[1752 1587],[1753 1588],[1757 1588],[1758 1589],[1762 1589],[1763 1590],[1767 1590],[1768 1591],[1772 1591],[1773 1592],[1778 1592],[1779 1593],[1783 1593],[1784 1594],[1788 1594],[1789 1595],[1793 1595],[1794 1596],[1798 1596],[1799 1597],[1804 1597],[1805 1598],[1809 1598],[1810 1599],[1814 1599],[1815 1600],[1819 1600],[1820 1601],[1823 1601],[1824 1602],[1824 1729],[1823 1730],[1350 1730],[1349 1729]

open : plan 1-room 5 : living : [2101, 1596] : contour_details : [2154 1477],[2155 1476],[2283 1476],[2284 1477],[2284 1729],[2283 1730],[1827 1730],[1826 1729],[1826 1601],[1825 1600],[1821 1600],[1820 1599],[1815 1599],[1814 1598],[1810 1598],[1809 1597],[1805 1597],[1804 1596],[1800 1596],[1799 1595],[1795 1595],[1794 1594],[1789 1594],[1788 1593],[1784 1593],[1783 1592],[1779 1592],[1778 1591],[1774 1591],[1773 1590],[1769 1590],[1768 1589],[1766 1589],[1765 1588],[1765 1480],[1766 1479],[1894 1479],[1895 1478],[2024 1478],[2025 1477]

open : plan 1-room 6 : entry : [1508, 1383] : contour_details : [1349 1282],[1350 1281],[1585 1281],[1586 1282],[1609 1282],[1610 1283],[1633 1283],[1634 1284],[1656 1284],[1657 1285],[1657 1297],[1658 1298],[1762 1298],[1763 1299],[1763 1442],[1764 1443],[1764 1478],[1763 1479],[1764 1480],[1764 1588],[1763 1589],[1762 1588],[1758 1588],[1757 1587],[1753 1587],[1752 1586],[1748 1586],[1747 1585],[1743 1585],[1742 1584],[1738 1584],[1737 1583],[1732 1583],[1731 1582],[1727 1582],[1726 1581],[1722 1581],[1721 1580],[1717 1580],[1716 1579],[1712 1579],[1711 1578],[1706 1578],[1705 1577],[1701 1577],[1700 1576],[1696 1576],[1695 1575],[1691 1575],[1690 1574],[1686 1574],[1685 1573],[1681 1573],[1680 1572],[1675 1572],[1674 1571],[1670 1571],[1669 1570],[1665 1570],[1664 1569],[1660 1569],[1659 1568],[1655 1568],[1654 1567],[1649 1567],[1648 1566],[1644 1566],[1643 1565],[1639 1565],[1638 1564],[1634 1564],[1633 1563],[1629 1563],[1628 1562],[1623 1562],[1622 1561],[1618 1561],[1617 1560],[1613 1560],[1612 1559],[1608 1559],[1607 1558],[1603 1558],[1602 1557],[1598 1557],[1597 1556],[1592 1556],[1591 1555],[1587 1555],[1586 1554],[1582 1554],[1581 1553],[1577 1553],[1576 1552],[1572 1552],[1571 1551],[1566 1551],[1565 1550],[1561 1550],[1560 1549],[1556 1549],[1555 1548],[1551 1548],[1550 1547],[1546 1547],[1545 1546],[1541 1546],[1540 1545],[1535 1545],[1534 1544],[1530 1544],[1529 1543],[1525 1543],[1524 1542],[1520 1542],[1519 1541],[1515 1541],[1514 1540],[1509 1540],[1508 1539],[1504 1539],[1503 1538],[1499 1538],[1498 1537],[1494 1537],[1493 1536],[1489 1536],[1488 1535],[1483 1535],[1482 1534],[1478 1534],[1477 1533],[1473 1533],[1472 1532],[1468 1532],[1467 1531],[1463 1531],[1462 1530],[1458 1530],[1457 1529],[1452 1529],[1451 1528],[1447 1528],[1446 1527],[1442 1527],[1441 1526],[1437 1526],[1436 1525],[1432 1525],[1431 1524],[1426 1524],[1425 1523],[1421 1523],[1420 1522],[1416 1522],[1415 1521],[1411 1521],[1410 1520],[1406 1520],[1405 1519],[1401 1519],[1400 1518],[1395 1518],[1394 1517],[1390 1517],[1389 1516],[1385 1516],[1384 1515],[1380 1515],[1379 1514],[1375 1514],[1374 1513],[1369 1513],[1368 1512],[1364 1512],[1363 1511],[1359 1511],[1358 1510],[1354 1510],[1353 1509],[1350 1509],[1349 1508]

open : plan 1-room 7 : kitchen : [2098, 1360] : contour_details : [1764 1169],[1765 1168],[2283 1168],[2284 1169],[2284 1474],[2283 1475],[2155 1475],[2154 1476],[2025 1476],[2024 1477],[1895 1477],[1894 1478],[1766 1478],[1765 1477],[1765 1443],[1764 1442]

open : plan 1-room 8 : corridor : [1639, 1100] : contour_details : [1563 1062],[1564 1061],[1738 1061],[1739 1062],[1779 1062],[1780 1063],[1780 1157],[1779 1158],[1658 1158],[1657 1159],[1657 1282],[1656 1283],[1635 1283],[1634 1282],[1611 1282],[1610 1281],[1587 1281],[1586 1280],[1564 1280],[1563 1279]

open : plan 1-room 9 : toilet : [1523, 1200] : contour_details : [1530 1062],[1531 1061],[1560 1061],[1561 1062],[1561 1269],[1560 1270],[1350 1270],[1349 1269],[1349 1063],[1350 1062],[1434 1062],[1435 1063],[1435 1065],[1436 1066],[1436 1073],[1437 1074],[1437 1081],[1438 1082],[1438 1090],[1439 1091],[1439 1098],[1440 1099],[1440 1110],[1439 1111],[1393 1111],[1392 1112],[1392 1183],[1393 1184],[1423 1184],[1424 1183],[1425 1183],[1426 1182],[1427 1182],[1428 1181],[1429 1181],[1430 1180],[1431 1180],[1432 1179],[1433 1179],[1434 1178],[1435 1178],[1436 1177],[1437 1177],[1438 1176],[1439 1176],[1440 1175],[1441 1175],[1442 1174],[1443 1174],[1444 1173],[1445 1173],[1446 1172],[1447 1172],[1448 1171],[1448 1160],[1449 1159],[1529 1159],[1530 1158]

open : plan 1-room 10 : douche : [1762, 888] : contour_details : [1698  833],[1699  832],[1881  832],[1882  833],[1882 1051],[1881 1052],[1781 1052],[1780 1053],[1780 1060],[1779 1061],[1740 1061],[1739 1060],[1699 1060],[1698 1059]

