Wall : [2702,366],[2744,366],[2744,1234],[2702,1234]
Wall : [977,1447],[1021,1447],[1021,1571],[977,1571]
Wall : [978,1665],[1020,1665],[1020,1925],[978,1925]
Wall : [1963,1340],[2006,1340],[2006,1471],[1963,1471]
Wall : [1349,2101],[1463,2101],[1463,2144],[1349,2144]
Wall : [1426,861],[1534,861],[1534,904],[1426,904]
Wall : [2152,216],[2745,216],[2745,258],[2152,258]
Wall : [1420,1866],[1505,1866],[1505,1909],[1420,1909]
Wall : [1786,1865],[1853,1865],[1853,1908],[1786,1908]
Wall : [1656,207],[2078,207],[2078,248],[1656,248]
Wall : [2353,1193],[2585,1193],[2585,1234],[2353,1234]
Wall : [1492,207],[1533,207],[1533,762],[1492,762]
Wall : [1811,1724],[1852,1724],[1852,1908],[1811,1908]
Wall : [1421,2049],[1462,2049],[1462,2144],[1421,2144]
Wall : [1423,1866],[1462,1866],[1462,1955],[1423,1955]
Wall : [1284,720],[1321,720],[1321,915],[1284,915]
Wall : [470,720],[494,720],[494,1471],[470,1471]
Wall : [1208,1140],[1232,1140],[1232,1471],[1208,1471]
Wall : [469,1447],[826,1447],[826,1471],[469,1471]
Wall : [1213,720],[1310,720],[1310,745],[1213,745]
Wall : [469,720],[560,720],[560,745],[469,745]
Wall : [918,1447],[1233,1447],[1233,1471],[918,1471]
Wall : [1030,720],[1145,720],[1145,744],[1030,744]
Wall : [1492,833],[1516,833],[1516,904],[1492,904]
Wall : [2678,1210],[2745,1210],[2745,1232],[2678,1232]
Wall : [2684,1192],[2745,1192],[2745,1209],[2684,1209]
Wall : [1207,1135],[1310,1135],[1310,1164],[1207,1164]
Wall : [1963,1193],[2261,1193],[2261,1239],[1963,1239]
Wall : [1811,1429],[1856,1429],[1856,1630],[1811,1630]
Wall : [2146,207],[2745,207],[2745,227],[2146,227]
Wall : [1491,207],[1564,207],[1564,234],[1491,234]
Wall : [1984,1193],[2006,1193],[2006,1246],[1984,1246]
Wall : [1810,1447],[1865,1447],[1865,1469],[1810,1469]
Wall : [2720,207],[2744,207],[2744,272],[2720,272]
Wall : [977,2104],[1068,2104],[1068,2144],[977,2144]
Wall : [978,2020],[1038,2020],[1038,2144],[978,2144]
Wall : [2365,655],[2745,655],[2745,662],[2365,662]
Wall : [918,1464],[1310,1464],[1310,1471],[918,1471]
Wall : [1517,838],[1533,838],[1533,904],[1517,904]
Wall : [2711,207],[2717,207],[2717,266],[2711,266]
Wall : [2248,207],[2254,207],[2254,662],[2248,662]
Wall : [2702,207],[2710,207],[2710,272],[2702,272]
Wall : [1946,207],[1953,207],[1953,549],[1946,549]
Wall : [2366,773],[2372,773],[2372,1234],[2366,1234]
Wall : [1491,241],[1564,241],[1564,246],[1491,246]
Wall : [1491,654],[1646,654],[1646,663],[1491,663]
Wall : [1491,235],[1558,235],[1558,249],[1491,249]
Wall : [1078,720],[1084,720],[1084,915],[1078,915]
Wall : [1426,896],[1646,896],[1646,904],[1426,904]
Wall : [1964,892],[1970,892],[1970,1246],[1964,1246]
Wall : [1810,1429],[1865,1429],[1865,1436],[1810,1436]
Wall : [2146,243],[2745,243],[2745,248],[2146,248]
Wall : [2176,655],[2255,655],[2255,662],[2176,662]
Wall : [1833,543],[1954,543],[1954,549],[1833,549]
Wall : [1945,425],[2066,425],[2066,431],[1945,431]
Wall : [2158,773],[2373,773],[2373,780],[2158,780]
Wall : [1639,655],[1646,655],[1646,738],[1639,738]
Wall : [1639,850],[1646,850],[1646,904],[1639,904]
Wall : [1963,892],[2048,892],[2048,898],[1963,898]
Wall : [1532,1016],[1971,1016],[1971,1022],[1532,1022]
Wall : [1833,543],[1840,543],[1840,662],[1833,662]
Wall : [2059,425],[2066,425],[2066,662],[2059,662]
Wall : [2041,773],[2048,773],[2048,898],[2041,898]
Wall : [1757,892],[1764,892],[1764,1022],[1757,1022]
Wall : [1756,655],[1942,655],[1942,662],[1756,662]
Wall : [1756,773],[2048,773],[2048,780],[1756,780]
Wall : [1532,1429],[1700,1429],[1700,1435],[1532,1435]
Wall : [1533,1134],[1539,1134],[1539,1435],[1533,1435]
Wall : [1077,1016],[1310,1016],[1310,1022],[1077,1022]
