garage : [970,1181] : [885,1166,1055,1197] : confidence,dict,original_word,difference : [91,DM,None,0]
closet : [1275,1276] : [1255,1261,1296,1291] : confidence,dict,original_word,difference : [93,SG,pi,1]
entry : [1254,1441] : [1205,1426,1303,1456] : confidence,dict,original_word,difference : [97,DM,None,0]
cellar : [955,1588] : [872,1573,1038,1604] : confidence,dict,original_word,difference : [95,DM,None,0]
kitchen : [1600,1585] : [1520,1570,1681,1600] : confidence,dict,original_word,difference : [94,DM,None,0]
toilet : [993,1712] : [960,1697,1026,1727] : confidence,dict,original_word,difference : [94,DM,None,0]
terrace : [1788,1902] : [1677,1863,1900,1941] : confidence,dict,original_word,difference : [93,DM,None,0]
dining : [957,2043] : [876,2028,1038,2059] : confidence,dict,original_word,difference : [91,DM,None,0]
living : [1383,2025] : [1317,2010,1450,2041] : confidence,dict,original_word,difference : [78,DM,None,0]
No Text Detected
