Total No of Rooms: 6
single : room 1 : porch : [1654,2023] : contour_details : [1665 1952],[1665 1953],[1664 1954],[1564 1954],[1564 1963],[1563 1964],[1563 2068],[1564 2069],[1564 2144],[1744 2144],[1744 2125],[1745 2124],[1745 2116],[1746 2115],[1746 2107],[1747 2106],[1747 2098],[1748 2097],[1748 2089],[1749 2088],[1749 2081],[1750 2080],[1750 2072],[1751 2071],[1751 2063],[1752 2062],[1752 2054],[1753 2053],[1753 2045],[1754 2044],[1754 2036],[1755 2035],[1755 2027],[1756 2026],[1756 2018],[1757 2017],[1757 2009],[1758 2008],[1758 2001],[1759 2000],[1759 1992],[1760 1991],[1760 1983],[1761 1982],[1761 1974],[1762 1973],[1762 1953],[1756 1953],[1755 1952]

single : room 2 : 0 : 0 : contour_details : [1683 1580],[1682 1581],[1605 1581],[1605 1909],[1662 1909],[1663 1908],[1755 1908],[1756 1909],[1963 1909],[1964 1908],[2069 1908],[2069 1581],[1780 1581],[1779 1580]

single : room 3 : office : [1080,1527] : contour_details : [873 1416],[873 1696],[874 1697],[874 1731],[1259 1731],[1259 1584],[1260 1583],[1260 1416]

single : room 4 : closet : [1636,1410] : contour_details : [1528 1375],[1528 1410],[1529 1411],[1529 1446],[1737 1446],[1737 1375]

single : room 5 : 0 : 0 : contour_details : [1293 576],[1292 577],[601 577],[601 880],[600 881],[600 1068],[601 1069],[601 1372],[1260 1372],[1260 1233],[1259 1232],[1259 1190],[1260 1189],[1416 1189],[1417 1190],[1417 1230],[1420 1230],[1421 1231],[1421 1232],[1422 1233],[1422 1234],[1423 1235],[1423 1236],[1424 1237],[1424 1238],[1425 1239],[1425 1240],[1426 1241],[1426 1242],[1427 1243],[1427 1244],[1428 1245],[1428 1246],[1429 1247],[1429 1248],[1430 1249],[1430 1250],[1431 1251],[1431 1252],[1432 1253],[1432 1255],[1433 1256],[1433 1257],[1434 1258],[1434 1259],[1435 1260],[1435 1261],[1436 1262],[1436 1263],[1437 1264],[1437 1265],[1438 1266],[1438 1267],[1439 1268],[1439 1269],[1440 1270],[1440 1271],[1441 1272],[1441 1273],[1442 1274],[1442 1276],[1443 1277],[1443 1278],[1444 1279],[1444 1280],[1445 1281],[1445 1282],[1446 1283],[1446 1284],[1447 1285],[1447 1286],[1448 1287],[1448 1288],[1449 1289],[1449 1290],[1450 1291],[1450 1292],[1451 1293],[1451 1294],[1452 1295],[1452 1296],[1454 1298],[1456 1298],[1457 1299],[1459 1299],[1460 1300],[1462 1300],[1463 1301],[1465 1301],[1466 1302],[1467 1302],[1468 1303],[1470 1303],[1471 1304],[1473 1304],[1474 1305],[1476 1305],[1477 1306],[1479 1306],[1480 1307],[1482 1307],[1483 1308],[1485 1308],[1486 1309],[1488 1309],[1489 1310],[1491 1310],[1492 1311],[1493 1311],[1494 1312],[1496 1312],[1497 1313],[1499 1313],[1500 1314],[1502 1314],[1503 1315],[1505 1315],[1506 1316],[1506 1314],[1507 1313],[1507 1307],[1508 1306],[1508 1300],[1509 1299],[1509 1292],[1510 1291],[1510 1285],[1511 1284],[1511 1278],[1512 1277],[1512 1271],[1513 1270],[1513 1264],[1514 1263],[1514 1257],[1515 1256],[1515 1249],[1516 1248],[1516 1242],[1517 1241],[1517 1235],[1518 1234],[1518 1232],[1514 1232],[1513 1231],[1513 1189],[1514 1188],[1538 1188],[1538 1119],[1537 1118],[1537 693],[1538 692],[1538 577],[1361 577],[1360 576]

open : plan 1-room 6 : living : [1083, 2311] : contour_details : [ 875 2233],[ 876 2232],[ 878 2232],[ 879 2233],[ 884 2233],[ 885 2234],[ 889 2234],[ 890 2235],[ 894 2235],[ 895 2236],[ 899 2236],[ 900 2237],[ 904 2237],[ 905 2238],[ 909 2238],[ 910 2239],[ 914 2239],[ 915 2240],[ 919 2240],[ 920 2241],[ 924 2241],[ 925 2242],[ 930 2242],[ 931 2243],[ 935 2243],[ 936 2244],[ 940 2244],[ 941 2245],[ 945 2245],[ 946 2246],[ 950 2246],[ 951 2247],[ 955 2247],[ 956 2248],[ 960 2248],[ 961 2249],[ 965 2249],[ 966 2250],[ 970 2250],[ 971 2251],[ 976 2251],[ 977 2252],[ 981 2252],[ 982 2253],[ 986 2253],[ 987 2254],[ 991 2254],[ 992 2255],[ 996 2255],[ 997 2256],[1001 2256],[1002 2257],[1006 2257],[1007 2258],[1011 2258],[1012 2259],[1016 2259],[1017 2260],[1022 2260],[1023 2261],[1027 2261],[1028 2262],[1032 2262],[1033 2263],[1037 2263],[1038 2264],[1042 2264],[1043 2265],[1047 2265],[1048 2266],[1052 2266],[1053 2267],[1057 2267],[1058 2268],[1062 2268],[1063 2269],[1068 2269],[1069 2270],[1073 2270],[1074 2271],[1078 2271],[1079 2272],[1083 2272],[1084 2273],[1088 2273],[1089 2274],[1093 2274],[1094 2275],[1098 2275],[1099 2276],[1103 2276],[1104 2277],[1108 2277],[1109 2278],[1114 2278],[1115 2279],[1119 2279],[1120 2280],[1124 2280],[1125 2281],[1129 2281],[1130 2282],[1134 2282],[1135 2283],[1139 2283],[1140 2284],[1144 2284],[1145 2285],[1149 2285],[1150 2286],[1154 2286],[1155 2287],[1160 2287],[1161 2288],[1165 2288],[1166 2289],[1170 2289],[1171 2290],[1175 2290],[1176 2291],[1180 2291],[1181 2292],[1185 2292],[1186 2293],[1190 2293],[1191 2294],[1195 2294],[1196 2295],[1201 2295],[1202 2296],[1206 2296],[1207 2297],[1211 2297],[1212 2298],[1216 2298],[1217 2299],[1221 2299],[1222 2300],[1226 2300],[1227 2301],[1231 2301],[1232 2302],[1236 2302],[1237 2303],[1241 2303],[1242 2304],[1247 2304],[1248 2305],[1252 2305],[1253 2306],[1257 2306],[1258 2307],[1262 2307],[1263 2308],[1267 2308],[1268 2309],[1272 2309],[1273 2310],[1277 2310],[1278 2311],[1281 2311],[1282 2312],[1282 2538],[1281 2539],[ 876 2539],[ 875 2538]

open : plan 1-room 7 : kitchen : [1480, 2307] : contour_details : [1257 2191],[1258 2190],[1742 2190],[1743 2191],[1743 2538],[1742 2539],[1285 2539],[1284 2538],[1284 2311],[1283 2310],[1279 2310],[1278 2309],[1273 2309],[1272 2308],[1268 2308],[1267 2307],[1263 2307],[1262 2306],[1258 2306],[1257 2305]

open : plan 1-room 8 : dining : [925, 1994] : contour_details : [ 380 1742],[ 381 1741],[1257 1741],[1258 1742],[1258 2038],[1257 2039],[1257 2171],[1256 2172],[1256 2189],[1255 2190],[1256 2191],[1256 2304],[1255 2305],[1253 2305],[1252 2304],[1248 2304],[1247 2303],[1243 2303],[1242 2302],[1238 2302],[1237 2301],[1233 2301],[1232 2300],[1227 2300],[1226 2299],[1222 2299],[1221 2298],[1217 2298],[1216 2297],[1212 2297],[1211 2296],[1207 2296],[1206 2295],[1202 2295],[1201 2294],[1197 2294],[1196 2293],[1192 2293],[1191 2292],[1187 2292],[1186 2291],[1181 2291],[1180 2290],[1176 2290],[1175 2289],[1171 2289],[1170 2288],[1166 2288],[1165 2287],[1161 2287],[1160 2286],[1156 2286],[1155 2285],[1151 2285],[1150 2284],[1146 2284],[1145 2283],[1141 2283],[1140 2282],[1135 2282],[1134 2281],[1130 2281],[1129 2280],[1125 2280],[1124 2279],[1120 2279],[1119 2278],[1115 2278],[1114 2277],[1110 2277],[1109 2276],[1105 2276],[1104 2275],[1100 2275],[1099 2274],[1095 2274],[1094 2273],[1089 2273],[1088 2272],[1084 2272],[1083 2271],[1079 2271],[1078 2270],[1074 2270],[1073 2269],[1069 2269],[1068 2268],[1064 2268],[1063 2267],[1059 2267],[1058 2266],[1054 2266],[1053 2265],[1049 2265],[1048 2264],[1043 2264],[1042 2263],[1038 2263],[1037 2262],[1033 2262],[1032 2261],[1028 2261],[1027 2260],[1023 2260],[1022 2259],[1018 2259],[1017 2258],[1013 2258],[1012 2257],[1008 2257],[1007 2256],[1003 2256],[1002 2255],[ 997 2255],[ 996 2254],[ 992 2254],[ 991 2253],[ 987 2253],[ 986 2252],[ 982 2252],[ 981 2251],[ 977 2251],[ 976 2250],[ 972 2250],[ 971 2249],[ 967 2249],[ 966 2248],[ 962 2248],[ 961 2247],[ 956 2247],[ 955 2246],[ 951 2246],[ 950 2245],[ 946 2245],[ 945 2244],[ 941 2244],[ 940 2243],[ 936 2243],[ 935 2242],[ 931 2242],[ 930 2241],[ 926 2241],[ 925 2240],[ 921 2240],[ 920 2239],[ 916 2239],[ 915 2238],[ 910 2238],[ 909 2237],[ 905 2237],[ 904 2236],[ 900 2236],[ 899 2235],[ 895 2235],[ 894 2234],[ 890 2234],[ 889 2233],[ 885 2233],[ 884 2232],[ 880 2232],[ 879 2231],[ 876 2231],[ 875 2230],[ 875 2203],[ 874 2202],[ 393 2202],[ 392 2201],[ 392 2168],[ 391 2167],[ 391 2132],[ 390 2131],[ 390 2097],[ 389 2096],[ 389 2061],[ 388 2060],[ 388 2025],[ 387 2024],[ 387 1990],[ 386 1989],[ 386 1954],[ 385 1953],[ 385 1919],[ 384 1918],[ 384 1883],[ 383 1882],[ 383 1847],[ 382 1846],[ 382 1812],[ 381 1811],[ 381 1776],[ 380 1775]

open : plan 1-room 9 : entry : [1397, 1818] : contour_details : [1403 1417],[1404 1416],[1406 1416],[1407 1417],[1407 1448],[1408 1449],[1517 1449],[1518 1450],[1518 1581],[1519 1582],[1595 1582],[1596 1583],[1596 1907],[1595 1908],[1519 1908],[1518 1909],[1518 2188],[1517 2189],[1258 2189],[1257 2188],[1257 2172],[1258 2171],[1258 2039],[1259 2038],[1259 1907],[1260 1906],[1285 1906],[1286 1905],[1286 1588],[1287 1587],[1304 1587],[1305 1586],[1305 1474],[1306 1473],[1402 1473],[1403 1472]

open : plan 1-room 10 : douche : [1921, 1507] : contour_details : [1907 1377],[1908 1376],[2067 1376],[2068 1377],[2068 1570],[2067 1571],[1521 1571],[1520 1570],[1520 1476],[1521 1475],[1906 1475],[1907 1474]

open : plan 1-room 11 : toilet : [1800, 1446] : contour_details : [1748 1376],[1749 1375],[1896 1375],[1897 1376],[1897 1472],[1896 1473],[1521 1473],[1520 1472],[1520 1452],[1521 1451],[1747 1451],[1748 1450]

