closet : [1216,841] : [1189,826,1243,856] : confidence,dict,original_word,difference : [94,DM,None,0]
bedroom : [919,908] : [875,893,964,924] : confidence,dict,original_word,difference : [92,DM,None,0]
bedroom : [1413,902] : [1371,887,1455,918] : confidence,dict,original_word,difference : [81,DM,None,0]
closet : [1210,1071] : [1183,1056,1237,1086] : confidence,dict,original_word,difference : [95,DM,None,0]
corridor : [1318,1180] : [1260,1165,1376,1195] : confidence,dict,original_word,difference : [93,DM,None,0]
bedroom : [866,1239] : [822,1224,911,1254] : confidence,dict,original_word,difference : [82,DM,None,0]
bathroom : [1518,1272] : [1460,1257,1576,1288] : confidence,dict,original_word,difference : [84,DM,None,0]
toilet : [1118,1321] : [1080,1306,1157,1337] : confidence,dict,original_word,difference : [78,DM,None,0]
kitchen : [1663,1604] : [1584,1589,1743,1620] : confidence,dict,original_word,difference : [81,DM,None,0]
salon : [1271,1744] : [1204,1729,1338,1760] : confidence,dict,original_word,difference : [83,DM,None,0]
living : [1656,1998] : [1589,1983,1723,2013] : confidence,dict,original_word,difference : [85,DM,None,0]
No Text Detected
