Wall : [546,1448],[927,1448],[927,1490],[546,1490]
Wall : [1687,2163],[1729,2163],[1729,2364],[1687,2364]
Wall : [547,1938],[589,1938],[589,2364],[547,2364]
Wall : [1308,1448],[1730,1448],[1730,1490],[1308,1490]
Wall : [824,2322],[1275,2322],[1275,2364],[824,2364]
Wall : [1687,1737],[1729,1737],[1729,2021],[1687,2021]
Wall : [546,2321],[684,2321],[684,2364],[546,2364]
Wall : [1687,1448],[1729,1448],[1729,1596],[1687,1596]
Wall : [547,740],[589,740],[589,1797],[547,1797]
Wall : [1131,1447],[1240,1447],[1240,1490],[1131,1490]
Wall : [1033,1295],[1263,1295],[1263,1330],[1033,1330]
Wall : [546,740],[1263,740],[1263,764],[546,764]
Wall : [825,1295],[849,1295],[849,1490],[825,1490]
Wall : [1238,740],[1262,740],[1262,817],[1238,817]
Wall : [1150,1791],[1175,1791],[1175,1874],[1150,1874]
Wall : [1238,1242],[1262,1242],[1262,1318],[1238,1318]
Wall : [824,1295],[934,1295],[934,1319],[824,1319]
Wall : [1135,1436],[1174,1436],[1174,1490],[1135,1490]
Wall : [1414,2308],[1730,2308],[1730,2364],[1414,2364]
Wall : [919,1448],[926,1448],[926,1780],[919,1780]
Wall : [1242,1486],[1306,1486],[1306,1491],[1242,1491]
Wall : [1339,1448],[1345,1448],[1345,1690],[1339,1690]
Wall : [1149,1867],[1730,1867],[1730,1874],[1149,1874]
Wall : [546,1689],[705,1689],[705,1697],[546,1697]
Wall : [1132,1436],[1138,1436],[1138,1696],[1132,1696]
Wall : [803,1690],[927,1690],[927,1696],[803,1696]
Wall : [1339,1790],[1345,1790],[1345,1874],[1339,1874]
Wall : [1131,1690],[1240,1690],[1240,1696],[1131,1696]
Wall : [919,1880],[926,1880],[926,1974],[919,1974]
Wall : [922,1447],[926,1447],[926,1318],[922,1318]
Wall : [1173,1793],[1338,1793],[1338,1789],[1173,1789]
