contour_details : [2120 1680],[2120 1779],[2679 1779],[2679 1680]
contour_details : [1885 1125],[1885 1224],[1984 1224],[1984 1125]
contour_details : [1650 1120],[1650 1219],[1820 1219],[1821 1220],[1815 1226],[1815 1227],[1810 1232],[1810 1233],[1804 1239],[1804 1240],[1799 1245],[1799 1246],[1793 1252],[1793 1253],[1788 1258],[1788 1259],[1782 1265],[1782 1266],[1777 1271],[1777 1272],[1771 1278],[1771 1279],[1766 1284],[1766 1285],[1760 1291],[1760 1292],[1754 1298],[1754 1299],[1749 1304],[1749 1305],[1747 1307],[1747 1308],[1748 1308],[1753 1313],[1754 1313],[1759 1318],[1760 1318],[1765 1323],[1766 1323],[1771 1328],[1772 1328],[1777 1333],[1778 1333],[1783 1338],[1784 1338],[1790 1344],[1791 1344],[1796 1349],[1797 1349],[1802 1354],[1803 1354],[1808 1359],[1809 1359],[1814 1364],[1815 1364],[1820 1369],[1821 1369],[1823 1371],[1824 1371],[1824 1370],[1829 1365],[1829 1364],[1834 1359],[1835 1360],[1835 1619],[1934 1619],[1934 1255],[1877 1255],[1873 1251],[1872 1251],[1867 1246],[1866 1246],[1860 1240],[1859 1240],[1854 1235],[1853 1235],[1848 1230],[1847 1230],[1842 1225],[1841 1225],[1836 1220],[1837 1219],[1869 1219],[1869 1120]
contour_details : [2015 1030],[2015 1129],[2199 1129],[2199 1030]
