contour_details : [530 1945],[530 1946],[529 1947],[529 1952],[528 1953],[528 1958],[527 1959],[527 1964],[526 1965],[526 1970],[525 1971],[525 1974],[524 1975],[510 1975],[510 2419],[600 2419],[601 2418],[729 2418],[730 2417],[858 2417],[859 2416],[987 2416],[988 2415],[1116 2415],[1117 2414],[1154 2414],[1154 2400],[1155 2399],[1155 2353],[1156 2352],[1156 2306],[1157 2305],[1157 2259],[1158 2258],[1158 2212],[1159 2211],[1159 2165],[1160 2164],[1160 2118],[1161 2117],[1161 2071],[1162 2070],[1162 2024],[1163 2023],[1163 1977],[1164 1976],[1164 1945] : sejour : [696,2180]
contour_details : [1180 1940],[1180 2419],[1654 2419],[1654 2350],[1653 2349],[1653 2259],[1652 2258],[1652 2163],[1651 2162],[1651 2067],[1650 2066],[1650 1971],[1649 1970],[1649 1940] : repas : [1415,2180]
contour_details : [965 1855],[965 1919],[1169 1919],[1169 1911],[1168 1910],[1168 1897],[1167 1896],[1167 1884],[1166 1883],[1166 1871],[1165 1870],[1165 1857],[1164 1856],[1164 1855] : placard : [1054,1879]
contour_details : [1185 1555],[1185 1924],[1649 1924],[1649 1555] : cuisine : [1396,1690]
contour_details : [965 1300],[965 1394],[976 1394],[977 1395],[1017 1395],[1018 1396],[1058 1396],[1059 1397],[1099 1397],[1100 1398],[1140 1398],[1141 1399],[1169 1399],[1169 1300] : wc : [998,1330]
contour_details : [855 1195],[855 1929],[949 1929],[949 1840],[950 1839],[1164 1839],[1164 1735],[1070 1735],[1069 1734],[1069 1634],[1060 1625],[1060 1744],[1059 1745],[955 1745],[954 1744],[954 1195] : degt : [926,1791]
contour_details : [760 1195],[760 1239],[759 1240],[750 1240],[750 1494],[759 1494],[764 1499],[834 1499],[834 1481],[835 1480],[835 1420],[836 1419],[836 1359],[837 1358],[837 1298],[838 1297],[838 1237],[839 1236],[839 1195] : pl : [797,1364]
