25
1
0
2
unknown
17
207
16
226
149.465715132
0.0
0.0163522012579
0.0201257861635
0.0415094339623
0.022641509434
0.0176100628931
0.0163522012579
0.0163522012579
0.0163522012579
0.0150943396226
0.0704402515723
0.0540880503145
0.106918238994
0.0754716981132
0.0654088050314
0.0591194968553
0.0377358490566
0.0352201257862
0.0352201257862
0.0327044025157
0.0339622641509
0.0452830188679
0.0578616352201
0.0666666666667
0.040251572327
0.0868151982721
0.0
0.0654088050314
0.0603773584906
0.0427672955975
0.0503144654088
0.0377358490566
0.0276729559748
0.0238993710692
0.0188679245283
0.0176100628931
0.0163522012579
0.0150943396226
0.0125786163522
0.0150943396226
0.0163522012579
0.0163522012579
0.022641509434
0.0213836477987
0.0238993710692
0.0188679245283
0.0163522012579
0.0150943396226
0.0125786163522
0.011320754717
0.0100628930818
0
