25
4
1.73205080757
5
unknown
44
104
96
153
43.8292140016
0.0
0.0
0.0
0.0
0.0
0.0
0.0
0.043956043956
0.032967032967
0.032967032967
0.021978021978
0.164835164835
0.10989010989
0.10989010989
0.0879120879121
0.0549450549451
0.0604395604396
0.032967032967
0.0384615384615
0.0384615384615
0.0384615384615
0.0384615384615
0.043956043956
0.032967032967
0.010989010989
0.126580468394
0.0274725274725
0.032967032967
0.021978021978
0.032967032967
0.043956043956
0.043956043956
0.0604395604396
0.0604395604396
0.0659340659341
0.0549450549451
0.0384615384615
0.032967032967
0.0274725274725
0.010989010989
0.010989010989
0.010989010989
0.00549450549451
0.00549450549451
0.00549450549451
0.010989010989
0.00549450549451
0.00549450549451
0.0164835164835
0.010989010989
0.010989010989
2
unknown
38
191
23
152
111.220501707
0.0
0.0245098039216
0.016339869281
0.016339869281
0.0130718954248
0.016339869281
0.0130718954248
0.0424836601307
0.078431372549
0.0506535947712
0.0408496732026
0.0375816993464
0.0343137254902
0.0767973856209
0.0996732026144
0.0571895424837
0.0637254901961
0.047385620915
0.031045751634
0.0326797385621
0.111111111111
0.0506535947712
0.0147058823529
0.0147058823529
0.0147058823529
0.0642497829112
0.116013071895
0.0866013071895
0.0833333333333
0.0457516339869
0.0294117647059
0.0196078431373
0.016339869281
0.0114379084967
0.0114379084967
0.00980392156863
0.00980392156863
0.00653594771242
0.00653594771242
0.00653594771242
0.00980392156863
0.00980392156863
0.0114379084967
0.0114379084967
0.016339869281
0.0196078431373
0.0277777777778
0.0196078431373
0.0261437908497
0.0375816993464
0.0179738562092
3
unknown
68
169
58
111
58.8217646794
0.0
0.0
0.0
0.0
0.0316901408451
0.0281690140845
0.0211267605634
0.056338028169
0.0598591549296
0.0422535211268
0.0352112676056
0.0387323943662
0.0352112676056
0.0387323943662
0.0352112676056
0.0422535211268
0.0316901408451
0.0316901408451
0.0880281690141
0.0985915492958
0.056338028169
0.0457746478873
0.0422535211268
0.080985915493
0.056338028169
0.123109585505
0.0528169014085
0.0845070422535
0.102112676056
0.0704225352113
0.0457746478873
0.0316901408451
0.0246478873239
0.0211267605634
0.0140845070423
0.0176056338028
0.0105633802817
0.0140845070423
0.0105633802817
0.00704225352113
0.00704225352113
0.0105633802817
0.0105633802817
0.0105633802817
0.0176056338028
0.0176056338028
0.0281690140845
0.0387323943662
0.0211267605634
0.0211267605634
0.0176056338028
4
rectangle
38
192
91
367
165.529453572
0.0
0.0
0.0
0.0
0.0
0.0
0.0
0.0
0.0
0.0
0.0388235294118
0.0423529411765
0.108235294118
0.0964705882353
0.0741176470588
0.0694117647059
0.0647058823529
0.0517647058824
0.0729411764706
0.103529411765
0.0752941176471
0.0647058823529
0.0682352941176
0.04
0.0282352941176
0.17019585884
0.02
0.0235294117647
0.0235294117647
0.0258823529412
0.0294117647059
0.0352941176471
0.0458823529412
0.0611764705882
0.0741176470588
0.0470588235294
0.0435294117647
0.0411764705882
0.0305882352941
0.0823529411765
0.0129411764706
0.0141176470588
0.0164705882353
0.0188235294118
0.0223529411765
0.0211764705882
0.0164705882353
0.0141176470588
0.0141176470588
0.0117647058824
0.0117647058824
6
2
5
1
1
0.232649735162
touch
3
5
1
1
0.495803183792
touch
4
5
1
1
0.0459606664699
floor
2
3
1
1
0.469238082303
touch
2
4
1
1
0.197553057337
floor
3
4
1
1
0.0926994177779
floor
