25
2
3.87298334621
2
unknown
26
43
21
36
13.3416640641
0.0
0.0
0.0
0.0
0.0
0.183673469388
0.0816326530612
0.0816326530612
0.0
0.0816326530612
0.0408163265306
0.0408163265306
0.0408163265306
0.0408163265306
0.0408163265306
0.0408163265306
0.0408163265306
0.0816326530612
0.0
0.0816326530612
0.0
0.0612244897959
0.0
0.0408163265306
0.0
0.108943559447
0.0204081632653
0.163265306122
0.142857142857
0.0408163265306
0.0204081632653
0.0204081632653
0.0408163265306
0.0204081632653
0.0
0.0408163265306
0.0
0.0
0.0408163265306
0.0
0.0
0.0204081632653
0.0
0.0204081632653
0.0
0.0
0.0204081632653
0.0
0.0204081632653
0.0
0.0
3
unknown
26
94
21
89
46.872166581
0.0
0.0
0.0
0.0103092783505
0.020618556701
0.0137457044674
0.0137457044674
0.00687285223368
0.0137457044674
0.0137457044674
0.0137457044674
0.0137457044674
0.0137457044674
0.0137457044674
0.0824742268041
0.103092783505
0.0687285223368
0.0618556701031
0.0618556701031
0.0515463917526
0.109965635739
0.151202749141
0.0687285223368
0.0446735395189
0.0412371134021
0.14455472198
0.0240549828179
0.0274914089347
0.0274914089347
0.0274914089347
0.0343642611684
0.0378006872852
0.0412371134021
0.0412371134021
0.0378006872852
0.0343642611684
0.0274914089347
0.0309278350515
0.0515463917526
0.0446735395189
0.0446735395189
0.0274914089347
0.00343642611684
0.00343642611684
0.00343642611684
0.0
0.00343642611684
0.00343642611684
0.0274914089347
0.0446735395189
0.0446735395189
1
2
3
1
1
0.0197874080131
floor
