<?xml version="1.0" encoding="UTF-8" standalone="no"?>
<!-- Created with Inkscape (http://www.inkscape.org/) -->

<svg
   xmlns:dc="http://purl.org/dc/elements/1.1/"
   xmlns:cc="http://creativecommons.org/ns#"
   xmlns:rdf="http://www.w3.org/1999/02/22-rdf-syntax-ns#"
   xmlns:svg="http://www.w3.org/2000/svg"
   xmlns="http://www.w3.org/2000/svg"
   xmlns:xlink="http://www.w3.org/1999/xlink"
   xmlns:sodipodi="http://sodipodi.sourceforge.net/DTD/sodipodi-0.dtd"
   xmlns:inkscape="http://www.inkscape.org/namespaces/inkscape"
   id="svg9277"
   version="1.1"
   inkscape:version="0.91 r13725"
   width="3000"
   height="4000"
   viewBox="0 0 3000 4000"
   sodipodi:docname="file_329_240.svg">
  <metadata
     id="metadata9283">
    <rdf:RDF>
      <cc:Work
         rdf:about="">
        <dc:format>image/svg+xml</dc:format>
        <dc:type
           rdf:resource="http://purl.org/dc/dcmitype/StillImage" />
        <dc:title />
      </cc:Work>
    </rdf:RDF>
  </metadata>
  <defs
     id="defs9281" />
  <sodipodi:namedview
     pagecolor="#ffffff"
     bordercolor="#666666"
     borderopacity="1"
     objecttolerance="10"
     gridtolerance="10"
     guidetolerance="10"
     inkscape:pageopacity="0"
     inkscape:pageshadow="2"
     inkscape:window-width="1920"
     inkscape:window-height="997"
     id="namedview9279"
     showgrid="false"
     inkscape:zoom="0.6675088"
     inkscape:cx="2935.6245"
     inkscape:cy="2570.1629"
     inkscape:window-x="-9"
     inkscape:window-y="-9"
     inkscape:window-maximized="1"
     inkscape:current-layer="svg9277" />
  <image
     sodipodi:absref="C:\Users\pierpaolo\Dropbox\Romani-15\GT_Files\..\Object Recognition New\file_329_240_bath.png"
     xlink:href="..\Object Recognition New\file_329_240_bath.png"
     y="0"
     x="0"
     id="image9285"
     preserveAspectRatio="none"
     height="4000"
     width="3000" />
  <rect
     style="fill:none;fill-opacity:1;stroke:#800000;stroke-width:2;stroke-linecap:round;stroke-linejoin:round;stroke-miterlimit:4;stroke-dasharray:none;stroke-opacity:1"
     id="rect9287"
     width="125"
     height="95.338982"
     x="1222.4576"
     y="690.67798"
     ry="3.2483399" />
  <rect
     style="fill:none;fill-opacity:1;stroke:#800000;stroke-width:2;stroke-linecap:round;stroke-linejoin:round;stroke-miterlimit:4;stroke-dasharray:none;stroke-opacity:1"
     id="rect9829"
     width="133.47458"
     height="91.101692"
     x="1745.7627"
     y="690.67798"
     ry="3.2483399" />
  <rect
     style="fill:none;fill-opacity:1;stroke:#800000;stroke-width:2;stroke-linecap:round;stroke-linejoin:round;stroke-miterlimit:4;stroke-dasharray:none;stroke-opacity:1"
     id="rect9831"
     width="137.71187"
     height="91.101692"
     x="1218.2203"
     y="3059.322"
     ry="3.2483399" />
  <rect
     style="fill:none;fill-opacity:1;stroke:#800000;stroke-width:2;stroke-linecap:round;stroke-linejoin:round;stroke-miterlimit:4;stroke-dasharray:none;stroke-opacity:1"
     id="rect9833"
     width="129.23729"
     height="86.86441"
     x="1747.8813"
     y="3063.5593"
     ry="3.2483399" />
  <rect
     style="fill:none;fill-opacity:1;stroke:#000040;stroke-width:2;stroke-linecap:round;stroke-linejoin:round;stroke-miterlimit:4;stroke-dasharray:none;stroke-opacity:1"
     id="rect9835"
     width="77.901596"
     height="83.894028"
     x="1899.6005"
     y="985.80756"
     ry="3.2483399" />
  <rect
     style="fill:none;fill-opacity:1;stroke:#000040;stroke-width:2;stroke-linecap:round;stroke-linejoin:round;stroke-miterlimit:4;stroke-dasharray:none;stroke-opacity:1"
     id="rect9837"
     width="50.935658"
     height="86.890244"
     x="1989.4869"
     y="991.79999"
     ry="3.2483399" />
  <rect
     style="fill:none;fill-opacity:1;stroke:#000040;stroke-width:2;stroke-linecap:round;stroke-linejoin:round;stroke-miterlimit:4;stroke-dasharray:none;stroke-opacity:1"
     id="rect9839"
     width="74.90538"
     height="95.878883"
     x="2058.3999"
     y="985.80756"
     ry="3.2483399" />
  <rect
     style="fill:none;fill-opacity:1;stroke:#000040;stroke-width:2;stroke-linecap:round;stroke-linejoin:round;stroke-miterlimit:4;stroke-dasharray:none;stroke-opacity:1"
     id="rect9841"
     width="80.897812"
     height="77.901596"
     x="1120.5845"
     y="988.80377"
     ry="3.2483399" />
  <rect
     style="fill:none;fill-opacity:1;stroke:#000040;stroke-width:2;stroke-linecap:round;stroke-linejoin:round;stroke-miterlimit:4;stroke-dasharray:none;stroke-opacity:1"
     id="rect9843"
     width="56.928089"
     height="113.85618"
     x="1048.6753"
     y="967.83026"
     ry="3.2483399" />
  <rect
     style="fill:none;fill-opacity:1;stroke:#000040;stroke-width:2;stroke-linecap:round;stroke-linejoin:round;stroke-miterlimit:4;stroke-dasharray:none;stroke-opacity:1"
     id="rect9845"
     width="83.894028"
     height="95.878883"
     x="964.78131"
     y="985.80756"
     ry="3.2483399" />
  <rect
     style="fill:none;fill-opacity:1;stroke:#000040;stroke-width:2;stroke-linecap:round;stroke-linejoin:round;stroke-miterlimit:4;stroke-dasharray:none;stroke-opacity:1"
     id="rect9847"
     width="65.916733"
     height="89.886452"
     x="1911.5853"
     y="2771.5518"
     ry="3.2483399" />
  <rect
     style="fill:none;fill-opacity:1;stroke:#000040;stroke-width:2;stroke-linecap:round;stroke-linejoin:round;stroke-miterlimit:4;stroke-dasharray:none;stroke-opacity:1"
     id="rect9849"
     width="53.931873"
     height="89.886452"
     x="1986.4907"
     y="2771.5518"
     ry="3.2483399" />
  <rect
     style="fill:none;fill-opacity:1;stroke:#000040;stroke-width:2;stroke-linecap:round;stroke-linejoin:round;stroke-miterlimit:4;stroke-dasharray:none;stroke-opacity:1"
     id="rect9851"
     width="83.894035"
     height="80.897705"
     x="2049.4111"
     y="2774.5481"
     ry="3.2483399" />
  <rect
     style="fill:none;fill-opacity:1;stroke:#000040;stroke-width:2;stroke-linecap:round;stroke-linejoin:round;stroke-miterlimit:4;stroke-dasharray:none;stroke-opacity:1"
     id="rect9853"
     width="83.894028"
     height="86.890244"
     x="964.78131"
     y="2768.5557"
     ry="3.2483399" />
  <rect
     style="fill:none;fill-opacity:1;stroke:#000040;stroke-width:2;stroke-linecap:round;stroke-linejoin:round;stroke-miterlimit:4;stroke-dasharray:none;stroke-opacity:1"
     id="rect9855"
     width="53.931873"
     height="101.87132"
     x="1051.6715"
     y="2765.5593"
     ry="3.2483399" />
  <rect
     style="fill:none;fill-opacity:1;stroke:#000040;stroke-width:2;stroke-linecap:round;stroke-linejoin:round;stroke-miterlimit:4;stroke-dasharray:none;stroke-opacity:1"
     id="rect9857"
     width="71.909164"
     height="74.90538"
     x="1126.5769"
     y="2783.5366"
     ry="3.2483399" />
  <rect
     style="fill:none;fill-opacity:1;stroke:#ff0000;stroke-width:2;stroke-linecap:round;stroke-linejoin:round;stroke-miterlimit:4;stroke-dasharray:none;stroke-opacity:1"
     id="rect9859"
     width="47.939442"
     height="59.924305"
     x="1390.2439"
     y="464.46609"
     ry="3.2483399" />
  <rect
     style="fill:none;fill-opacity:1;stroke:#ff0000;stroke-width:2;stroke-linecap:round;stroke-linejoin:round;stroke-miterlimit:4;stroke-dasharray:none;stroke-opacity:1"
     id="rect9861"
     width="53.931873"
     height="50.935658"
     x="1650.9146"
     y="470.45853"
     ry="3.2483399" />
  <rect
     style="fill:none;fill-opacity:1;stroke:#ff0000;stroke-width:2;stroke-linecap:round;stroke-linejoin:round;stroke-miterlimit:4;stroke-dasharray:none;stroke-opacity:1"
     id="rect9863"
     width="68.912949"
     height="41.947014"
     x="1593.9865"
     y="725.13678"
     ry="3.2483399" />
  <rect
     style="fill:none;fill-opacity:1;stroke:#ff0000;stroke-width:2;stroke-linecap:round;stroke-linejoin:round;stroke-miterlimit:4;stroke-dasharray:none;stroke-opacity:1"
     id="rect9865"
     width="65.916733"
     height="41.947014"
     x="1432.1908"
     y="722.14062"
     ry="3.2483399" />
  <rect
     style="fill:none;fill-opacity:1;stroke:#ff0000;stroke-width:2;stroke-linecap:round;stroke-linejoin:round;stroke-miterlimit:4;stroke-dasharray:none;stroke-opacity:1"
     id="rect9867"
     width="53.931873"
     height="56.928089"
     x="946.80402"
     y="1108.6523"
     ry="3.2483399" />
  <rect
     style="fill:none;fill-opacity:1;stroke:#ff0000;stroke-width:2;stroke-linecap:round;stroke-linejoin:round;stroke-miterlimit:4;stroke-dasharray:none;stroke-opacity:1"
     id="rect9869"
     width="47.939442"
     height="29.962152"
     x="1201.4823"
     y="1084.6826"
     ry="3.2483399" />
  <rect
     style="fill:none;fill-opacity:1;stroke:#ff0000;stroke-width:2;stroke-linecap:round;stroke-linejoin:round;stroke-miterlimit:4;stroke-dasharray:none;stroke-opacity:1"
     id="rect9871"
     width="50.935658"
     height="29.962152"
     x="1842.6724"
     y="1087.6788"
     ry="3.2483399" />
  <rect
     style="fill:none;fill-opacity:1;stroke:#ff0000;stroke-width:2;stroke-linecap:round;stroke-linejoin:round;stroke-miterlimit:4;stroke-dasharray:none;stroke-opacity:1"
     id="rect9873"
     width="38.950798"
     height="68.912949"
     x="2100.3469"
     y="1093.6713"
     ry="3.2483399" />
  <rect
     style="fill:none;fill-opacity:1;stroke:#ff0000;stroke-width:2;stroke-linecap:round;stroke-linejoin:round;stroke-miterlimit:4;stroke-dasharray:none;stroke-opacity:1"
     id="rect9875"
     width="53.931873"
     height="53.931873"
     x="919.83807"
     y="1495.1641"
     ry="3.2483399" />
  <rect
     style="fill:none;fill-opacity:1;stroke:#ff0000;stroke-width:2;stroke-linecap:round;stroke-linejoin:round;stroke-miterlimit:4;stroke-dasharray:none;stroke-opacity:1"
     id="rect9877"
     width="77.901596"
     height="62.920517"
     x="907.85321"
     y="2280.1726"
     ry="3.2483399" />
  <rect
     style="fill:none;fill-opacity:1;stroke:#ff0000;stroke-width:1.50108182;stroke-linecap:round;stroke-linejoin:round;stroke-miterlimit:4;stroke-dasharray:none;stroke-opacity:1"
     id="rect9879"
     width="28.962963"
     height="49.936466"
     x="955.54321"
     y="2678.4197"
     ry="2.4608414" />
  <rect
     style="fill:none;fill-opacity:1;stroke:#ff0000;stroke-width:1.24719131;stroke-linecap:round;stroke-linejoin:round;stroke-miterlimit:4;stroke-dasharray:none;stroke-opacity:1"
     id="rect9881"
     width="35.209282"
     height="33.711174"
     x="1208.5964"
     y="2723.2361"
     ry="2.1498761" />
  <rect
     style="fill:none;fill-opacity:1;stroke:#ff0000;stroke-width:1.77679646;stroke-linecap:round;stroke-linejoin:round;stroke-miterlimit:4;stroke-dasharray:none;stroke-opacity:1"
     id="rect9883"
     width="52.656971"
     height="37.675896"
     x="1439.5697"
     y="3078.5522"
     ry="2.9175882" />
  <rect
     style="fill:none;fill-opacity:1;stroke:#ff0000;stroke-width:1.72907972;stroke-linecap:round;stroke-linejoin:round;stroke-miterlimit:4;stroke-dasharray:none;stroke-opacity:1"
     id="rect9885"
     width="58.697117"
     height="37.72361"
     x="1598.3453"
     y="3080.0264"
     ry="2.726531" />
  <rect
     style="fill:none;fill-opacity:1;stroke:#ff0000;stroke-width:2;stroke-linecap:round;stroke-linejoin:round;stroke-miterlimit:4;stroke-dasharray:none;stroke-opacity:1"
     id="rect9887"
     width="41.947014"
     height="59.924305"
     x="1396.2363"
     y="3313.8667"
     ry="3.2483399" />
  <rect
     style="fill:none;fill-opacity:1;stroke:#ff0000;stroke-width:1.56618047;stroke-linecap:round;stroke-linejoin:round;stroke-miterlimit:4;stroke-dasharray:none;stroke-opacity:1"
     id="rect9889"
     width="30.395971"
     height="42.380833"
     x="1662.6825"
     y="3322.6387"
     ry="2.5526156" />
  <rect
     style="fill:none;fill-opacity:1;stroke:#ff0000;stroke-width:2;stroke-linecap:round;stroke-linejoin:round;stroke-miterlimit:4;stroke-dasharray:none;stroke-opacity:1"
     id="rect9891"
     width="62.920517"
     height="32.958366"
     x="1836.6799"
     y="2732.6011"
     ry="3.2483399" />
  <rect
     style="fill:none;fill-opacity:1;stroke:#ff0000;stroke-width:2;stroke-linecap:round;stroke-linejoin:round;stroke-miterlimit:4;stroke-dasharray:none;stroke-opacity:1"
     id="rect9893"
     width="38.950798"
     height="53.931873"
     x="2103.343"
     y="2678.6692"
     ry="3.2483399" />
  <rect
     style="fill:none;fill-opacity:1;stroke:#ff0000;stroke-width:2;stroke-linecap:round;stroke-linejoin:round;stroke-miterlimit:4;stroke-dasharray:none;stroke-opacity:1"
     id="rect9895"
     width="65.916733"
     height="56.928089"
     x="2106.3394"
     y="1498.1603"
     ry="3.2483399" />
  <rect
     style="fill:none;fill-opacity:1;stroke:#b00000;stroke-width:2;stroke-linecap:round;stroke-linejoin:round;stroke-miterlimit:4;stroke-dasharray:none;stroke-opacity:1"
     id="rect9897"
     width="38.950798"
     height="68.912949"
     x="1468.1454"
     y="458.47366"
     ry="3.2483399" />
  <rect
     style="fill:none;fill-opacity:1;stroke:#b00000;stroke-width:1.27810395;stroke-linecap:round;stroke-linejoin:round;stroke-miterlimit:4;stroke-dasharray:none;stroke-opacity:1"
     id="rect9899"
     width="32.182156"
     height="47.163231"
     x="1595.1235"
     y="470.09756"
     ry="2.2231266" />
  <rect
     style="fill:none;fill-opacity:1;stroke:#b00000;stroke-width:2;stroke-linecap:round;stroke-linejoin:round;stroke-miterlimit:4;stroke-dasharray:none;stroke-opacity:1"
     id="rect9901"
     width="35.954582"
     height="65.916733"
     x="886.8797"
     y="982.81134"
     ry="3.2483399" />
  <rect
     style="fill:none;fill-opacity:1;stroke:#b00000;stroke-width:2;stroke-linecap:round;stroke-linejoin:round;stroke-miterlimit:4;stroke-dasharray:none;stroke-opacity:1"
     id="rect9903"
     width="59.924305"
     height="41.947014"
     x="1911.5853"
     y="1120.6372"
     ry="3.2483399" />
  <rect
     style="fill:none;fill-opacity:1;stroke:#b00000;stroke-width:2;stroke-linecap:round;stroke-linejoin:round;stroke-miterlimit:4;stroke-dasharray:none;stroke-opacity:1"
     id="rect9905"
     width="35.954582"
     height="65.916733"
     x="2175.2522"
     y="982.81134"
     ry="3.2483399" />
  <rect
     style="fill:none;fill-opacity:1;stroke:#ff0000;stroke-width:1.52966344;stroke-linecap:round;stroke-linejoin:round;stroke-miterlimit:4;stroke-dasharray:none;stroke-opacity:1"
     id="rect9907"
     width="28.934381"
     height="55.900318"
     x="886.64453"
     y="2792.2903"
     ry="2.7547364" />
  <rect
     style="fill:none;fill-opacity:1;stroke:#ff0000;stroke-width:1.79244351;stroke-linecap:round;stroke-linejoin:round;stroke-miterlimit:4;stroke-dasharray:none;stroke-opacity:1"
     id="rect9909"
     width="52.641319"
     height="36.16214"
     x="1117.4845"
     y="2680.0635"
     ry="3.2670918" />
  <rect
     style="fill:none;fill-opacity:1;stroke:#b00000;stroke-width:2;stroke-linecap:round;stroke-linejoin:round;stroke-miterlimit:4;stroke-dasharray:none;stroke-opacity:1"
     id="rect9911"
     width="68.912949"
     height="44.943226"
     x="1914.5815"
     y="2675.6729"
     ry="3.2483399" />
  <rect
     style="fill:none;fill-opacity:1;stroke:#b00000;stroke-width:2;stroke-linecap:round;stroke-linejoin:round;stroke-miterlimit:4;stroke-dasharray:none;stroke-opacity:1"
     id="rect9913"
     width="47.939442"
     height="59.924305"
     x="2166.2637"
     y="2795.5215"
     ry="3.2483399" />
  <rect
     style="fill:none;fill-opacity:1;stroke:#ff0000;stroke-width:1.62147915;stroke-linecap:round;stroke-linejoin:round;stroke-miterlimit:4;stroke-dasharray:none;stroke-opacity:1"
     id="rect9915"
     width="39.329315"
     height="52.812286"
     x="1590.801"
     y="3316.6738"
     ry="2.60256" />
  <rect
     style="fill:none;fill-opacity:1;stroke:#b00000;stroke-width:1.57315803;stroke-linecap:round;stroke-linejoin:round;stroke-miterlimit:4;stroke-dasharray:none;stroke-opacity:1"
     id="rect9917"
     width="39.37764"
     height="55.856823"
     x="1466.4338"
     y="3319.6458"
     ry="2.752593" />
  <rect
     style="fill:none;fill-opacity:1;stroke:#00ff00;stroke-width:2.60341287;stroke-linecap:round;stroke-linejoin:round;stroke-miterlimit:4;stroke-dasharray:none;stroke-opacity:1"
     id="rect9919"
     width="324.48593"
     height="248.08244"
     x="225.01785"
     y="1198.8406"
     ry="5.4889393" />
  <rect
     style="fill:none;fill-opacity:1;stroke:#00ff00;stroke-width:2;stroke-linecap:round;stroke-linejoin:round;stroke-miterlimit:4;stroke-dasharray:none;stroke-opacity:1"
     id="rect9921"
     width="113.85618"
     height="257.6745"
     x="428.45877"
     y="2382.0437"
     ry="3.2483399" />
  <rect
     style="fill:none;fill-opacity:1;stroke:#00ff00;stroke-width:2;stroke-linecap:round;stroke-linejoin:round;stroke-miterlimit:4;stroke-dasharray:none;stroke-opacity:1"
     id="rect9923"
     width="311.60638"
     height="89.886452"
     x="230.70857"
     y="2558.8206"
     ry="3.2483399" />
  <rect
     style="fill:none;fill-opacity:1;stroke:#00ff00;stroke-width:3.61695313;stroke-linecap:round;stroke-linejoin:round;stroke-miterlimit:4;stroke-dasharray:none;stroke-opacity:1"
     id="rect9931"
     width="312.98563"
     height="233.58595"
     x="2550.5876"
     y="1209.8341"
     ry="3.0511043" />
  <rect
     style="fill:none;fill-opacity:1;stroke:#00b000;stroke-width:2;stroke-linecap:round;stroke-linejoin:round;stroke-miterlimit:4;stroke-dasharray:none;stroke-opacity:1"
     id="rect9935"
     width="185.76534"
     height="224.71614"
     x="2693.5974"
     y="2663.688"
     ry="3.2483399" />
  <rect
     style="fill:none;fill-opacity:1;stroke:#00b000;stroke-width:2;stroke-linecap:round;stroke-linejoin:round;stroke-miterlimit:4;stroke-dasharray:none;stroke-opacity:1"
     id="rect9937"
     width="182.76912"
     height="221.71992"
     x="218.72371"
     y="2669.6804"
     ry="3.2483399" />
  <rect
     style="fill:none;fill-opacity:1;stroke:#00b000;stroke-width:2;stroke-linecap:round;stroke-linejoin:round;stroke-miterlimit:4;stroke-dasharray:none;stroke-opacity:1"
     id="rect9939"
     width="230.70857"
     height="185.76534"
     x="844.93268"
     y="3134.0938"
     ry="3.2483399" />
  <rect
     style="fill:none;fill-opacity:1;stroke:#00b000;stroke-width:2;stroke-linecap:round;stroke-linejoin:round;stroke-miterlimit:4;stroke-dasharray:none;stroke-opacity:1"
     id="rect9941"
     width="230.70857"
     height="182.76912"
     x="2013.4565"
     y="3137.0901"
     ry="3.2483399" />
  <rect
     style="fill:none;fill-opacity:1;stroke:#00b000;stroke-width:2;stroke-linecap:round;stroke-linejoin:round;stroke-miterlimit:4;stroke-dasharray:none;stroke-opacity:1"
     id="rect9943"
     width="230.70857"
     height="107.86375"
     x="2432.9268"
     y="3268.9236"
     ry="3.2483399" />
  <rect
     style="fill:none;fill-opacity:1;stroke:#00b000;stroke-width:2;stroke-linecap:round;stroke-linejoin:round;stroke-miterlimit:4;stroke-dasharray:none;stroke-opacity:1"
     id="rect9945"
     width="224.71614"
     height="104.86753"
     x="431.45499"
     y="3271.9197"
     ry="3.2483399" />
  <rect
     style="fill:none;fill-opacity:1;stroke:#00b000;stroke-width:2;stroke-linecap:round;stroke-linejoin:round;stroke-miterlimit:4;stroke-dasharray:none;stroke-opacity:1"
     id="rect9947"
     width="188.76155"
     height="233.70479"
     x="215.72749"
     y="940.86432"
     ry="3.2483399" />
  <rect
     style="fill:none;fill-opacity:1;stroke:#00b000;stroke-width:2;stroke-linecap:round;stroke-linejoin:round;stroke-miterlimit:4;stroke-dasharray:none;stroke-opacity:1"
     id="rect9949"
     width="224.71614"
     height="104.86753"
     x="428.45877"
     y="464.46609"
     ry="3.2483399" />
  <rect
     style="fill:none;fill-opacity:1;stroke:#00b000;stroke-width:2;stroke-linecap:round;stroke-linejoin:round;stroke-miterlimit:4;stroke-dasharray:none;stroke-opacity:1"
     id="rect9951"
     width="248.68587"
     height="182.76912"
     x="841.93646"
     y="521.39417"
     ry="3.2483399" />
  <rect
     style="fill:none;fill-opacity:1;stroke:#00b000;stroke-width:2;stroke-linecap:round;stroke-linejoin:round;stroke-miterlimit:4;stroke-dasharray:none;stroke-opacity:1"
     id="rect9953"
     width="248.68587"
     height="197.7502"
     x="2001.4717"
     y="515.40173"
     ry="3.2483399" />
  <rect
     style="fill:none;fill-opacity:1;stroke:#00b000;stroke-width:2;stroke-linecap:round;stroke-linejoin:round;stroke-miterlimit:4;stroke-dasharray:none;stroke-opacity:1"
     id="rect9955"
     width="217.22565"
     height="104.86752"
     x="2443.4136"
     y="465.9642"
     ry="3.2483399" />
  <rect
     style="fill:none;fill-opacity:1;stroke:#00b000;stroke-width:2;stroke-linecap:round;stroke-linejoin:round;stroke-miterlimit:4;stroke-dasharray:none;stroke-opacity:1"
     id="rect9957"
     width="191.75777"
     height="221.71992"
     x="2693.5974"
     y="949.85297"
     ry="3.2483399" />
  <rect
     style="fill:none;fill-opacity:1;stroke:#000080;stroke-width:2;stroke-linecap:round;stroke-linejoin:round;stroke-miterlimit:4;stroke-dasharray:none;stroke-opacity:1"
     id="rect9959"
     width="251.68207"
     height="134.82968"
     x="560.29224"
     y="1701.903"
     ry="3.2483399" />
  <rect
     style="fill:none;fill-opacity:1;stroke:#000080;stroke-width:2;stroke-linecap:round;stroke-linejoin:round;stroke-miterlimit:4;stroke-dasharray:none;stroke-opacity:1"
     id="rect9961"
     width="257.6745"
     height="131.83347"
     x="551.30359"
     y="2007.5168"
     ry="3.2483399" />
  <rect
     style="fill:none;fill-opacity:1;stroke:#000080;stroke-width:2;stroke-linecap:round;stroke-linejoin:round;stroke-miterlimit:4;stroke-dasharray:none;stroke-opacity:1"
     id="rect9963"
     width="110.85996"
     height="137.8259"
     x="164.79184"
     y="467.46231"
     ry="3.2483399" />
  <rect
     style="fill:none;fill-opacity:1;stroke:#000080;stroke-width:2.20587754;stroke-linecap:round;stroke-linejoin:round;stroke-miterlimit:4;stroke-dasharray:none;stroke-opacity:1"
     id="rect9965"
     width="124.13707"
     height="119.64269"
     x="543.91602"
     y="919.99377"
     ry="3.2427599" />
  <rect
     style="fill:none;fill-opacity:1;stroke:#000080;stroke-width:2;stroke-linecap:round;stroke-linejoin:round;stroke-miterlimit:4;stroke-dasharray:none;stroke-opacity:1"
     id="rect9967"
     width="119.84861"
     height="134.82968"
     x="155.80319"
     y="3238.9614"
     ry="3.2483399" />
  <rect
     style="fill:none;fill-opacity:1;stroke:#000080;stroke-width:2;stroke-linecap:round;stroke-linejoin:round;stroke-miterlimit:4;stroke-dasharray:none;stroke-opacity:1"
     id="rect9969"
     width="110.85996"
     height="110.85996"
     x="548.30737"
     y="2810.5027"
     ry="3.2483399" />
  <rect
     style="fill:none;fill-opacity:1;stroke:#000080;stroke-width:2;stroke-linecap:round;stroke-linejoin:round;stroke-miterlimit:4;stroke-dasharray:none;stroke-opacity:1"
     id="rect9971"
     width="146.81454"
     height="140.82211"
     x="2801.4612"
     y="3238.9614"
     ry="3.2483399" />
  <rect
     style="fill:none;fill-opacity:1;stroke:#000080;stroke-width:2;stroke-linecap:round;stroke-linejoin:round;stroke-miterlimit:4;stroke-dasharray:none;stroke-opacity:1"
     id="rect9973"
     width="116.85239"
     height="113.85618"
     x="2441.9153"
     y="2807.5063"
     ry="3.2483399" />
  <rect
     style="fill:none;fill-opacity:1;stroke:#000080;stroke-width:2;stroke-linecap:round;stroke-linejoin:round;stroke-miterlimit:4;stroke-dasharray:none;stroke-opacity:1"
     id="rect9975"
     width="137.8259"
     height="98.875099"
     x="2696.5938"
     y="2406.0134"
     ry="3.2483399" />
  <rect
     style="fill:none;fill-opacity:1;stroke:#000080;stroke-width:2;stroke-linecap:round;stroke-linejoin:round;stroke-miterlimit:4;stroke-dasharray:none;stroke-opacity:1"
     id="rect9977"
     width="125.84103"
     height="83.894028"
     x="269.65936"
     y="2409.0098"
     ry="3.2483399" />
  <rect
     style="fill:none;fill-opacity:1;stroke:#000080;stroke-width:2;stroke-linecap:round;stroke-linejoin:round;stroke-miterlimit:4;stroke-dasharray:none;stroke-opacity:1"
     id="rect9979"
     width="119.84861"
     height="77.901596"
     x="272.65558"
     y="1345.3534"
     ry="3.2483399" />
  <rect
     style="fill:none;fill-opacity:1;stroke:#000080;stroke-width:2;stroke-linecap:round;stroke-linejoin:round;stroke-miterlimit:4;stroke-dasharray:none;stroke-opacity:1"
     id="rect9981"
     width="119.84861"
     height="80.897812"
     x="2699.5898"
     y="1336.3647"
     ry="3.2483399" />
  <rect
     style="fill:none;fill-opacity:1;stroke:#000080;stroke-width:2;stroke-linecap:round;stroke-linejoin:round;stroke-miterlimit:4;stroke-dasharray:none;stroke-opacity:1"
     id="rect9983"
     width="115.35419"
     height="116.85242"
     x="2432.9268"
     y="916.89459"
     ry="3.2483399" />
  <rect
     style="fill:none;fill-opacity:1;stroke:#008000;stroke-width:2;stroke-linecap:round;stroke-linejoin:round;stroke-miterlimit:4;stroke-dasharray:none;stroke-opacity:1"
     id="rect9985"
     width="110.85996"
     height="209.73506"
     x="1216.4634"
     y="847.98163"
     ry="3.2483399" />
  <rect
     style="fill:none;fill-opacity:1;stroke:#008000;stroke-width:2;stroke-linecap:round;stroke-linejoin:round;stroke-miterlimit:4;stroke-dasharray:none;stroke-opacity:1"
     id="rect9987"
     width="104.86753"
     height="197.7502"
     x="1776.7556"
     y="853.97406"
     ry="3.2483399" />
  <rect
     style="fill:none;fill-opacity:1;stroke:#0000ff;stroke-width:2;stroke-linecap:round;stroke-linejoin:round;stroke-miterlimit:4;stroke-dasharray:none;stroke-opacity:1"
     id="rect10727"
     width="128.83725"
     height="653.17493"
     x="1015.7169"
     y="1600.0316"
     ry="3.2483399" />
  <rect
     style="fill:none;fill-opacity:1;stroke:#0000ff;stroke-width:2;stroke-linecap:round;stroke-linejoin:round;stroke-miterlimit:4;stroke-dasharray:none;stroke-opacity:1"
     id="rect11269"
     width="134.82968"
     height="293.62909"
     x="1938.5513"
     y="1603.0278"
     ry="3.2483399" />
  <rect
     style="fill:none;fill-opacity:1;stroke:#ff0000;stroke-width:2;stroke-linecap:round;stroke-linejoin:round;stroke-miterlimit:4;stroke-dasharray:none;stroke-opacity:1"
     id="rect5391"
     width="46.441334"
     height="29.962152"
     x="1125.0789"
     y="1125.1316"
     ry="5.4889398" />
  <rect
     style="fill:none;fill-opacity:1;stroke:#000080;stroke-width:2;stroke-linecap:round;stroke-linejoin:round;stroke-miterlimit:4;stroke-dasharray:none;stroke-opacity:1"
     id="rect5393"
     width="137.8259"
     height="73.407272"
     x="1390.2439"
     y="806.03461"
     ry="3.2427599" />
  <rect
     style="fill:none;fill-opacity:1;stroke:#000080;stroke-width:2;stroke-linecap:round;stroke-linejoin:round;stroke-miterlimit:4;stroke-dasharray:none;stroke-opacity:1"
     id="rect5395"
     width="134.82968"
     height="73.407272"
     x="1568.5187"
     y="806.03461"
     ry="3.2427599" />
  <rect
     style="fill:none;fill-opacity:1;stroke:#000080;stroke-width:2;stroke-linecap:round;stroke-linejoin:round;stroke-miterlimit:4;stroke-dasharray:none;stroke-opacity:1"
     id="rect5397"
     width="40.448914"
     height="43.445129"
     x="611.22791"
     y="578.32227"
     ry="2.22313" />
  <rect
     style="fill:none;fill-opacity:1;stroke:#000080;stroke-width:2;stroke-linecap:round;stroke-linejoin:round;stroke-miterlimit:4;stroke-dasharray:none;stroke-opacity:1"
     id="rect5399"
     width="46.441334"
     height="49.43755"
     x="855.41943"
     y="713.15192"
     ry="2.22313" />
  <rect
     style="fill:none;fill-opacity:1;stroke:#000080;stroke-width:2;stroke-linecap:round;stroke-linejoin:round;stroke-miterlimit:4;stroke-dasharray:none;stroke-opacity:1"
     id="rect5401"
     width="41.947021"
     height="43.445099"
     x="858.41565"
     y="467.46231"
     ry="2.22313" />
  <rect
     style="fill:none;fill-opacity:1;stroke:#000080;stroke-width:2;stroke-linecap:round;stroke-linejoin:round;stroke-miterlimit:4;stroke-dasharray:none;stroke-opacity:1"
     id="rect5403"
     width="50.935658"
     height="29.962152"
     x="408.98337"
     y="1140.1125"
     ry="2.22313" />
  <rect
     style="fill:none;fill-opacity:1;stroke:#000080;stroke-width:2;stroke-linecap:round;stroke-linejoin:round;stroke-miterlimit:4;stroke-dasharray:none;stroke-opacity:1"
     id="rect5405"
     width="52.433765"
     height="29.962152"
     x="157.3013"
     y="1141.6107"
     ry="2.22313" />
  <rect
     style="fill:none;fill-opacity:1;stroke:#000080;stroke-width:2;stroke-linecap:round;stroke-linejoin:round;stroke-miterlimit:4;stroke-dasharray:none;stroke-opacity:1"
     id="rect5407"
     width="49.43755"
     height="31.460258"
     x="410.48148"
     y="2666.6843"
     ry="2.22313" />
  <rect
     style="fill:none;fill-opacity:1;stroke:#000080;stroke-width:2;stroke-linecap:round;stroke-linejoin:round;stroke-miterlimit:4;stroke-dasharray:none;stroke-opacity:1"
     id="rect5409"
     width="46.441334"
     height="29.962152"
     x="160.29752"
     y="2665.186"
     ry="2.22313" />
  <rect
     style="fill:none;fill-opacity:1;stroke:#000080;stroke-width:2;stroke-linecap:round;stroke-linejoin:round;stroke-miterlimit:4;stroke-dasharray:none;stroke-opacity:1"
     id="rect5411"
     width="137.8259"
     height="68.912949"
     x="1388.7457"
     y="2963.3096"
     ry="2.22313" />
  <rect
     style="fill:none;fill-opacity:1;stroke:#000080;stroke-width:2;stroke-linecap:round;stroke-linejoin:round;stroke-miterlimit:4;stroke-dasharray:none;stroke-opacity:1"
     id="rect5413"
     width="128.83725"
     height="71.909164"
     x="1571.5149"
     y="2961.8115"
     ry="2.22313" />
  <rect
     style="fill:none;fill-opacity:1;stroke:#00b000;stroke-width:2;stroke-linecap:round;stroke-linejoin:round;stroke-miterlimit:4;stroke-dasharray:none;stroke-opacity:1"
     id="rect5415"
     width="104.86753"
     height="212.73128"
     x="1216.4634"
     y="2779.0422"
     ry="2.22313" />
  <rect
     style="fill:none;fill-opacity:1;stroke:#00b000;stroke-width:2;stroke-linecap:round;stroke-linejoin:round;stroke-miterlimit:4;stroke-dasharray:none;stroke-opacity:1"
     id="rect5417"
     width="107.86375"
     height="208.23695"
     x="1773.7594"
     y="2780.5405"
     ry="2.22313" />
  <rect
     style="fill:none;fill-opacity:1;stroke:#000080;stroke-width:2;stroke-linecap:round;stroke-linejoin:round;stroke-miterlimit:4;stroke-dasharray:none;stroke-opacity:1"
     id="rect5419"
     width="49.43755"
     height="41.947014"
     x="606.73358"
     y="3220.9841"
     ry="2.22313" />
  <rect
     style="fill:none;fill-opacity:1;stroke:#000080;stroke-width:2;stroke-linecap:round;stroke-linejoin:round;stroke-miterlimit:4;stroke-dasharray:none;stroke-opacity:1"
     id="rect5421"
     width="47.939453"
     height="43.445068"
     x="853.92133"
     y="3330.3459"
     ry="2.22313" />
  <rect
     style="fill:none;fill-opacity:1;stroke:#000080;stroke-width:2;stroke-linecap:round;stroke-linejoin:round;stroke-miterlimit:4;stroke-dasharray:none;stroke-opacity:1"
     id="rect5423"
     width="47.939442"
     height="44.943226"
     x="853.92133"
     y="3083.1582"
     ry="2.22313" />
  <rect
     style="fill:none;fill-opacity:1;stroke:#000080;stroke-width:2;stroke-linecap:round;stroke-linejoin:round;stroke-miterlimit:4;stroke-dasharray:none;stroke-opacity:1"
     id="rect5425"
     width="49.43755"
     height="26.965937"
     x="2635.1711"
     y="2666.6843"
     ry="2.7525899" />
  <rect
     style="fill:none;fill-opacity:1;stroke:#000080;stroke-width:2;stroke-linecap:round;stroke-linejoin:round;stroke-miterlimit:4;stroke-dasharray:none;stroke-opacity:1"
     id="rect5427"
     width="44.943176"
     height="29.962156"
     x="2889.8496"
     y="2668.1824"
     ry="2.7525899" />
  <rect
     style="fill:none;fill-opacity:1;stroke:#000080;stroke-width:2;stroke-linecap:round;stroke-linejoin:round;stroke-miterlimit:4;stroke-dasharray:none;stroke-opacity:1"
     id="rect5429"
     width="49.43755"
     height="44.943226"
     x="2438.9192"
     y="3217.9878"
     ry="2.7525899" />
  <rect
     style="fill:none;fill-opacity:1;stroke:#00ff00;stroke-width:2;stroke-linecap:round;stroke-linejoin:round;stroke-miterlimit:4;stroke-dasharray:none;stroke-opacity:1"
     id="rect5431"
     width="320.59503"
     height="239.69722"
     x="2545.2849"
     y="2395.5269"
     ry="3.2483399" />
  <rect
     style="fill:none;fill-opacity:1;stroke:#000080;stroke-width:2;stroke-linecap:round;stroke-linejoin:round;stroke-miterlimit:4;stroke-dasharray:none;stroke-opacity:1"
     id="rect5433"
     width="47.939442"
     height="28.464045"
     x="2635.1711"
     y="1144.6069"
     ry="3.0511" />
  <rect
     style="fill:none;fill-opacity:1;stroke:#000080;stroke-width:2;stroke-linecap:round;stroke-linejoin:round;stroke-miterlimit:4;stroke-dasharray:none;stroke-opacity:1"
     id="rect5435"
     width="50.935658"
     height="28.464045"
     x="2886.8533"
     y="1146.105"
     ry="3.0511" />
  <rect
     style="fill:none;fill-opacity:1;stroke:#000080;stroke-width:2;stroke-linecap:round;stroke-linejoin:round;stroke-miterlimit:4;stroke-dasharray:none;stroke-opacity:1"
     id="rect5437"
     width="125.84103"
     height="136.32779"
     x="2813.446"
     y="464.46609"
     ry="3.2483399" />
  <rect
     style="fill:none;fill-opacity:1;stroke:#000080;stroke-width:2;stroke-linecap:round;stroke-linejoin:round;stroke-miterlimit:4;stroke-dasharray:none;stroke-opacity:1"
     id="rect5439"
     width="46.441334"
     height="46.441334"
     x="2438.9192"
     y="575.32605"
     ry="3.2483399" />
  <rect
     style="fill:none;fill-opacity:1;stroke:#000080;stroke-width:2;stroke-linecap:round;stroke-linejoin:round;stroke-miterlimit:4;stroke-dasharray:none;stroke-opacity:1"
     id="rect5441"
     width="43.445122"
     height="40.448906"
     x="2191.7314"
     y="716.14813"
     ry="3.2483399" />
  <rect
     style="fill:none;fill-opacity:1;stroke:#000080;stroke-width:2;stroke-linecap:round;stroke-linejoin:round;stroke-miterlimit:4;stroke-dasharray:none;stroke-opacity:1"
     id="rect5443"
     width="41.947021"
     height="41.946995"
     x="2193.2295"
     y="465.9642"
     ry="3.2483399" />
  <rect
     style="fill:none;fill-opacity:1;stroke:#000080;stroke-width:2;stroke-linecap:round;stroke-linejoin:round;stroke-miterlimit:4;stroke-dasharray:none;stroke-opacity:1"
     id="rect5445"
     width="47.939442"
     height="43.445122"
     x="2187.2371"
     y="3083.1582"
     ry="3.2483399" />
  <rect
     style="fill:none;fill-opacity:1;stroke:#000080;stroke-width:2;stroke-linecap:round;stroke-linejoin:round;stroke-miterlimit:4;stroke-dasharray:none;stroke-opacity:1"
     id="rect5447"
     width="40.448975"
     height="37.45282"
     x="2193.2295"
     y="3331.844"
     ry="3.2483399" />
</svg>
