<?xml version="1.0" encoding="UTF-8" standalone="no"?>
<!-- Created with Inkscape (http://www.inkscape.org/) -->

<svg
   xmlns:dc="http://purl.org/dc/elements/1.1/"
   xmlns:cc="http://creativecommons.org/ns#"
   xmlns:rdf="http://www.w3.org/1999/02/22-rdf-syntax-ns#"
   xmlns:svg="http://www.w3.org/2000/svg"
   xmlns="http://www.w3.org/2000/svg"
   xmlns:xlink="http://www.w3.org/1999/xlink"
   xmlns:sodipodi="http://sodipodi.sourceforge.net/DTD/sodipodi-0.dtd"
   xmlns:inkscape="http://www.inkscape.org/namespaces/inkscape"
   id="svg10397"
   version="1.1"
   inkscape:version="0.91 r13725"
   width="2512"
   height="3596"
   viewBox="0 0 2512 3596"
   sodipodi:docname="italy_020_250.svg">
  <metadata
     id="metadata10403">
    <rdf:RDF>
      <cc:Work
         rdf:about="">
        <dc:format>image/svg+xml</dc:format>
        <dc:type
           rdf:resource="http://purl.org/dc/dcmitype/StillImage" />
        <dc:title />
      </cc:Work>
    </rdf:RDF>
  </metadata>
  <defs
     id="defs10401" />
  <sodipodi:namedview
     pagecolor="#ffffff"
     bordercolor="#666666"
     borderopacity="1"
     objecttolerance="10"
     gridtolerance="10"
     guidetolerance="10"
     inkscape:pageopacity="0"
     inkscape:pageshadow="2"
     inkscape:window-width="1920"
     inkscape:window-height="997"
     id="namedview10399"
     showgrid="false"
     inkscape:zoom="0.26251391"
     inkscape:cx="672.98098"
     inkscape:cy="2026.5593"
     inkscape:window-x="-9"
     inkscape:window-y="-9"
     inkscape:window-maximized="1"
     inkscape:current-layer="svg10397" />
  <image
     sodipodi:absref="C:\Users\pierpaolo\Dropbox\Romani-15\GT_Files\italy_020_250.png"
     xlink:href="italy_020_250.png"
     width="2512"
     height="3596"
     preserveAspectRatio="none"
     id="image10405"
     x="0"
     y="0" />
  <rect
     style="fill:none;fill-opacity:1;stroke:#ff000f;stroke-width:2;stroke-linecap:round;stroke-linejoin:round;stroke-miterlimit:4;stroke-dasharray:none;stroke-opacity:0.94117647"
     id="rect10407"
     width="39.997883"
     height="41.902542"
     x="1363.7373"
     y="2055.1292"
     ry="2.1845" />
  <rect
     style="fill:none;fill-opacity:1;stroke:#ff000f;stroke-width:2;stroke-linecap:round;stroke-linejoin:round;stroke-miterlimit:4;stroke-dasharray:none;stroke-opacity:0.94117647"
     id="rect10949"
     width="28.569939"
     height="39.997803"
     x="1297.0741"
     y="2352.2563"
     ry="2.1845" />
  <rect
     style="fill:none;fill-opacity:1;stroke:#ff000f;stroke-width:2;stroke-linecap:round;stroke-linejoin:round;stroke-miterlimit:4;stroke-dasharray:none;stroke-opacity:0.94117647"
     id="rect10951"
     width="28.569916"
     height="30.474577"
     x="1634.1991"
     y="2837.9448"
     ry="2.1845" />
  <rect
     style="fill:none;fill-opacity:1;stroke:#ff000f;stroke-width:2;stroke-linecap:round;stroke-linejoin:round;stroke-miterlimit:4;stroke-dasharray:none;stroke-opacity:0.94117647"
     id="rect10953"
     width="26.665255"
     height="28.569916"
     x="1685.625"
     y="2843.6589"
     ry="2.1845" />
  <rect
     style="fill:none;fill-opacity:1;stroke:#ff000f;stroke-width:2;stroke-linecap:round;stroke-linejoin:round;stroke-miterlimit:4;stroke-dasharray:none;stroke-opacity:0.94117647"
     id="rect10955"
     width="36.18856"
     height="24.760593"
     x="1670.3877"
     y="2655.0974"
     ry="2.1845" />
  <rect
     style="fill:none;fill-opacity:1;stroke:#ff000f;stroke-width:2;stroke-linecap:round;stroke-linejoin:round;stroke-miterlimit:4;stroke-dasharray:none;stroke-opacity:0.94117647"
     id="rect10957"
     width="24.760593"
     height="32.379238"
     x="1247.553"
     y="2451.2988"
     ry="2.1845" />
  <rect
     style="fill:none;fill-opacity:1;stroke:#ff000f;stroke-width:2;stroke-linecap:round;stroke-linejoin:round;stroke-miterlimit:4;stroke-dasharray:none;stroke-opacity:0.94117647"
     id="rect10959"
     width="32.379238"
     height="32.379238"
     x="1365.642"
     y="1178.9851"
     ry="2.1845" />
  <rect
     style="fill:none;fill-opacity:1;stroke:#ff000f;stroke-width:2;stroke-linecap:round;stroke-linejoin:round;stroke-miterlimit:4;stroke-dasharray:none;stroke-opacity:0.94117647"
     id="rect10961"
     width="17.141949"
     height="38.09322"
     x="1304.6927"
     y="878.04871"
     ry="2.1845" />
  <rect
     style="fill:none;fill-opacity:1;stroke:#ff000f;stroke-width:2;stroke-linecap:round;stroke-linejoin:round;stroke-miterlimit:4;stroke-dasharray:none;stroke-opacity:0.94117647"
     id="rect10963"
     width="30.474577"
     height="28.569916"
     x="1241.839"
     y="799.95764"
     ry="2.1845" />
  <rect
     style="fill:none;fill-opacity:1;stroke:#ff000f;stroke-width:2;stroke-linecap:round;stroke-linejoin:round;stroke-miterlimit:4;stroke-dasharray:none;stroke-opacity:0.94117647"
     id="rect10965"
     width="45.711864"
     height="22.855932"
     x="1424.6864"
     y="895.19067"
     ry="2.1845" />
  <rect
     style="fill:none;fill-opacity:1;stroke:#ff000f;stroke-width:2;stroke-linecap:round;stroke-linejoin:round;stroke-miterlimit:4;stroke-dasharray:none;stroke-opacity:0.94117647"
     id="rect10967"
     width="28.569954"
     height="20.95129"
     x="1487.5403"
     y="862.81146"
     ry="2.1845" />
  <rect
     style="fill:none;fill-opacity:1;stroke:#ff000f;stroke-width:2;stroke-linecap:round;stroke-linejoin:round;stroke-miterlimit:4;stroke-dasharray:none;stroke-opacity:0.94117647"
     id="rect10969"
     width="38.09322"
     height="26.665255"
     x="1430.4004"
     y="2354.1611"
     ry="2.1845" />
  <rect
     style="fill:none;fill-opacity:1;stroke:#ff000f;stroke-width:2;stroke-linecap:round;stroke-linejoin:round;stroke-miterlimit:4;stroke-dasharray:none;stroke-opacity:0.94117647"
     id="rect10971"
     width="38.09322"
     height="19.04661"
     x="1491.3496"
     y="2388.4448"
     ry="2.1845" />
  <rect
     style="fill:none;fill-opacity:1;stroke:#ff000f;stroke-width:2;stroke-linecap:round;stroke-linejoin:round;stroke-miterlimit:4;stroke-dasharray:none;stroke-opacity:0.94117647"
     id="rect10973"
     width="53.330509"
     height="32.379238"
     x="1657.0551"
     y="586.63556"
     ry="2.1845" />
  <rect
     style="fill:none;fill-opacity:1;stroke:#ff000f;stroke-width:2;stroke-linecap:round;stroke-linejoin:round;stroke-miterlimit:4;stroke-dasharray:none;stroke-opacity:0.94117647"
     id="rect10975"
     width="15.237288"
     height="26.665255"
     x="1641.8177"
     y="411.40677"
     ry="2.1845" />
  <rect
     style="fill:none;fill-opacity:1;stroke:#ff000f;stroke-width:2;stroke-linecap:round;stroke-linejoin:round;stroke-miterlimit:4;stroke-dasharray:none;stroke-opacity:0.94117647"
     id="rect10977"
     width="22.855932"
     height="38.09322"
     x="1689.4343"
     y="403.78812"
     ry="2.1845" />
  <rect
     style="fill:none;fill-opacity:1;stroke:#80000f;stroke-width:2;stroke-linecap:round;stroke-linejoin:round;stroke-miterlimit:4;stroke-dasharray:none;stroke-opacity:0.94117647"
     id="rect10979"
     width="64.758476"
     height="59.044491"
     x="1300.8834"
     y="794.24365"
     ry="2.1845" />
  <rect
     style="fill:none;fill-opacity:1;stroke:#80000f;stroke-width:2;stroke-linecap:round;stroke-linejoin:round;stroke-miterlimit:4;stroke-dasharray:none;stroke-opacity:0.94117647"
     id="rect10981"
     width="59.044491"
     height="43.807205"
     x="1420.8771"
     y="799.95764"
     ry="2.1845" />
  <rect
     style="fill:none;fill-opacity:1;stroke:#80000f;stroke-width:2;stroke-linecap:round;stroke-linejoin:round;stroke-miterlimit:4;stroke-dasharray:none;stroke-opacity:0.94117647"
     id="rect10983"
     width="85.709747"
     height="60.949154"
     x="1506.5869"
     y="573.30298"
     ry="2.1845" />
  <rect
     style="fill:none;fill-opacity:1;stroke:#80000f;stroke-width:2;stroke-linecap:round;stroke-linejoin:round;stroke-miterlimit:4;stroke-dasharray:none;stroke-opacity:0.94117647"
     id="rect10985"
     width="55.235168"
     height="66.663139"
     x="1306.5974"
     y="2418.9194"
     ry="2.1845" />
  <rect
     style="fill:none;fill-opacity:1;stroke:#80000f;stroke-width:2;stroke-linecap:round;stroke-linejoin:round;stroke-miterlimit:4;stroke-dasharray:none;stroke-opacity:0.94117647"
     id="rect10987"
     width="51.425846"
     height="59.044491"
     x="1424.6864"
     y="2422.7288"
     ry="2.1845" />
  <rect
     style="fill:none;fill-opacity:1;stroke:#80000f;stroke-width:2;stroke-linecap:round;stroke-linejoin:round;stroke-miterlimit:4;stroke-dasharray:none;stroke-opacity:0.94117647"
     id="rect10989"
     width="89.519066"
     height="55.235168"
     x="1502.7776"
     y="2641.7649"
     ry="2.1845" />
  <rect
     style="fill:none;fill-opacity:1;stroke:#00400f;stroke-width:2;stroke-linecap:round;stroke-linejoin:round;stroke-miterlimit:4;stroke-dasharray:none;stroke-opacity:0.94117647"
     id="rect10991"
     width="49.521187"
     height="49.521187"
     x="1457.0657"
     y="2117.9832"
     ry="2.1845" />
  <rect
     style="fill:none;fill-opacity:1;stroke:#00400f;stroke-width:2;stroke-linecap:round;stroke-linejoin:round;stroke-miterlimit:4;stroke-dasharray:none;stroke-opacity:0.94117647"
     id="rect10993"
     width="51.425846"
     height="49.521187"
     x="1457.0657"
     y="1100.894"
     ry="2.1845" />
  <rect
     style="fill:none;fill-opacity:1;stroke:#00800f;stroke-width:2;stroke-linecap:round;stroke-linejoin:round;stroke-miterlimit:4;stroke-dasharray:none;stroke-opacity:0.94117647"
     id="rect10995"
     width="232.36864"
     height="186.65678"
     x="1270.4089"
     y="1030.4216"
     ry="2.1845" />
  <rect
     style="fill:none;fill-opacity:1;stroke:#00800f;stroke-width:2;stroke-linecap:round;stroke-linejoin:round;stroke-miterlimit:4;stroke-dasharray:none;stroke-opacity:0.94117647"
     id="rect10997"
     width="238.08263"
     height="190.46609"
     x="1270.4089"
     y="2049.4153"
     ry="2.1845" />
  <rect
     style="fill:none;fill-opacity:1;stroke:#00b00f;stroke-width:2;stroke-linecap:round;stroke-linejoin:round;stroke-miterlimit:4;stroke-dasharray:none;stroke-opacity:0.94117647"
     id="rect11003"
     width="144.75424"
     height="163.80084"
     x="744.72247"
     y="2348.447"
     ry="2.1845" />
  <rect
     style="fill:none;fill-opacity:1;stroke:#00b00f;stroke-width:2;stroke-linecap:round;stroke-linejoin:round;stroke-miterlimit:4;stroke-dasharray:none;stroke-opacity:0.94117647"
     id="rect11005"
     width="76.18644"
     height="171.41949"
     x="704.72455"
     y="2706.5232"
     ry="2.1845" />
  <rect
     style="fill:none;fill-opacity:1;stroke:#00b00f;stroke-width:2;stroke-linecap:round;stroke-linejoin:round;stroke-miterlimit:4;stroke-dasharray:none;stroke-opacity:0.94117647"
     id="rect11007"
     width="169.51483"
     height="131.42162"
     x="1224.697"
     y="2698.9045"
     ry="2.1845" />
  <rect
     style="fill:none;fill-opacity:1;stroke:#00b00f;stroke-width:2;stroke-linecap:round;stroke-linejoin:round;stroke-miterlimit:4;stroke-dasharray:none;stroke-opacity:0.94117647"
     id="rect11009"
     width="83.805084"
     height="158.08687"
     x="1495.1589"
     y="2432.2522"
     ry="2.1845" />
  <rect
     style="fill:none;fill-opacity:1;stroke:#00b00f;stroke-width:2;stroke-linecap:round;stroke-linejoin:round;stroke-miterlimit:4;stroke-dasharray:none;stroke-opacity:0.94117647"
     id="rect11011"
     width="144.75424"
     height="161.89618"
     x="740.91315"
     y="761.86438"
     ry="2.1845" />
  <rect
     style="fill:none;fill-opacity:1;stroke:#00b00f;stroke-width:2;stroke-linecap:round;stroke-linejoin:round;stroke-miterlimit:4;stroke-dasharray:none;stroke-opacity:0.94117647"
     id="rect11013"
     width="167.61011"
     height="81.900459"
     x="902.80933"
     y="399.97882"
     ry="2.1845" />
  <rect
     style="fill:none;fill-opacity:1;stroke:#00b00f;stroke-width:2;stroke-linecap:round;stroke-linejoin:round;stroke-miterlimit:4;stroke-dasharray:none;stroke-opacity:0.94117647"
     id="rect11015"
     width="182.84746"
     height="154.27754"
     x="1215.1737"
     y="432.35803"
     ry="2.1845" />
  <rect
     style="fill:none;fill-opacity:1;stroke:#00b00f;stroke-width:2;stroke-linecap:round;stroke-linejoin:round;stroke-miterlimit:4;stroke-dasharray:none;stroke-opacity:0.94117647"
     id="rect11017"
     width="79.995766"
     height="167.61017"
     x="1497.0636"
     y="679.96399"
     ry="2.1845" />
  <rect
     style="fill:none;fill-opacity:1;stroke:#00ff0f;stroke-width:2;stroke-linecap:round;stroke-linejoin:round;stroke-miterlimit:4;stroke-dasharray:none;stroke-opacity:0.94117647"
     id="rect11021"
     width="359.98087"
     height="118.08899"
     x="1024.7076"
     y="1478.017"
     ry="2.1845" />
  <rect
     style="fill:none;fill-opacity:1;stroke:#00ff0f;stroke-width:2;stroke-linecap:round;stroke-linejoin:round;stroke-miterlimit:4;stroke-dasharray:none;stroke-opacity:0.94117647"
     id="rect11027"
     width="224.75006"
     height="169.51479"
     x="851.38348"
     y="2140.8389"
     ry="2.1845" />
  <rect
     style="fill:none;fill-opacity:1;stroke:#000080;stroke-width:2;stroke-linecap:round;stroke-linejoin:round;stroke-miterlimit:4;stroke-dasharray:none;stroke-opacity:1"
     id="rect11029"
     width="251.41525"
     height="177.13347"
     x="1074.2288"
     y="1702.767"
     ry="2.1845" />
  <rect
     style="fill:none;fill-opacity:1;stroke:#000080;stroke-width:2;stroke-linecap:round;stroke-linejoin:round;stroke-miterlimit:4;stroke-dasharray:none;stroke-opacity:1"
     id="rect11031"
     width="182.84746"
     height="161.89618"
     x="1565.6313"
     y="2020.8453"
     ry="2.1845" />
  <rect
     style="fill:none;fill-opacity:1;stroke:#000080;stroke-width:2;stroke-linecap:round;stroke-linejoin:round;stroke-miterlimit:4;stroke-dasharray:none;stroke-opacity:1"
     id="rect11033"
     width="179.03813"
     height="158.08687"
     x="1565.6313"
     y="1100.894"
     ry="2.1845" />
  <rect
     style="fill:none;fill-opacity:1;stroke:#000080;stroke-width:2;stroke-linecap:round;stroke-linejoin:round;stroke-miterlimit:4;stroke-dasharray:none;stroke-opacity:1"
     id="rect11035"
     width="171.41949"
     height="104.75636"
     x="832.33685"
     y="984.70972"
     ry="2.1845" />
  <rect
     style="fill:none;fill-opacity:1;stroke:#000080;stroke-width:2;stroke-linecap:round;stroke-linejoin:round;stroke-miterlimit:4;stroke-dasharray:none;stroke-opacity:1"
     id="rect11037"
     width="91.423729"
     height="78.091103"
     x="986.61438"
     y="742.81781"
     ry="2.1845" />
  <rect
     style="fill:none;fill-opacity:1;stroke:#000080;stroke-width:2;stroke-linecap:round;stroke-linejoin:round;stroke-miterlimit:4;stroke-dasharray:none;stroke-opacity:1"
     id="rect11039"
     width="93.328392"
     height="95.233047"
     x="702.81995"
     y="399.97882"
     ry="2.1845" />
  <rect
     style="fill:none;fill-opacity:1;stroke:#000080;stroke-width:2;stroke-linecap:round;stroke-linejoin:round;stroke-miterlimit:4;stroke-dasharray:none;stroke-opacity:1"
     id="rect11041"
     width="102.85169"
     height="55.235168"
     x="1626.5806"
     y="655.20337"
     ry="2.1845" />
  <rect
     style="fill:none;fill-opacity:1;stroke:#000080;stroke-width:2;stroke-linecap:round;stroke-linejoin:round;stroke-miterlimit:4;stroke-dasharray:none;stroke-opacity:1"
     id="rect11043"
     width="87.61441"
     height="91.423729"
     x="988.51904"
     y="2451.2988"
     ry="2.1845" />
  <rect
     style="fill:none;fill-opacity:1;stroke:#000080;stroke-width:2;stroke-linecap:round;stroke-linejoin:round;stroke-miterlimit:4;stroke-dasharray:none;stroke-opacity:1"
     id="rect11045"
     width="175.22882"
     height="91.423729"
     x="1020.8983"
     y="2782.7097"
     ry="2.1845" />
  <rect
     style="fill:none;fill-opacity:1;stroke:#000080;stroke-width:2;stroke-linecap:round;stroke-linejoin:round;stroke-miterlimit:4;stroke-dasharray:none;stroke-opacity:1"
     id="rect11047"
     width="102.85169"
     height="57.139832"
     x="1626.5806"
     y="2561.769"
     ry="2.1845" />
  <rect
     style="fill:none;fill-opacity:1;stroke:#000080;stroke-width:2;stroke-linecap:round;stroke-linejoin:round;stroke-miterlimit:4;stroke-dasharray:none;stroke-opacity:1"
     id="rect11049"
     width="89.519066"
     height="59.044491"
     x="876.14404"
     y="2154.1716"
     ry="2.1845" />
  <rect
     style="fill:none;fill-opacity:1;stroke:#000080;stroke-width:2;stroke-linecap:round;stroke-linejoin:round;stroke-miterlimit:4;stroke-dasharray:none;stroke-opacity:1"
     id="rect14475"
     width="43.807201"
     height="36.18856"
     x="1038.0403"
     y="479.97458"
     ry="2.1845" />
  <rect
     style="fill:none;fill-opacity:1;stroke:#000080;stroke-width:2;stroke-linecap:round;stroke-linejoin:round;stroke-miterlimit:4;stroke-dasharray:none;stroke-opacity:1"
     id="rect14477"
     width="32.379238"
     height="30.474577"
     x="1228.5063"
     y="586.63562"
     ry="2.1845" />
  <rect
     style="fill:none;fill-opacity:1;stroke:#000080;stroke-width:2;stroke-linecap:round;stroke-linejoin:round;stroke-miterlimit:4;stroke-dasharray:none;stroke-opacity:1"
     id="rect14479"
     width="41.902573"
     height="38.093227"
     x="1222.7924"
     y="399.97882"
     ry="2.1845" />
  <rect
     style="fill:none;fill-opacity:1;stroke:#000080;stroke-width:2;stroke-linecap:round;stroke-linejoin:round;stroke-miterlimit:4;stroke-dasharray:none;stroke-opacity:1"
     id="rect14481"
     width="36.18856"
     height="22.855932"
     x="895.19067"
     y="904.71399"
     ry="2.1845" />
  <rect
     style="fill:none;fill-opacity:1;stroke:#000080;stroke-width:2;stroke-linecap:round;stroke-linejoin:round;stroke-miterlimit:4;stroke-dasharray:none;stroke-opacity:1"
     id="rect14483"
     width="39.997883"
     height="17.141949"
     x="699.01062"
     y="908.52332"
     ry="2.1845" />
  <rect
     style="fill:none;fill-opacity:1;stroke:#000080;stroke-width:2;stroke-linecap:round;stroke-linejoin:round;stroke-miterlimit:4;stroke-dasharray:none;stroke-opacity:1"
     id="rect14485"
     width="81.900421"
     height="51.425846"
     x="1163.7479"
     y="1443.733"
     ry="2.1845" />
  <rect
     style="fill:none;fill-opacity:1;stroke:#000080;stroke-width:2;stroke-linecap:round;stroke-linejoin:round;stroke-miterlimit:4;stroke-dasharray:none;stroke-opacity:1"
     id="rect14487"
     width="32.379238"
     height="28.569916"
     x="1228.5063"
     y="2843.6589"
     ry="2.1845" />
  <rect
     style="fill:none;fill-opacity:1;stroke:#000080;stroke-width:2;stroke-linecap:round;stroke-linejoin:round;stroke-miterlimit:4;stroke-dasharray:none;stroke-opacity:1"
     id="rect14489"
     width="30.474577"
     height="30.474577"
     x="1230.411"
     y="2658.9067"
     ry="2.1845" />
  <rect
     style="fill:none;fill-opacity:1;stroke:#000080;stroke-width:2;stroke-linecap:round;stroke-linejoin:round;stroke-miterlimit:4;stroke-dasharray:none;stroke-opacity:1"
     id="rect14493"
     width="39.997883"
     height="38.09322"
     x="780.91101"
     y="2837.9448"
     ry="2.1845" />
  <rect
     style="fill:none;fill-opacity:1;stroke:#000080;stroke-width:2;stroke-linecap:round;stroke-linejoin:round;stroke-miterlimit:4;stroke-dasharray:none;stroke-opacity:1"
     id="rect14495"
     width="43.807186"
     height="20.951303"
     x="889.47668"
     y="2344.6377"
     ry="2.1845" />
  <rect
     style="fill:none;fill-opacity:1;stroke:#000080;stroke-width:2;stroke-linecap:round;stroke-linejoin:round;stroke-miterlimit:4;stroke-dasharray:none;stroke-opacity:1"
     id="rect14497"
     width="39.997856"
     height="20.951284"
     x="699.01062"
     y="2348.447"
     ry="2.1845" />
</svg>
