<?xml version="1.0" encoding="UTF-8" standalone="no"?>
<!-- Created with Inkscape (http://www.inkscape.org/) -->

<svg
   xmlns:dc="http://purl.org/dc/elements/1.1/"
   xmlns:cc="http://creativecommons.org/ns#"
   xmlns:rdf="http://www.w3.org/1999/02/22-rdf-syntax-ns#"
   xmlns:svg="http://www.w3.org/2000/svg"
   xmlns="http://www.w3.org/2000/svg"
   xmlns:xlink="http://www.w3.org/1999/xlink"
   xmlns:sodipodi="http://sodipodi.sourceforge.net/DTD/sodipodi-0.dtd"
   xmlns:inkscape="http://www.inkscape.org/namespaces/inkscape"
   id="svg8468"
   version="1.1"
   inkscape:version="0.91 r13725"
   width="3568"
   height="2080"
   viewBox="0 0 3568 2080"
   sodipodi:docname="italy_016_250.svg">
  <metadata
     id="metadata8474">
    <rdf:RDF>
      <cc:Work
         rdf:about="">
        <dc:format>image/svg+xml</dc:format>
        <dc:type
           rdf:resource="http://purl.org/dc/dcmitype/StillImage" />
        <dc:title />
      </cc:Work>
    </rdf:RDF>
  </metadata>
  <defs
     id="defs8472" />
  <sodipodi:namedview
     pagecolor="#ffffff"
     bordercolor="#666666"
     borderopacity="1"
     objecttolerance="10"
     gridtolerance="10"
     guidetolerance="10"
     inkscape:pageopacity="0"
     inkscape:pageshadow="2"
     inkscape:window-width="1920"
     inkscape:window-height="997"
     id="namedview8470"
     showgrid="false"
     inkscape:zoom="0.45384615"
     inkscape:cx="842.80849"
     inkscape:cy="1040"
     inkscape:window-x="-9"
     inkscape:window-y="-9"
     inkscape:window-maximized="1"
     inkscape:current-layer="svg8468" />
  <image
     sodipodi:absref="C:\Users\pierpaolo\Dropbox\Romani-15\GT_Files\italy_016_250.png"
     xlink:href="italy_016_250.png"
     width="3568"
     height="2080"
     preserveAspectRatio="none"
     id="image8476"
     x="0"
     y="0" />
  <rect
     style="fill:none;fill-opacity:1;stroke:#400000;stroke-width:2;stroke-linecap:round;stroke-linejoin:round;stroke-miterlimit:4;stroke-dasharray:none;stroke-opacity:1"
     id="rect8478"
     width="83.728821"
     height="200.50844"
     x="323.89832"
     y="738.13562"
     ry="2.1845" />
  <rect
     style="fill:none;fill-opacity:1;stroke:#400000;stroke-width:2;stroke-linecap:round;stroke-linejoin:round;stroke-miterlimit:4;stroke-dasharray:none;stroke-opacity:1"
     id="rect9020"
     width="90.338982"
     height="204.91525"
     x="3115.5933"
     y="731.52545"
     ry="2.1845" />
  <rect
     style="fill:none;fill-opacity:1;stroke:#ff0000;stroke-width:2;stroke-linecap:round;stroke-linejoin:round;stroke-miterlimit:4;stroke-dasharray:none;stroke-opacity:1"
     id="rect9022"
     width="39.661018"
     height="57.288136"
     x="467.11865"
     y="738.13562"
     ry="2.1845" />
  <rect
     style="fill:none;fill-opacity:1;stroke:#ff0000;stroke-width:2;stroke-linecap:round;stroke-linejoin:round;stroke-miterlimit:4;stroke-dasharray:none;stroke-opacity:1"
     id="rect9024"
     width="33.050846"
     height="57.288136"
     x="614.74579"
     y="1672.3729"
     ry="2.1845" />
  <rect
     style="fill:none;fill-opacity:1;stroke:#ff0000;stroke-width:2;stroke-linecap:round;stroke-linejoin:round;stroke-miterlimit:4;stroke-dasharray:none;stroke-opacity:1"
     id="rect9026"
     width="46.271187"
     height="41.864407"
     x="674.2373"
     y="1674.5763"
     ry="2.1845" />
  <rect
     style="fill:none;fill-opacity:1;stroke:#ff0000;stroke-width:2;stroke-linecap:round;stroke-linejoin:round;stroke-miterlimit:4;stroke-dasharray:none;stroke-opacity:1"
     id="rect9028"
     width="41.864407"
     height="52.881355"
     x="2390.678"
     y="1203.0509"
     ry="2.1845" />
  <rect
     style="fill:none;fill-opacity:1;stroke:#ff0000;stroke-width:2;stroke-linecap:round;stroke-linejoin:round;stroke-miterlimit:4;stroke-dasharray:none;stroke-opacity:1"
     id="rect9030"
     width="50.67802"
     height="46.271221"
     x="2798.3052"
     y="1678.983"
     ry="2.1845" />
  <rect
     style="fill:none;fill-opacity:1;stroke:#ff0000;stroke-width:2;stroke-linecap:round;stroke-linejoin:round;stroke-miterlimit:4;stroke-dasharray:none;stroke-opacity:1"
     id="rect9032"
     width="41.864342"
     height="55.084759"
     x="2864.407"
     y="1670.1696"
     ry="2.1845" />
  <rect
     style="fill:none;fill-opacity:1;stroke:#00ff00;stroke-width:2;stroke-linecap:round;stroke-linejoin:round;stroke-miterlimit:4;stroke-dasharray:none;stroke-opacity:1"
     id="rect9034"
     width="94.745766"
     height="222.54237"
     x="1637.1187"
     y="561.86438"
     ry="2.1845" />
  <rect
     style="fill:none;fill-opacity:1;stroke:#00ff00;stroke-width:2;stroke-linecap:round;stroke-linejoin:round;stroke-miterlimit:4;stroke-dasharray:none;stroke-opacity:1"
     id="rect9036"
     width="79.322037"
     height="200.50847"
     x="1795.7627"
     y="583.89832"
     ry="2.1845" />
  <rect
     style="fill:none;fill-opacity:1;stroke:#00ff00;stroke-width:2;stroke-linecap:round;stroke-linejoin:round;stroke-miterlimit:4;stroke-dasharray:none;stroke-opacity:1"
     id="rect9038"
     width="169.66101"
     height="81.525421"
     x="1868.4746"
     y="797.62714"
     ry="2.1845" />
  <rect
     style="fill:none;fill-opacity:1;stroke:#00b000;stroke-width:2;stroke-linecap:round;stroke-linejoin:round;stroke-miterlimit:4;stroke-dasharray:none;stroke-opacity:1"
     id="rect9040"
     width="114.57627"
     height="237.96609"
     x="447.28815"
     y="1181.017"
     ry="2.1845" />
  <rect
     style="fill:none;fill-opacity:1;stroke:#00b000;stroke-width:2;stroke-linecap:round;stroke-linejoin:round;stroke-miterlimit:4;stroke-dasharray:none;stroke-opacity:1"
     id="rect9042"
     width="121.18644"
     height="229.15254"
     x="632.37286"
     y="1178.8136"
     ry="2.1845" />
  <rect
     style="fill:none;fill-opacity:1;stroke:#00b000;stroke-width:2;stroke-linecap:round;stroke-linejoin:round;stroke-miterlimit:4;stroke-dasharray:none;stroke-opacity:1"
     id="rect9044"
     width="178.47458"
     height="242.37288"
     x="522.20337"
     y="328.30508"
     ry="2.1845" />
  <rect
     style="fill:none;fill-opacity:1;stroke:#00b000;stroke-width:2;stroke-linecap:round;stroke-linejoin:round;stroke-miterlimit:4;stroke-dasharray:none;stroke-opacity:1"
     id="rect9046"
     width="240.16949"
     height="112.37288"
     x="1011.356"
     y="511.18643"
     ry="2.1845" />
  <rect
     style="fill:none;fill-opacity:1;stroke:#00b000;stroke-width:2;stroke-linecap:round;stroke-linejoin:round;stroke-miterlimit:4;stroke-dasharray:none;stroke-opacity:1"
     id="rect9048"
     width="237.96609"
     height="114.57627"
     x="1011.356"
     y="696.27118"
     ry="2.1845" />
  <rect
     style="fill:none;fill-opacity:1;stroke:#00b000;stroke-width:2;stroke-linecap:round;stroke-linejoin:round;stroke-miterlimit:4;stroke-dasharray:none;stroke-opacity:1"
     id="rect9050"
     width="240.16949"
     height="103.55932"
     x="2267.2881"
     y="696.27118"
     ry="2.1845" />
  <rect
     style="fill:none;fill-opacity:1;stroke:#00b000;stroke-width:2;stroke-linecap:round;stroke-linejoin:round;stroke-miterlimit:4;stroke-dasharray:none;stroke-opacity:1"
     id="rect9052"
     width="240.16949"
     height="116.77966"
     x="2269.4915"
     y="506.77966"
     ry="2.1845" />
  <rect
     style="fill:none;fill-opacity:1;stroke:#00b000;stroke-width:2;stroke-linecap:round;stroke-linejoin:round;stroke-miterlimit:4;stroke-dasharray:none;stroke-opacity:1"
     id="rect9054"
     width="182.88136"
     height="246.77966"
     x="2815.9321"
     y="328.30508"
     ry="2.1845" />
  <rect
     style="fill:none;fill-opacity:1;stroke:#00b000;stroke-width:2;stroke-linecap:round;stroke-linejoin:round;stroke-miterlimit:4;stroke-dasharray:none;stroke-opacity:1"
     id="rect9056"
     width="118.98305"
     height="235.76271"
     x="2760.8474"
     y="1178.8136"
     ry="2.1845" />
  <rect
     style="fill:none;fill-opacity:1;stroke:#00b000;stroke-width:2;stroke-linecap:round;stroke-linejoin:round;stroke-miterlimit:4;stroke-dasharray:none;stroke-opacity:1"
     id="rect9058"
     width="110.16949"
     height="237.96609"
     x="2954.7458"
     y="1170"
     ry="2.1845" />
  <rect
     style="fill:none;fill-opacity:1;stroke:#008000;stroke-width:2;stroke-linecap:round;stroke-linejoin:round;stroke-miterlimit:4;stroke-dasharray:none;stroke-opacity:1"
     id="rect9060"
     width="667.62714"
     height="299.66101"
     x="482.54236"
     y="1438.8136"
     ry="2.1845" />
  <rect
     style="fill:none;fill-opacity:1;stroke:#008000;stroke-width:2;stroke-linecap:round;stroke-linejoin:round;stroke-miterlimit:4;stroke-dasharray:none;stroke-opacity:1"
     id="rect9062"
     width="680.84741"
     height="279.83047"
     x="2366.4407"
     y="1434.4067"
     ry="2.1845" />
  <rect
     style="fill:none;fill-opacity:1;stroke:#000080;stroke-width:2;stroke-linecap:round;stroke-linejoin:round;stroke-miterlimit:4;stroke-dasharray:none;stroke-opacity:1"
     id="rect9064"
     width="152.03391"
     height="127.79661"
     x="1817.7966"
     y="1088.4746"
     ry="2.1845" />
  <rect
     style="fill:none;fill-opacity:1;stroke:#000080;stroke-width:2;stroke-linecap:round;stroke-linejoin:round;stroke-miterlimit:4;stroke-dasharray:none;stroke-opacity:1"
     id="rect9066"
     width="74.915253"
     height="77.118645"
     x="1789.1526"
     y="802.03387"
     ry="2.1845" />
  <rect
     style="fill:none;fill-opacity:1;stroke:#000080;stroke-width:2;stroke-linecap:round;stroke-linejoin:round;stroke-miterlimit:4;stroke-dasharray:none;stroke-opacity:1"
     id="rect9068"
     width="99.152542"
     height="96.94915"
     x="1936.7797"
     y="632.37286"
     ry="2.1845" />
  <rect
     style="fill:none;fill-opacity:1;stroke:#000080;stroke-width:2;stroke-linecap:round;stroke-linejoin:round;stroke-miterlimit:4;stroke-dasharray:none;stroke-opacity:1"
     id="rect9070"
     width="68.305084"
     height="77.118645"
     x="1793.5593"
     y="473.72882"
     ry="2.1845" />
  <rect
     style="fill:none;fill-opacity:1;stroke:#000080;stroke-width:2;stroke-linecap:round;stroke-linejoin:round;stroke-miterlimit:4;stroke-dasharray:none;stroke-opacity:1"
     id="rect9072"
     width="72.711868"
     height="72.711868"
     x="1654.7457"
     y="475.93219"
     ry="2.1845" />
  <rect
     style="fill:none;fill-opacity:1;stroke:#000080;stroke-width:2;stroke-linecap:round;stroke-linejoin:round;stroke-miterlimit:4;stroke-dasharray:none;stroke-opacity:1"
     id="rect9074"
     width="74.915253"
     height="68.305084"
     x="1650.339"
     y="808.64404"
     ry="2.1845" />
  <rect
     style="fill:none;fill-opacity:1;stroke:#000080;stroke-width:2;stroke-linecap:round;stroke-linejoin:round;stroke-miterlimit:4;stroke-dasharray:none;stroke-opacity:1"
     id="rect9076"
     width="101.35593"
     height="101.35593"
     x="1485.0847"
     y="630.16949"
     ry="2.1845" />
  <rect
     style="fill:none;fill-opacity:1;stroke:#000080;stroke-width:2;stroke-linecap:round;stroke-linejoin:round;stroke-miterlimit:4;stroke-dasharray:none;stroke-opacity:1"
     id="rect9078"
     width="88.13559"
     height="123.38983"
     x="1542.3729"
     y="1086.2712"
     ry="2.1845" />
  <rect
     style="fill:none;fill-opacity:1;stroke:#000080;stroke-width:2;stroke-linecap:round;stroke-linejoin:round;stroke-miterlimit:4;stroke-dasharray:none;stroke-opacity:1"
     id="rect9080"
     width="121.18639"
     height="110.1695"
     x="3075.9324"
     y="328.30508"
     ry="2.1845" />
  <rect
     style="fill:none;fill-opacity:1;stroke:#000080;stroke-width:2;stroke-linecap:round;stroke-linejoin:round;stroke-miterlimit:4;stroke-dasharray:none;stroke-opacity:1"
     id="rect9082"
     width="110.16949"
     height="112.37288"
     x="3080.3389"
     y="1293.3898"
     ry="2.1845" />
  <rect
     style="fill:none;fill-opacity:1;stroke:#000080;stroke-width:2;stroke-linecap:round;stroke-linejoin:round;stroke-miterlimit:4;stroke-dasharray:none;stroke-opacity:1"
     id="rect9084"
     width="123.38983"
     height="63.898304"
     x="319.49152"
     y="1346.2712"
     ry="2.1845" />
  <rect
     style="fill:none;fill-opacity:1;stroke:#000080;stroke-width:1.60128117;stroke-linecap:round;stroke-linejoin:round;stroke-miterlimit:4;stroke-dasharray:none;stroke-opacity:1"
     id="rect9086"
     width="110.56821"
     height="108.36481"
     x="321.49554"
     y="330.30911"
     ry="2.148716" />
  <rect
     style="fill:none;fill-opacity:1;stroke:#000080;stroke-width:2;stroke-linecap:round;stroke-linejoin:round;stroke-miterlimit:4;stroke-dasharray:none;stroke-opacity:1"
     id="rect12668"
     width="70.508476"
     height="44.067799"
     x="438.47458"
     y="326.10168"
     ry="2.14872" />
  <rect
     style="fill:none;fill-opacity:1;stroke:#000080;stroke-width:2;stroke-linecap:round;stroke-linejoin:round;stroke-miterlimit:4;stroke-dasharray:none;stroke-opacity:1"
     id="rect12670"
     width="74.915245"
     height="41.864391"
     x="696.27118"
     y="328.30508"
     ry="2.14872" />
  <rect
     style="fill:none;fill-opacity:1;stroke:#000080;stroke-width:2;stroke-linecap:round;stroke-linejoin:round;stroke-miterlimit:4;stroke-dasharray:none;stroke-opacity:1"
     id="rect12672"
     width="50.677967"
     height="46.271187"
     x="2265.0847"
     y="638.98303"
     ry="2.14872" />
  <rect
     style="fill:none;fill-opacity:1;stroke:#000080;stroke-width:2;stroke-linecap:round;stroke-linejoin:round;stroke-miterlimit:4;stroke-dasharray:none;stroke-opacity:1"
     id="rect12674"
     width="63.898304"
     height="46.271187"
     x="2743.2205"
     y="328.30508"
     ry="2.14872" />
  <rect
     style="fill:none;fill-opacity:1;stroke:#000080;stroke-width:2;stroke-linecap:round;stroke-linejoin:round;stroke-miterlimit:4;stroke-dasharray:none;stroke-opacity:1"
     id="rect12676"
     width="50.677967"
     height="44.067799"
     x="2346.6101"
     y="398.81354"
     ry="2.14872" />
  <rect
     style="fill:none;fill-opacity:1;stroke:#000080;stroke-width:2;stroke-linecap:round;stroke-linejoin:round;stroke-miterlimit:4;stroke-dasharray:none;stroke-opacity:1"
     id="rect12678"
     width="70.508476"
     height="46.271187"
     x="3007.6272"
     y="321.69489"
     ry="2.14872" />
  <rect
     style="fill:none;fill-opacity:1;stroke:#000080;stroke-width:2;stroke-linecap:round;stroke-linejoin:round;stroke-miterlimit:4;stroke-dasharray:none;stroke-opacity:1"
     id="rect12680"
     width="55.084747"
     height="46.271187"
     x="2886.4407"
     y="1368.3051"
     ry="2.1845" />
</svg>
