contour_details : [1678 880],[1678 1307],[2353 1307],[2353 1041],[2342 1030],[2342 1028],[2346 1024],[2346 1023],[2349 1020],[2349 1019],[2353 1015],[2353 1014],[2357 1010],[2357 1009],[2361 1005],[2361 1004],[2364 1001],[2364 1000],[2368 996],[2368 995],[2371 992],[2371 991],[2370 991],[2368 989],[2367 989],[2364 986],[2363 986],[2360 983],[2359 983],[2357 981],[2356 981],[2353 978],[2352 978],[2349 975],[2348 975],[2346 973],[2345 973],[2342 970],[2341 970],[2338 967],[2337 967],[2335 965],[2334 965],[2331 962],[2330 962],[2327 959],[2326 959],[2324 957],[2323 957],[2320 954],[2319 954],[2316 951],[2315 951],[2313 949],[2312 949],[2309 946],[2308 946],[2305 943],[2304 943],[2302 941],[2301 941],[2298 938],[2297 938],[2294 935],[2293 935],[2291 933],[2290 933],[2287 930],[2286 930],[2283 927],[2282 927],[2280 925],[2279 925],[2276 922],[2275 922],[2272 919],[2271 919],[2269 917],[2268 917],[2265 914],[2264 914],[2261 911],[2260 911],[2258 909],[2257 909],[2254 906],[2253 906],[2250 903],[2249 903],[2247 901],[2246 901],[2243 898],[2242 898],[2239 895],[2238 895],[2236 893],[2235 893],[2232 890],[2231 890],[2228 887],[2227 887],[2225 885],[2224 885],[2221 882],[2220 882],[2218 880] : repas : [1980,1096]
contour_details : [2540 580],[2539 581],[2298 581],[2297 582],[2224 582],[2224 864],[2225 864],[2228 867],[2229 867],[2232 870],[2233 870],[2236 873],[2237 873],[2239 875],[2240 875],[2243 878],[2244 878],[2247 881],[2248 881],[2251 884],[2252 884],[2255 887],[2256 887],[2259 890],[2260 890],[2263 893],[2264 893],[2267 896],[2268 896],[2271 899],[2272 899],[2275 902],[2276 902],[2279 905],[2280 905],[2283 908],[2284 908],[2287 911],[2288 911],[2291 914],[2292 914],[2295 917],[2296 917],[2299 920],[2300 920],[2303 923],[2304 923],[2307 926],[2308 926],[2311 929],[2312 929],[2315 932],[2316 932],[2319 935],[2320 935],[2323 938],[2324 938],[2326 940],[2327 940],[2330 943],[2331 943],[2334 946],[2335 946],[2338 949],[2339 949],[2342 952],[2343 952],[2346 955],[2347 955],[2350 958],[2351 958],[2354 961],[2355 961],[2358 964],[2359 964],[2362 967],[2363 967],[2366 970],[2367 970],[2370 973],[2371 973],[2374 976],[2375 976],[2378 979],[2379 979],[2382 982],[2383 982],[2386 985],[2387 985],[2390 988],[2391 988],[2394 991],[2395 991],[2397 993],[2398 993],[2474 917],[2707 917],[2707 580] : sejour : [2368,648]
contour_details : [1680 574],[1680 863],[2213 863],[2213 578],[2173 578],[2172 577],[2039 577],[2038 576],[1906 576],[1905 575],[1772 575],[1771 574] : cuisine : [1876,724]
