contour_details : [1610 1200],[1610 1299],[1739 1299],[1739 1200]
contour_details : [1360 1170],[1360 1274],[1359 1275],[830 1275],[830 1374],[1359 1374],[1360 1375],[1360 1669],[1459 1669],[1459 1330],[1405 1330],[1404 1329],[1404 1320],[1405 1319],[1459 1319],[1459 1170]
contour_details : [1725 1090],[1725 1189],[1819 1189],[1819 1090]
contour_details : [1340 1075],[1340 1159],[1439 1159],[1439 1075]
