contour_details : [1035 2245],[1035 2589],[1534 2589],[1534 2245] : sejour : [1254,2425]
contour_details : [1120 1725],[1120 2234],[1534 2234],[1534 1803],[1220 1803],[1219 1802],[1219 1725] : repas : [1300,2130]
contour_details : [1120 1555],[1120 1719],[1219 1719],[1219 1697],[1218 1696],[1218 1664],[1217 1663],[1217 1631],[1216 1630],[1216 1598],[1215 1597],[1215 1565],[1214 1564],[1214 1555] : wc : [1173,1649]
contour_details : [1015 1555],[1015 1899],[1114 1899],[1114 1853],[1113 1852],[1113 1784],[1112 1783],[1112 1715],[1111 1714],[1111 1646],[1110 1645],[1110 1577],[1109 1576],[1109 1555] : degt : [1069,1760]
contour_details : [1350 1290],[1350 1554],[1349 1555],[1225 1555],[1225 1587],[1226 1588],[1226 1635],[1227 1636],[1227 1683],[1228 1684],[1228 1731],[1229 1732],[1229 1779],[1230 1780],[1230 1794],[1534 1794],[1534 1290] : cuisine : [1346,1699]
