25
2
1.0
2
rectangle
22
65
14
61
29.8328677804
0.0
0.0
0.0
0.0
0.0
0.0
0.0
0.0
0.0
0.0
0.0
0.0
0.0
0.0
0.0
0.0
0.000568551007147
0.000649772579597
0.00227420402859
0.00243664717349
0.00316764132554
0.00324886289799
0.00194931773879
0.00251786874594
0.00227420402859
0.0
0.0
0.0
0.0
0.0
0.0
0.0
0.0
0.0
0.0
0.0
0.0
0.0
0.0
0.0
0.0
0.000568551007147
0.000649772579597
0.00227420402859
0.00243664717349
0.00316764132554
0.00324886289799
0.00194931773879
0.00251786874594
0.00227420402859
0.100820257273
0.000649772579597
0.000812215724496
0.000812215724496
0.000893437296946
0.000649772579597
0.000974658869396
0.000649772579597
0.000812215724496
0.000893437296946
0.000812215724496
0.000812215724496
0.000812215724496
0.000406107862248
0.000406107862248
0.000324886289799
0.000406107862248
0.000324886289799
0.000406107862248
0.000324886289799
0.000406107862248
0.000406107862248
0.000406107862248
0.000243664717349
0.000406107862248
0.000243664717349
0.000649772579597
0.000812215724496
0.000812215724496
0.000893437296946
0.000649772579597
0.000974658869396
0.000649772579597
0.000812215724496
0.000893437296946
0.000812215724496
0.000812215724496
0.000812215724496
0.000406107862248
0.000406107862248
0.000324886289799
0.000406107862248
0.000324886289799
0.000406107862248
0.000324886289799
0.000406107862248
0.000406107862248
0.000406107862248
0.000243664717349
0.000406107862248
0.000243664717349
3
unknown
31
56
25
50
13.6014705087
0.0
0.0
0.0
0.0
0.0
0.0
0.0
0.0
0.0
0.0
0.0
0.0
0.0
0.0
0.0
0.0
0.0
0.0
0.0294117647059
0.117647058824
0.205882352941
0.0588235294118
0.176470588235
0.205882352941
0.147058823529
0.264886897451
0.0441176470588
0.0588235294118
0.0294117647059
0.0588235294118
0.0294117647059
0.0441176470588
0.0294117647059
0.0441176470588
0.0441176470588
0.0294117647059
0.0441176470588
0.0588235294118
0.0147058823529
0.0294117647059
0.0147058823529
0.0147058823529
0.0147058823529
0.0147058823529
0.0147058823529
0.0147058823529
0.0294117647059
0.0147058823529
0.0147058823529
0.0147058823529
0.0147058823529
1
2
3
1
1
0.240126382306
floor
