25
2
1.73205080757
3
rectangle
18
127
15
62
56.6480361531
0.0
0.0
0.0
0.0
0.0
0.0
0.0
0.0
0.0
0.0
0.130136986301
0.0684931506849
0.0547945205479
0.041095890411
0.0547945205479
0.041095890411
0.027397260274
0.041095890411
0.0479452054795
0.041095890411
0.0787671232877
0.0547945205479
0.0582191780822
0.133561643836
0.123287671233
0.171121907601
0.0958904109589
0.0547945205479
0.0479452054795
0.0753424657534
0.0684931506849
0.0479452054795
0.0342465753425
0.0342465753425
0.027397260274
0.0205479452055
0.0205479452055
0.0205479452055
0.013698630137
0.0102739726027
0.0102739726027
0.0102739726027
0.013698630137
0.0171232876712
0.0171232876712
0.0239726027397
0.0239726027397
0.0239726027397
0.0171232876712
0.0239726027397
0.0205479452055
2
unknown
14
133
10
69
73.7902432575
0.0
0.0
0.0
0.0
0.0
0.0
0.0
0.0326594090202
0.045101088647
0.0342146189736
0.0575427682737
0.0917573872473
0.0622083981337
0.0528771384137
0.0528771384137
0.0528771384137
0.0575427682737
0.102643856921
0.0699844479005
0.0419906687403
0.0342146189736
0.0699844479005
0.0839813374806
0.0404354587869
0.0155520995334
0.024784235408
0.0466562986003
0.0528771384137
0.0606531881804
0.0824261275272
0.0777604976672
0.0513219284603
0.0419906687403
0.0342146189736
0.0279937791602
0.0233281493002
0.0233281493002
0.0217729393468
0.0155520995334
0.0124416796267
0.0139968895801
0.0139968895801
0.0155520995334
0.0202177293935
0.0217729393468
0.0248833592535
0.0264385692068
0.0202177293935
0.0202177293935
0.0202177293935
0.0186625194401
1
2
3
1
1
0.257533362032
floor
