contour_details : [2150 1355],[2150 1444],[2249 1444],[2249 1355]
contour_details : [1175 865],[1175 919],[1174 920],[835 920],[835 1209],[934 1209],[934 1020],[935 1019],[1214 1019],[1214 970],[1215 969],[1274 969],[1274 865]
contour_details : [1595 805],[1595 904],[1699 904],[1699 805]
